%YAML 1.1
%TAG !u! tag:unity3d.com,2011:
--- !u!74 &7400000
AnimationClip:
  m_ObjectHideFlags: 0
  m_CorrespondingSourceObject: {fileID: 0}
  m_PrefabInstance: {fileID: 0}
  m_PrefabAsset: {fileID: 0}
  m_Name: mooshroomWalk
  serializedVersion: 6
  m_Legacy: 0
  m_Compressed: 0
  m_UseHighQualityCurve: 1
  m_RotationCurves: []
  m_CompressedRotationCurves: []
  m_EulerCurves: []
  m_PositionCurves: []
  m_ScaleCurves: []
  m_FloatCurves: []
  m_PPtrCurves:
  - curve:
    - time: 0
      value: {fileID: 21300000, guid: e0261329229f22c4ca41e68c91fe12fe, type: 3}
    - time: 0.033333335
      value: {fileID: 21300000, guid: 656dbc225173d5e4286e57c4a6158e89, type: 3}
    - time: 0.06666667
      value: {fileID: 21300000, guid: f81bd5417bb6a7040984e5e88781d9e7, type: 3}
    - time: 0.1
      value: {fileID: 21300000, guid: 9ca3afb6be299804495f7856b7a03e14, type: 3}
    - time: 0.13333334
      value: {fileID: 21300000, guid: b818ae6373beae34786ceb44dd45b405, type: 3}
    - time: 0.16666667
      value: {fileID: 21300000, guid: a7f5269ce6c5f3e4dbd40518b2b5b301, type: 3}
    - time: 0.2
      value: {fileID: 21300000, guid: dc998420c0141254b838362519114417, type: 3}
    - time: 0.23333333
      value: {fileID: 21300000, guid: c2efe4ccc3b68fd4e9a1eb8537ff1586, type: 3}
    - time: 0.26666668
      value: {fileID: 21300000, guid: 56732f3cc30918c4aa89486aa019fdb1, type: 3}
    - time: 0.3
      value: {fileID: 21300000, guid: 4430404cd08459d458fcc2890f3dedd6, type: 3}
    - time: 0.33333334
      value: {fileID: 21300000, guid: cfe3b1291231b8a4e987ae88422e0bb3, type: 3}
    - time: 0.36666667
      value: {fileID: 21300000, guid: 4965c35ac67cd2e4a837ba41d03d86d2, type: 3}
    - time: 0.4
      value: {fileID: 21300000, guid: c2f5518f9acbd0149a03f82703e6aadd, type: 3}
    - time: 0.43333334
      value: {fileID: 21300000, guid: f0b531117b71bab47bc675b3f23d151d, type: 3}
    - time: 0.46666667
      value: {fileID: 21300000, guid: 5689f85b753773c488e87f8d00c6167f, type: 3}
    - time: 0.5
      value: {fileID: 21300000, guid: 9646050dab0af694fb398271eebe7379, type: 3}
    - time: 0.53333336
      value: {fileID: 21300000, guid: 01b642f032614d5458b0756ac13f4b01, type: 3}
    - time: 0.56666666
      value: {fileID: 21300000, guid: 71e7af2d0844f8b47bf6c94e67fddbee, type: 3}
    attribute: m_Sprite
    path: 
    classID: 212
    script: {fileID: 0}
  m_SampleRate: 30
  m_WrapMode: 0
  m_Bounds:
    m_Center: {x: 0, y: 0, z: 0}
    m_Extent: {x: 0, y: 0, z: 0}
  m_ClipBindingConstant:
    genericBindings:
    - serializedVersion: 2
      path: 0
      attribute: 0
      script: {fileID: 0}
      typeID: 212
      customType: 23
      isPPtrCurve: 1
    pptrCurveMapping:
    - {fileID: 21300000, guid: e0261329229f22c4ca41e68c91fe12fe, type: 3}
    - {fileID: 21300000, guid: 656dbc225173d5e4286e57c4a6158e89, type: 3}
    - {fileID: 21300000, guid: f81bd5417bb6a7040984e5e88781d9e7, type: 3}
    - {fileID: 21300000, guid: 9ca3afb6be299804495f7856b7a03e14, type: 3}
    - {fileID: 21300000, guid: b818ae6373beae34786ceb44dd45b405, type: 3}
    - {fileID: 21300000, guid: a7f5269ce6c5f3e4dbd40518b2b5b301, type: 3}
    - {fileID: 21300000, guid: dc998420c0141254b838362519114417, type: 3}
    - {fileID: 21300000, guid: c2efe4ccc3b68fd4e9a1eb8537ff1586, type: 3}
    - {fileID: 21300000, guid: 56732f3cc30918c4aa89486aa019fdb1, type: 3}
    - {fileID: 21300000, guid: 4430404cd08459d458fcc2890f3dedd6, type: 3}
    - {fileID: 21300000, guid: cfe3b1291231b8a4e987ae88422e0bb3, type: 3}
    - {fileID: 21300000, guid: 4965c35ac67cd2e4a837ba41d03d86d2, type: 3}
    - {fileID: 21300000, guid: c2f5518f9acbd0149a03f82703e6aadd, type: 3}
    - {fileID: 21300000, guid: f0b531117b71bab47bc675b3f23d151d, type: 3}
    - {fileID: 21300000, guid: 5689f85b753773c488e87f8d00c6167f, type: 3}
    - {fileID: 21300000, guid: 9646050dab0af694fb398271eebe7379, type: 3}
    - {fileID: 21300000, guid: 01b642f032614d5458b0756ac13f4b01, type: 3}
    - {fileID: 21300000, guid: 71e7af2d0844f8b47bf6c94e67fddbee, type: 3}
  m_AnimationClipSettings:
    serializedVersion: 2
    m_AdditiveReferencePoseClip: {fileID: 0}
    m_AdditiveReferencePoseTime: 0
    m_StartTime: 0
    m_StopTime: 0.6
    m_OrientationOffsetY: 0
    m_Level: 0
    m_CycleOffset: 0
    m_HasAdditiveReferencePose: 0
    m_LoopTime: 1
    m_LoopBlend: 0
    m_LoopBlendOrientation: 0
    m_LoopBlendPositionY: 0
    m_LoopBlendPositionXZ: 0
    m_KeepOriginalOrientation: 0
    m_KeepOriginalPositionY: 1
    m_KeepOriginalPositionXZ: 0
    m_HeightFromFeet: 0
    m_Mirror: 0
  m_EditorCurves: []
  m_EulerEditorCurves: []
  m_HasGenericRootTransform: 0
  m_HasMotionFloatCurves: 0
  m_Events: []
