%YAML 1.1
%TAG !u! tag:unity3d.com,2011:
--- !u!221 &22100000
AnimatorOverrideController:
  m_ObjectHideFlags: 0
  m_CorrespondingSourceObject: {fileID: 0}
  m_PrefabInstance: {fileID: 0}
  m_PrefabAsset: {fileID: 0}
  m_Name: NiebieskiKotolakOvierder
  m_Controller: {fileID: 9100000, guid: dce6775ea7d594c47945e28f0bb0d558, type: 2}
  m_Clips:
  - m_OriginalClip: {fileID: 7400000, guid: 2c8ce72facb0b23459df74c1cb356d7d, type: 2}
    m_OverrideClip: {fileID: 7400000, guid: deca4518342365943979367d3ebe5ecf, type: 2}
  - m_OriginalClip: {fileID: 7400000, guid: a67e80232a071cc4ab6d66d9537ff220, type: 2}
    m_OverrideClip: {fileID: 7400000, guid: 182f727d16c5d194a8e14d3cbf2f199f, type: 2}
  - m_OriginalClip: {fileID: 7400000, guid: b360901cf938d8b4caaa5f326f2df053, type: 2}
    m_OverrideClip: {fileID: 7400000, guid: d40206ddb41fc434ca1fb356237803b1, type: 2}
