%YAML 1.1
%TAG !u! tag:unity3d.com,2011:
--- !u!74 &7400000
AnimationClip:
  m_ObjectHideFlags: 0
  m_CorrespondingSourceObject: {fileID: 0}
  m_PrefabInstance: {fileID: 0}
  m_PrefabAsset: {fileID: 0}
  m_Name: LittleTreeRun
  serializedVersion: 6
  m_Legacy: 0
  m_Compressed: 0
  m_UseHighQualityCurve: 1
  m_RotationCurves: []
  m_CompressedRotationCurves: []
  m_EulerCurves: []
  m_PositionCurves: []
  m_ScaleCurves: []
  m_FloatCurves: []
  m_PPtrCurves:
  - curve:
    - time: 0
      value: {fileID: 21300000, guid: 4f66f27811744d6478cad45c22e68edf, type: 3}
    - time: 0.083333336
      value: {fileID: 21300000, guid: 42a2da5c418c8fa4faeabce6632ed497, type: 3}
    - time: 0.16666667
      value: {fileID: 21300000, guid: 26252c271c3bcd74aa179864bb74fa52, type: 3}
    - time: 0.25
      value: {fileID: 21300000, guid: ef74ac1623d20dd46be04d811a74e13d, type: 3}
    - time: 0.33333334
      value: {fileID: 21300000, guid: 71b1b0c1e45b2b54b9628b45aa4ede23, type: 3}
    - time: 0.41666666
      value: {fileID: 21300000, guid: 0967a8d08caec5440bc4ebd5ef5e3e8b, type: 3}
    - time: 0.5
      value: {fileID: 21300000, guid: 9828b7a2e64745e439a7ad4747994aa1, type: 3}
    - time: 0.5833333
      value: {fileID: 21300000, guid: 3fee79f83d371db42aeacbf7b8034414, type: 3}
    - time: 0.6666667
      value: {fileID: 21300000, guid: f62b58f280cedf74980e4314b27bdf92, type: 3}
    - time: 0.75
      value: {fileID: 21300000, guid: b3ce6b4cd98e1584a991bad429cf999e, type: 3}
    - time: 0.8333333
      value: {fileID: 21300000, guid: 9efb07604b08e0c45a613c4bbda05ce4, type: 3}
    - time: 0.9166667
      value: {fileID: 21300000, guid: 3a1d6eccb03f5f142b852d182b463917, type: 3}
    - time: 1
      value: {fileID: 21300000, guid: c806e27c3b46a7144bcbc063f1e1f9ec, type: 3}
    - time: 1.0833334
      value: {fileID: 21300000, guid: 86bca4834c6a27d469fe2120a69f8e2b, type: 3}
    - time: 1.1666666
      value: {fileID: 21300000, guid: 9c07237b6a2551540ba44b582b3430f8, type: 3}
    - time: 1.25
      value: {fileID: 21300000, guid: d4007bf8e31f2264bbc364ef14da0005, type: 3}
    - time: 1.3333334
      value: {fileID: 21300000, guid: fa3da1c795065054b8980a9dcad42757, type: 3}
    - time: 1.4166666
      value: {fileID: 21300000, guid: 1472157587d9e3245bdb3959a1bba7a2, type: 3}
    - time: 1.5
      value: {fileID: 21300000, guid: 20029680f0d78e94fa13547ca615ea6f, type: 3}
    attribute: m_Sprite
    path: 
    classID: 212
    script: {fileID: 0}
  m_SampleRate: 12
  m_WrapMode: 0
  m_Bounds:
    m_Center: {x: 0, y: 0, z: 0}
    m_Extent: {x: 0, y: 0, z: 0}
  m_ClipBindingConstant:
    genericBindings:
    - serializedVersion: 2
      path: 0
      attribute: 0
      script: {fileID: 0}
      typeID: 212
      customType: 23
      isPPtrCurve: 1
    pptrCurveMapping:
    - {fileID: 21300000, guid: 4f66f27811744d6478cad45c22e68edf, type: 3}
    - {fileID: 21300000, guid: 42a2da5c418c8fa4faeabce6632ed497, type: 3}
    - {fileID: 21300000, guid: 26252c271c3bcd74aa179864bb74fa52, type: 3}
    - {fileID: 21300000, guid: ef74ac1623d20dd46be04d811a74e13d, type: 3}
    - {fileID: 21300000, guid: 71b1b0c1e45b2b54b9628b45aa4ede23, type: 3}
    - {fileID: 21300000, guid: 0967a8d08caec5440bc4ebd5ef5e3e8b, type: 3}
    - {fileID: 21300000, guid: 9828b7a2e64745e439a7ad4747994aa1, type: 3}
    - {fileID: 21300000, guid: 3fee79f83d371db42aeacbf7b8034414, type: 3}
    - {fileID: 21300000, guid: f62b58f280cedf74980e4314b27bdf92, type: 3}
    - {fileID: 21300000, guid: b3ce6b4cd98e1584a991bad429cf999e, type: 3}
    - {fileID: 21300000, guid: 9efb07604b08e0c45a613c4bbda05ce4, type: 3}
    - {fileID: 21300000, guid: 3a1d6eccb03f5f142b852d182b463917, type: 3}
    - {fileID: 21300000, guid: c806e27c3b46a7144bcbc063f1e1f9ec, type: 3}
    - {fileID: 21300000, guid: 86bca4834c6a27d469fe2120a69f8e2b, type: 3}
    - {fileID: 21300000, guid: 9c07237b6a2551540ba44b582b3430f8, type: 3}
    - {fileID: 21300000, guid: d4007bf8e31f2264bbc364ef14da0005, type: 3}
    - {fileID: 21300000, guid: fa3da1c795065054b8980a9dcad42757, type: 3}
    - {fileID: 21300000, guid: 1472157587d9e3245bdb3959a1bba7a2, type: 3}
    - {fileID: 21300000, guid: 20029680f0d78e94fa13547ca615ea6f, type: 3}
  m_AnimationClipSettings:
    serializedVersion: 2
    m_AdditiveReferencePoseClip: {fileID: 0}
    m_AdditiveReferencePoseTime: 0
    m_StartTime: 0
    m_StopTime: 1.5833334
    m_OrientationOffsetY: 0
    m_Level: 0
    m_CycleOffset: 0
    m_HasAdditiveReferencePose: 0
    m_LoopTime: 1
    m_LoopBlend: 0
    m_LoopBlendOrientation: 0
    m_LoopBlendPositionY: 0
    m_LoopBlendPositionXZ: 0
    m_KeepOriginalOrientation: 0
    m_KeepOriginalPositionY: 1
    m_KeepOriginalPositionXZ: 0
    m_HeightFromFeet: 0
    m_Mirror: 0
  m_EditorCurves: []
  m_EulerEditorCurves: []
  m_HasGenericRootTransform: 0
  m_HasMotionFloatCurves: 0
  m_Events: []
