%YAML 1.1
%TAG !u! tag:unity3d.com,2011:
--- !u!74 &7400000
AnimationClip:
  m_ObjectHideFlags: 0
  m_CorrespondingSourceObject: {fileID: 0}
  m_PrefabInstance: {fileID: 0}
  m_PrefabAsset: {fileID: 0}
  m_Name: Summon
  serializedVersion: 6
  m_Legacy: 0
  m_Compressed: 0
  m_UseHighQualityCurve: 1
  m_RotationCurves: []
  m_CompressedRotationCurves: []
  m_EulerCurves: []
  m_PositionCurves: []
  m_ScaleCurves: []
  m_FloatCurves: []
  m_PPtrCurves:
  - curve:
    - time: 0
      value: {fileID: 21300000, guid: 8646ccabc85854c488dbd84209c6f76a, type: 3}
    - time: 0.083333336
      value: {fileID: 21300000, guid: 0ecadee002bdda14194c285bc7a56ac5, type: 3}
    - time: 0.16666667
      value: {fileID: 21300000, guid: 44398b6f1a40b6442a297b5502cec9a9, type: 3}
    - time: 0.25
      value: {fileID: 21300000, guid: e4e49bb399fe8954f8287c3057bde0e7, type: 3}
    - time: 0.33333334
      value: {fileID: 21300000, guid: 387bbbcf43b7417478e1dc9583887cd8, type: 3}
    - time: 0.41666666
      value: {fileID: 21300000, guid: 4a456f28b07d80542adcdded0d45baa8, type: 3}
    - time: 0.5
      value: {fileID: 21300000, guid: 7044941b10261ed4ebaec1f6bc90364e, type: 3}
    - time: 0.5833333
      value: {fileID: 21300000, guid: 00d62c3adeae02e48be4557e77bda39f, type: 3}
    - time: 0.6666667
      value: {fileID: 21300000, guid: ab2c30f4307e85f40a2bbca79bb9b836, type: 3}
    - time: 0.75
      value: {fileID: 21300000, guid: f119b642e6b112045b12fa15ea94fa94, type: 3}
    - time: 0.8333333
      value: {fileID: 21300000, guid: d75c1e1db3d3a644a8ab1071f92ffcde, type: 3}
    - time: 0.9166667
      value: {fileID: 21300000, guid: 324a293d4197e7140852ce2a48daa49c, type: 3}
    - time: 1
      value: {fileID: 21300000, guid: a1564c1a04c563e4081480a8c189f4d6, type: 3}
    - time: 1.0833334
      value: {fileID: 21300000, guid: 0b4761c69b8c0f743a5bf0e5720b7158, type: 3}
    - time: 1.1666666
      value: {fileID: 21300000, guid: a6d0f01500d799e4bbcf4e70997ff1a0, type: 3}
    attribute: m_Sprite
    path: 
    classID: 212
    script: {fileID: 0}
  m_SampleRate: 12
  m_WrapMode: 0
  m_Bounds:
    m_Center: {x: 0, y: 0, z: 0}
    m_Extent: {x: 0, y: 0, z: 0}
  m_ClipBindingConstant:
    genericBindings:
    - serializedVersion: 2
      path: 0
      attribute: 0
      script: {fileID: 0}
      typeID: 212
      customType: 23
      isPPtrCurve: 1
    pptrCurveMapping:
    - {fileID: 21300000, guid: 8646ccabc85854c488dbd84209c6f76a, type: 3}
    - {fileID: 21300000, guid: 0ecadee002bdda14194c285bc7a56ac5, type: 3}
    - {fileID: 21300000, guid: 44398b6f1a40b6442a297b5502cec9a9, type: 3}
    - {fileID: 21300000, guid: e4e49bb399fe8954f8287c3057bde0e7, type: 3}
    - {fileID: 21300000, guid: 387bbbcf43b7417478e1dc9583887cd8, type: 3}
    - {fileID: 21300000, guid: 4a456f28b07d80542adcdded0d45baa8, type: 3}
    - {fileID: 21300000, guid: 7044941b10261ed4ebaec1f6bc90364e, type: 3}
    - {fileID: 21300000, guid: 00d62c3adeae02e48be4557e77bda39f, type: 3}
    - {fileID: 21300000, guid: ab2c30f4307e85f40a2bbca79bb9b836, type: 3}
    - {fileID: 21300000, guid: f119b642e6b112045b12fa15ea94fa94, type: 3}
    - {fileID: 21300000, guid: d75c1e1db3d3a644a8ab1071f92ffcde, type: 3}
    - {fileID: 21300000, guid: 324a293d4197e7140852ce2a48daa49c, type: 3}
    - {fileID: 21300000, guid: a1564c1a04c563e4081480a8c189f4d6, type: 3}
    - {fileID: 21300000, guid: 0b4761c69b8c0f743a5bf0e5720b7158, type: 3}
    - {fileID: 21300000, guid: a6d0f01500d799e4bbcf4e70997ff1a0, type: 3}
  m_AnimationClipSettings:
    serializedVersion: 2
    m_AdditiveReferencePoseClip: {fileID: 0}
    m_AdditiveReferencePoseTime: 0
    m_StartTime: 0
    m_StopTime: 1.25
    m_OrientationOffsetY: 0
    m_Level: 0
    m_CycleOffset: 0
    m_HasAdditiveReferencePose: 0
    m_LoopTime: 0
    m_LoopBlend: 0
    m_LoopBlendOrientation: 0
    m_LoopBlendPositionY: 0
    m_LoopBlendPositionXZ: 0
    m_KeepOriginalOrientation: 0
    m_KeepOriginalPositionY: 1
    m_KeepOriginalPositionXZ: 0
    m_HeightFromFeet: 0
    m_Mirror: 0
  m_EditorCurves: []
  m_EulerEditorCurves: []
  m_HasGenericRootTransform: 0
  m_HasMotionFloatCurves: 0
  m_Events:
  - time: 1.1666666
    functionName: Spawn
    data: 
    objectReferenceParameter: {fileID: 0}
    floatParameter: 0
    intParameter: 0
    messageOptions: 0
