%YAML 1.1
%TAG !u! tag:unity3d.com,2011:
--- !u!1 &8355609629274668359
GameObject:
  m_ObjectHideFlags: 0
  m_CorrespondingSourceObject: {fileID: 0}
  m_PrefabInstance: {fileID: 0}
  m_PrefabAsset: {fileID: 0}
  serializedVersion: 6
  m_Component:
  - component: {fileID: 8355609629274668356}
  - component: {fileID: 8355609629274668354}
  - component: {fileID: 8355609629274668357}
  - component: {fileID: 8355609629274668355}
  - component: {fileID: 3986376916541048029}
  m_Layer: 9
  m_Name: Spike
  m_TagString: Untagged
  m_Icon: {fileID: 0}
  m_NavMeshLayer: 0
  m_StaticEditorFlags: 0
  m_IsActive: 1
--- !u!4 &8355609629274668356
Transform:
  m_ObjectHideFlags: 0
  m_CorrespondingSourceObject: {fileID: 0}
  m_PrefabInstance: {fileID: 0}
  m_PrefabAsset: {fileID: 0}
  m_GameObject: {fileID: 8355609629274668359}
  m_LocalRotation: {x: 0, y: 0, z: 0, w: 1}
  m_LocalPosition: {x: 1.511, y: 0, z: 0}
  m_LocalScale: {x: 1, y: 1, z: 1}
  m_Children: []
  m_Father: {fileID: 0}
  m_RootOrder: 0
  m_LocalEulerAnglesHint: {x: 0, y: 0, z: 0}
--- !u!114 &8355609629274668354
MonoBehaviour:
  m_ObjectHideFlags: 0
  m_CorrespondingSourceObject: {fileID: 0}
  m_PrefabInstance: {fileID: 0}
  m_PrefabAsset: {fileID: 0}
  m_GameObject: {fileID: 8355609629274668359}
  m_Enabled: 1
  m_EditorHideFlags: 0
  m_Script: {fileID: 11500000, guid: bb846ca90c866ec468c41d353c69f2bb, type: 3}
  m_Name: 
  m_EditorClassIdentifier: 
  animationName: 
  sprites:
  - {fileID: 21300000, guid: 4895fb5288e5fa842a4056932eb6356b, type: 3}
  - {fileID: 21300000, guid: a6307b5e9168220489ed559fcdd76000, type: 3}
  - {fileID: 21300000, guid: f7a1aa34d1bc65a4bb38967ece5c6c69, type: 3}
  - {fileID: 21300000, guid: ead994afec3b9f548983888523d63cb3, type: 3}
  - {fileID: 21300000, guid: 6d7bcf21447164f41b306b3d57e7cd0e, type: 3}
  - {fileID: 21300000, guid: 708d9123541a9d641928d5759e0510be, type: 3}
  - {fileID: 21300000, guid: 0f8f68fd90bc68b419e91d19a3830490, type: 3}
  - {fileID: 21300000, guid: edbf995c230a4864d8e48b97fa6f6c8f, type: 3}
  - {fileID: 21300000, guid: 9b2669bc18079cc48bf1619b10582573, type: 3}
  - {fileID: 21300000, guid: 78f56306937e3a241911da603d158de6, type: 3}
  - {fileID: 21300000, guid: 004e0328826067946813e7fea76c2487, type: 3}
  renderer: {fileID: 8355609629274668357}
  currentSprite: {fileID: 21300000, guid: 4895fb5288e5fa842a4056932eb6356b, type: 3}
  duration: 1.2
  process: 0
--- !u!212 &8355609629274668357
SpriteRenderer:
  m_ObjectHideFlags: 0
  m_CorrespondingSourceObject: {fileID: 0}
  m_PrefabInstance: {fileID: 0}
  m_PrefabAsset: {fileID: 0}
  m_GameObject: {fileID: 8355609629274668359}
  m_Enabled: 1
  m_CastShadows: 0
  m_ReceiveShadows: 0
  m_DynamicOccludee: 1
  m_MotionVectors: 1
  m_LightProbeUsage: 1
  m_ReflectionProbeUsage: 1
  m_RayTracingMode: 0
  m_RayTraceProcedural: 0
  m_RenderingLayerMask: 1
  m_RendererPriority: 0
  m_Materials:
  - {fileID: 10754, guid: 0000000000000000f000000000000000, type: 0}
  m_StaticBatchInfo:
    firstSubMesh: 0
    subMeshCount: 0
  m_StaticBatchRoot: {fileID: 0}
  m_ProbeAnchor: {fileID: 0}
  m_LightProbeVolumeOverride: {fileID: 0}
  m_ScaleInLightmap: 1
  m_ReceiveGI: 1
  m_PreserveUVs: 0
  m_IgnoreNormalsForChartDetection: 0
  m_ImportantGI: 0
  m_StitchLightmapSeams: 1
  m_SelectedEditorRenderState: 0
  m_MinimumChartSize: 4
  m_AutoUVMaxDistance: 0.5
  m_AutoUVMaxAngle: 89
  m_LightmapParameters: {fileID: 0}
  m_SortingLayerID: 0
  m_SortingLayer: 0
  m_SortingOrder: 20
  m_Sprite: {fileID: 21300000, guid: 4895fb5288e5fa842a4056932eb6356b, type: 3}
  m_Color: {r: 1, g: 1, b: 1, a: 1}
  m_FlipX: 0
  m_FlipY: 0
  m_DrawMode: 0
  m_Size: {x: 1.28, y: 1.28}
  m_AdaptiveModeThreshold: 0.5
  m_SpriteTileMode: 0
  m_WasSpriteAssigned: 1
  m_MaskInteraction: 0
  m_SpriteSortPoint: 0
--- !u!114 &8355609629274668355
MonoBehaviour:
  m_ObjectHideFlags: 0
  m_CorrespondingSourceObject: {fileID: 0}
  m_PrefabInstance: {fileID: 0}
  m_PrefabAsset: {fileID: 0}
  m_GameObject: {fileID: 8355609629274668359}
  m_Enabled: 1
  m_EditorHideFlags: 0
  m_Script: {fileID: 11500000, guid: 2abd653ee91b9234990fc6eba8b4f76e, type: 3}
  m_Name: 
  m_EditorClassIdentifier: 
  spriteRend: {fileID: 8355609629274668357}
  animator: {fileID: 8355609629274668354}
  poolOwner:
    poolTransform: {fileID: 0}
    elements: []
    poolPrefab: {fileID: 0}
--- !u!61 &3986376916541048029
BoxCollider2D:
  m_ObjectHideFlags: 0
  m_CorrespondingSourceObject: {fileID: 0}
  m_PrefabInstance: {fileID: 0}
  m_PrefabAsset: {fileID: 0}
  m_GameObject: {fileID: 8355609629274668359}
  m_Enabled: 1
  m_Density: 1
  m_Material: {fileID: 0}
  m_IsTrigger: 1
  m_UsedByEffector: 0
  m_UsedByComposite: 0
  m_Offset: {x: 0, y: 0}
  m_SpriteTilingProperty:
    border: {x: 0, y: 0, z: 0, w: 0}
    pivot: {x: 0.5, y: 0.5}
    oldSize: {x: 1.28, y: 1.28}
    newSize: {x: 1.28, y: 1.28}
    adaptiveTilingThreshold: 0.5
    drawMode: 0
    adaptiveTiling: 0
  m_AutoTiling: 0
  serializedVersion: 2
  m_Size: {x: 1.28, y: 1.28}
  m_EdgeRadius: 0
