%YAML 1.1
%TAG !u! tag:unity3d.com,2011:
--- !u!1001 &1847653301320877477
PrefabInstance:
  m_ObjectHideFlags: 0
  serializedVersion: 2
  m_Modification:
    m_TransformParent: {fileID: 0}
    m_Modifications:
    - target: {fileID: 24237505, guid: a7d80adf276e58a4f97be78dc83d55b6, type: 3}
      propertyPath: m_AnchorMax.x
      value: 0
      objectReference: {fileID: 0}
    - target: {fileID: 24237505, guid: a7d80adf276e58a4f97be78dc83d55b6, type: 3}
      propertyPath: m_AnchorMax.y
      value: 0
      objectReference: {fileID: 0}
    - target: {fileID: 851808754, guid: a7d80adf276e58a4f97be78dc83d55b6, type: 3}
      propertyPath: m_AnchorMax.y
      value: 0
      objectReference: {fileID: 0}
    - target: {fileID: 851808754, guid: a7d80adf276e58a4f97be78dc83d55b6, type: 3}
      propertyPath: m_AnchorMin.y
      value: 0
      objectReference: {fileID: 0}
    - target: {fileID: 851808754, guid: a7d80adf276e58a4f97be78dc83d55b6, type: 3}
      propertyPath: m_SizeDelta.x
      value: 0
      objectReference: {fileID: 0}
    - target: {fileID: 851808754, guid: a7d80adf276e58a4f97be78dc83d55b6, type: 3}
      propertyPath: m_AnchoredPosition.x
      value: 0
      objectReference: {fileID: 0}
    - target: {fileID: 851808754, guid: a7d80adf276e58a4f97be78dc83d55b6, type: 3}
      propertyPath: m_AnchoredPosition.y
      value: 0
      objectReference: {fileID: 0}
    - target: {fileID: 861384370, guid: a7d80adf276e58a4f97be78dc83d55b6, type: 3}
      propertyPath: m_AnchoredPosition.y
      value: 1.572
      objectReference: {fileID: 0}
    - target: {fileID: 1648795955158067742, guid: a7d80adf276e58a4f97be78dc83d55b6, type: 3}
      propertyPath: m_Controller
      value: 
      objectReference: {fileID: 22100000, guid: a8c1b0fa2dbfc79468cc35609b5135a1, type: 2}
    - target: {fileID: 1799664797607578835, guid: a7d80adf276e58a4f97be78dc83d55b6, type: 3}
      propertyPath: m_Sprite
      value: 
      objectReference: {fileID: 21300000, guid: 1042d7a89fc71a048a78680ff2b8cfad, type: 3}
    - target: {fileID: 4329231840186391187, guid: a7d80adf276e58a4f97be78dc83d55b6, type: 3}
      propertyPath: m_Size.x
      value: 3.4886723
      objectReference: {fileID: 0}
    - target: {fileID: 4329231840186391187, guid: a7d80adf276e58a4f97be78dc83d55b6, type: 3}
      propertyPath: m_Size.y
      value: 1
      objectReference: {fileID: 0}
    - target: {fileID: 4329231840186391187, guid: a7d80adf276e58a4f97be78dc83d55b6, type: 3}
      propertyPath: m_Offset.x
      value: 0
      objectReference: {fileID: 0}
    - target: {fileID: 4329231840186391187, guid: a7d80adf276e58a4f97be78dc83d55b6, type: 3}
      propertyPath: m_Offset.y
      value: 0.5
      objectReference: {fileID: 0}
    - target: {fileID: 4845746795084501945, guid: a7d80adf276e58a4f97be78dc83d55b6, type: 3}
      propertyPath: m_LocalScale.x
      value: 0.23
      objectReference: {fileID: 0}
    - target: {fileID: 4845746795084501945, guid: a7d80adf276e58a4f97be78dc83d55b6, type: 3}
      propertyPath: m_LocalScale.y
      value: 0.23
      objectReference: {fileID: 0}
    - target: {fileID: 6612465338885769981, guid: a7d80adf276e58a4f97be78dc83d55b6, type: 3}
      propertyPath: m_Size.x
      value: 1.55
      objectReference: {fileID: 0}
    - target: {fileID: 6612465338885769981, guid: a7d80adf276e58a4f97be78dc83d55b6, type: 3}
      propertyPath: m_Size.y
      value: 0.95273864
      objectReference: {fileID: 0}
    - target: {fileID: 6612465338885769981, guid: a7d80adf276e58a4f97be78dc83d55b6, type: 3}
      propertyPath: m_Offset.x
      value: 0
      objectReference: {fileID: 0}
    - target: {fileID: 6612465338885769981, guid: a7d80adf276e58a4f97be78dc83d55b6, type: 3}
      propertyPath: m_Offset.y
      value: 0.48136443
      objectReference: {fileID: 0}
    - target: {fileID: 7643935551872463221, guid: a7d80adf276e58a4f97be78dc83d55b6, type: 3}
      propertyPath: m_SizeDelta.x
      value: 2
      objectReference: {fileID: 0}
    - target: {fileID: 7933863346094800619, guid: a7d80adf276e58a4f97be78dc83d55b6, type: 3}
      propertyPath: m_Name
      value: Dragon
      objectReference: {fileID: 0}
    - target: {fileID: 7933863346094800628, guid: a7d80adf276e58a4f97be78dc83d55b6, type: 3}
      propertyPath: m_RootOrder
      value: 0
      objectReference: {fileID: 0}
    - target: {fileID: 7933863346094800628, guid: a7d80adf276e58a4f97be78dc83d55b6, type: 3}
      propertyPath: m_LocalPosition.x
      value: 0
      objectReference: {fileID: 0}
    - target: {fileID: 7933863346094800628, guid: a7d80adf276e58a4f97be78dc83d55b6, type: 3}
      propertyPath: m_LocalPosition.y
      value: 0
      objectReference: {fileID: 0}
    - target: {fileID: 7933863346094800628, guid: a7d80adf276e58a4f97be78dc83d55b6, type: 3}
      propertyPath: m_LocalPosition.z
      value: 0
      objectReference: {fileID: 0}
    - target: {fileID: 7933863346094800628, guid: a7d80adf276e58a4f97be78dc83d55b6, type: 3}
      propertyPath: m_LocalRotation.w
      value: 1
      objectReference: {fileID: 0}
    - target: {fileID: 7933863346094800628, guid: a7d80adf276e58a4f97be78dc83d55b6, type: 3}
      propertyPath: m_LocalRotation.x
      value: 0
      objectReference: {fileID: 0}
    - target: {fileID: 7933863346094800628, guid: a7d80adf276e58a4f97be78dc83d55b6, type: 3}
      propertyPath: m_LocalRotation.y
      value: 0
      objectReference: {fileID: 0}
    - target: {fileID: 7933863346094800628, guid: a7d80adf276e58a4f97be78dc83d55b6, type: 3}
      propertyPath: m_LocalRotation.z
      value: 0
      objectReference: {fileID: 0}
    - target: {fileID: 7933863346094800628, guid: a7d80adf276e58a4f97be78dc83d55b6, type: 3}
      propertyPath: m_LocalEulerAnglesHint.x
      value: 0
      objectReference: {fileID: 0}
    - target: {fileID: 7933863346094800628, guid: a7d80adf276e58a4f97be78dc83d55b6, type: 3}
      propertyPath: m_LocalEulerAnglesHint.y
      value: 0
      objectReference: {fileID: 0}
    - target: {fileID: 7933863346094800628, guid: a7d80adf276e58a4f97be78dc83d55b6, type: 3}
      propertyPath: m_LocalEulerAnglesHint.z
      value: 0
      objectReference: {fileID: 0}
    - target: {fileID: 7933863346094800631, guid: a7d80adf276e58a4f97be78dc83d55b6, type: 3}
      propertyPath: preview
      value: 
      objectReference: {fileID: 21300000, guid: 1042d7a89fc71a048a78680ff2b8cfad, type: 3}
    - target: {fileID: 7933863346094800631, guid: a7d80adf276e58a4f97be78dc83d55b6, type: 3}
      propertyPath: monsterName
      value: Dragon
      objectReference: {fileID: 0}
    m_RemovedComponents: []
  m_SourcePrefab: {fileID: 100100000, guid: a7d80adf276e58a4f97be78dc83d55b6, type: 3}
