%YAML 1.1
%TAG !u! tag:unity3d.com,2011:
--- !u!221 &22100000
AnimatorOverrideController:
  m_ObjectHideFlags: 0
  m_CorrespondingSourceObject: {fileID: 0}
  m_PrefabInstance: {fileID: 0}
  m_PrefabAsset: {fileID: 0}
  m_Name: RakOverrider
  m_Controller: {fileID: 9100000, guid: dce6775ea7d594c47945e28f0bb0d558, type: 2}
  m_Clips:
  - m_OriginalClip: {fileID: 7400000, guid: 34ecfed2d7c1f1645875028c8b9b0bda, type: 2}
    m_OverrideClip: {fileID: 7400000, guid: 34ecfed2d7c1f1645875028c8b9b0bda, type: 2}
  - m_OriginalClip: {fileID: 7400000, guid: 2c8ce72facb0b23459df74c1cb356d7d, type: 2}
    m_OverrideClip: {fileID: 7400000, guid: 2c8ce72facb0b23459df74c1cb356d7d, type: 2}
  - m_OriginalClip: {fileID: 7400000, guid: a67e80232a071cc4ab6d66d9537ff220, type: 2}
    m_OverrideClip: {fileID: 7400000, guid: a67e80232a071cc4ab6d66d9537ff220, type: 2}
