%YAML 1.1
%TAG !u! tag:unity3d.com,2011:
--- !u!74 &7400000
AnimationClip:
  m_ObjectHideFlags: 0
  m_CorrespondingSourceObject: {fileID: 0}
  m_PrefabInstance: {fileID: 0}
  m_PrefabAsset: {fileID: 0}
  m_Name: Walk
  serializedVersion: 6
  m_Legacy: 0
  m_Compressed: 0
  m_UseHighQualityCurve: 1
  m_RotationCurves: []
  m_CompressedRotationCurves: []
  m_EulerCurves: []
  m_PositionCurves: []
  m_ScaleCurves: []
  m_FloatCurves: []
  m_PPtrCurves:
  - curve:
    - time: 0
      value: {fileID: 21300000, guid: 1d56ea431da366848bedc36d9893fc4c, type: 3}
    - time: 0.06666667
      value: {fileID: 21300000, guid: 85493a5158059f6468fb2279ffb6789a, type: 3}
    - time: 0.13333334
      value: {fileID: 21300000, guid: 698f3facf0e5fb8409d3183a553353c5, type: 3}
    - time: 0.2
      value: {fileID: 21300000, guid: f9f44124b081fc34a8c8d2950f5b700c, type: 3}
    - time: 0.26666668
      value: {fileID: 21300000, guid: ddd8fb3443dbf1c408b9b83b628e7d87, type: 3}
    - time: 0.33333334
      value: {fileID: 21300000, guid: 78afec99667c63e45a49d9af0d77a407, type: 3}
    - time: 0.4
      value: {fileID: 21300000, guid: 3034cfa3251d9a74e8fd24aedc7945fa, type: 3}
    - time: 0.46666667
      value: {fileID: 21300000, guid: 4c93e5005533dc24784e534d615bf0cf, type: 3}
    - time: 0.53333336
      value: {fileID: 21300000, guid: 2dfb0f494f6c25e4b989858119fd4352, type: 3}
    - time: 0.6
      value: {fileID: 21300000, guid: d8bbe04623113fb4f8747ef26c6024b8, type: 3}
    attribute: m_Sprite
    path: 
    classID: 212
    script: {fileID: 0}
  m_SampleRate: 15
  m_WrapMode: 0
  m_Bounds:
    m_Center: {x: 0, y: 0, z: 0}
    m_Extent: {x: 0, y: 0, z: 0}
  m_ClipBindingConstant:
    genericBindings:
    - serializedVersion: 2
      path: 0
      attribute: 0
      script: {fileID: 0}
      typeID: 212
      customType: 23
      isPPtrCurve: 1
    pptrCurveMapping:
    - {fileID: 21300000, guid: 1d56ea431da366848bedc36d9893fc4c, type: 3}
    - {fileID: 21300000, guid: 85493a5158059f6468fb2279ffb6789a, type: 3}
    - {fileID: 21300000, guid: 698f3facf0e5fb8409d3183a553353c5, type: 3}
    - {fileID: 21300000, guid: f9f44124b081fc34a8c8d2950f5b700c, type: 3}
    - {fileID: 21300000, guid: ddd8fb3443dbf1c408b9b83b628e7d87, type: 3}
    - {fileID: 21300000, guid: 78afec99667c63e45a49d9af0d77a407, type: 3}
    - {fileID: 21300000, guid: 3034cfa3251d9a74e8fd24aedc7945fa, type: 3}
    - {fileID: 21300000, guid: 4c93e5005533dc24784e534d615bf0cf, type: 3}
    - {fileID: 21300000, guid: 2dfb0f494f6c25e4b989858119fd4352, type: 3}
    - {fileID: 21300000, guid: d8bbe04623113fb4f8747ef26c6024b8, type: 3}
  m_AnimationClipSettings:
    serializedVersion: 2
    m_AdditiveReferencePoseClip: {fileID: 0}
    m_AdditiveReferencePoseTime: 0
    m_StartTime: 0
    m_StopTime: 0.6666667
    m_OrientationOffsetY: 0
    m_Level: 0
    m_CycleOffset: 0
    m_HasAdditiveReferencePose: 0
    m_LoopTime: 1
    m_LoopBlend: 0
    m_LoopBlendOrientation: 0
    m_LoopBlendPositionY: 0
    m_LoopBlendPositionXZ: 0
    m_KeepOriginalOrientation: 0
    m_KeepOriginalPositionY: 1
    m_KeepOriginalPositionXZ: 0
    m_HeightFromFeet: 0
    m_Mirror: 0
  m_EditorCurves: []
  m_EulerEditorCurves: []
  m_HasGenericRootTransform: 0
  m_HasMotionFloatCurves: 0
  m_Events: []
