%YAML 1.1
%TAG !u! tag:unity3d.com,2011:
--- !u!74 &7400000
AnimationClip:
  m_ObjectHideFlags: 0
  m_CorrespondingSourceObject: {fileID: 0}
  m_PrefabInstance: {fileID: 0}
  m_PrefabAsset: {fileID: 0}
  m_Name: Die
  serializedVersion: 6
  m_Legacy: 0
  m_Compressed: 0
  m_UseHighQualityCurve: 1
  m_RotationCurves: []
  m_CompressedRotationCurves: []
  m_EulerCurves: []
  m_PositionCurves: []
  m_ScaleCurves: []
  m_FloatCurves: []
  m_PPtrCurves:
  - curve:
    - time: 0
      value: {fileID: 21300000, guid: 7c7b6c63ec8fae34f95c7c4aea5bd09b, type: 3}
    - time: 0.083333336
      value: {fileID: 21300000, guid: fe732ebbe106175409c18c1730369b64, type: 3}
    - time: 0.16666667
      value: {fileID: 21300000, guid: 4d4dbbe608cc0bd49b068a1f3248c19f, type: 3}
    - time: 0.25
      value: {fileID: 21300000, guid: a20e876fd9dd68846afb2fd4598ce3cf, type: 3}
    - time: 0.33333334
      value: {fileID: 21300000, guid: bc13f5c74c78df6498ec092ebfb6be2f, type: 3}
    - time: 0.41666666
      value: {fileID: 21300000, guid: b594786e540cf4d46876f6be3495b4ff, type: 3}
    - time: 0.5
      value: {fileID: 21300000, guid: b835945514793c74091474ae7c366a78, type: 3}
    - time: 0.5833333
      value: {fileID: 21300000, guid: 76c24a0cf42edbd40b26f20db931dbb4, type: 3}
    - time: 0.6666667
      value: {fileID: 21300000, guid: a4721e7a10068fa40812eae3ae0262e9, type: 3}
    - time: 0.75
      value: {fileID: 21300000, guid: 79b0c4519d2360e47b328f59d7d550a7, type: 3}
    - time: 0.8333333
      value: {fileID: 21300000, guid: 696a9e707112c0b4a85820075cd9fdc1, type: 3}
    - time: 0.9166667
      value: {fileID: 21300000, guid: f24eadbbdc9727e43bfa750bafa7dbbc, type: 3}
    - time: 1
      value: {fileID: 21300000, guid: baa1bb47cc5f2604f9bd469d4d708269, type: 3}
    - time: 1.0833334
      value: {fileID: 21300000, guid: 71bbc2bcebc60b04dbcd6b501b7a966c, type: 3}
    - time: 1.1666666
      value: {fileID: 21300000, guid: 464f34204717d984eaff1027d3e3e569, type: 3}
    - time: 1.25
      value: {fileID: 21300000, guid: c62c3acadf62d794eb4d6fe5e635a5df, type: 3}
    - time: 1.3333334
      value: {fileID: 21300000, guid: 8d61378ea11b6e7469d0cdcec3a52692, type: 3}
    - time: 1.4166666
      value: {fileID: 21300000, guid: 224ba3768d853c24ebb70652409e4102, type: 3}
    - time: 1.5
      value: {fileID: 21300000, guid: 2feb06caa902b8041b561810d37af03a, type: 3}
    - time: 1.5833334
      value: {fileID: 21300000, guid: af7cb413de3ddb949ba61673686d658f, type: 3}
    attribute: m_Sprite
    path: 
    classID: 212
    script: {fileID: 0}
  m_SampleRate: 12
  m_WrapMode: 0
  m_Bounds:
    m_Center: {x: 0, y: 0, z: 0}
    m_Extent: {x: 0, y: 0, z: 0}
  m_ClipBindingConstant:
    genericBindings:
    - serializedVersion: 2
      path: 0
      attribute: 0
      script: {fileID: 0}
      typeID: 212
      customType: 23
      isPPtrCurve: 1
    pptrCurveMapping:
    - {fileID: 21300000, guid: 7c7b6c63ec8fae34f95c7c4aea5bd09b, type: 3}
    - {fileID: 21300000, guid: fe732ebbe106175409c18c1730369b64, type: 3}
    - {fileID: 21300000, guid: 4d4dbbe608cc0bd49b068a1f3248c19f, type: 3}
    - {fileID: 21300000, guid: a20e876fd9dd68846afb2fd4598ce3cf, type: 3}
    - {fileID: 21300000, guid: bc13f5c74c78df6498ec092ebfb6be2f, type: 3}
    - {fileID: 21300000, guid: b594786e540cf4d46876f6be3495b4ff, type: 3}
    - {fileID: 21300000, guid: b835945514793c74091474ae7c366a78, type: 3}
    - {fileID: 21300000, guid: 76c24a0cf42edbd40b26f20db931dbb4, type: 3}
    - {fileID: 21300000, guid: a4721e7a10068fa40812eae3ae0262e9, type: 3}
    - {fileID: 21300000, guid: 79b0c4519d2360e47b328f59d7d550a7, type: 3}
    - {fileID: 21300000, guid: 696a9e707112c0b4a85820075cd9fdc1, type: 3}
    - {fileID: 21300000, guid: f24eadbbdc9727e43bfa750bafa7dbbc, type: 3}
    - {fileID: 21300000, guid: baa1bb47cc5f2604f9bd469d4d708269, type: 3}
    - {fileID: 21300000, guid: 71bbc2bcebc60b04dbcd6b501b7a966c, type: 3}
    - {fileID: 21300000, guid: 464f34204717d984eaff1027d3e3e569, type: 3}
    - {fileID: 21300000, guid: c62c3acadf62d794eb4d6fe5e635a5df, type: 3}
    - {fileID: 21300000, guid: 8d61378ea11b6e7469d0cdcec3a52692, type: 3}
    - {fileID: 21300000, guid: 224ba3768d853c24ebb70652409e4102, type: 3}
    - {fileID: 21300000, guid: 2feb06caa902b8041b561810d37af03a, type: 3}
    - {fileID: 21300000, guid: af7cb413de3ddb949ba61673686d658f, type: 3}
  m_AnimationClipSettings:
    serializedVersion: 2
    m_AdditiveReferencePoseClip: {fileID: 0}
    m_AdditiveReferencePoseTime: 0
    m_StartTime: 0
    m_StopTime: 1.6666667
    m_OrientationOffsetY: 0
    m_Level: 0
    m_CycleOffset: 0
    m_HasAdditiveReferencePose: 0
    m_LoopTime: 1
    m_LoopBlend: 0
    m_LoopBlendOrientation: 0
    m_LoopBlendPositionY: 0
    m_LoopBlendPositionXZ: 0
    m_KeepOriginalOrientation: 0
    m_KeepOriginalPositionY: 1
    m_KeepOriginalPositionXZ: 0
    m_HeightFromFeet: 0
    m_Mirror: 0
  m_EditorCurves: []
  m_EulerEditorCurves: []
  m_HasGenericRootTransform: 0
  m_HasMotionFloatCurves: 0
  m_Events: []
