%YAML 1.1
%TAG !u! tag:unity3d.com,2011:
--- !u!74 &7400000
AnimationClip:
  m_ObjectHideFlags: 0
  m_CorrespondingSourceObject: {fileID: 0}
  m_PrefabInstance: {fileID: 0}
  m_PrefabAsset: {fileID: 0}
  m_Name: Die
  serializedVersion: 6
  m_Legacy: 0
  m_Compressed: 0
  m_UseHighQualityCurve: 1
  m_RotationCurves: []
  m_CompressedRotationCurves: []
  m_EulerCurves: []
  m_PositionCurves: []
  m_ScaleCurves: []
  m_FloatCurves: []
  m_PPtrCurves:
  - curve:
    - time: 0
      value: {fileID: 21300000, guid: 44f1179cbea077f43a0f39998a30c51c, type: 3}
    - time: 0.06666667
      value: {fileID: 21300000, guid: d134e50e5005b454ea884394faf9d5a7, type: 3}
    - time: 0.13333334
      value: {fileID: 21300000, guid: 533e07c1c42a42341a60db66fac3a46d, type: 3}
    - time: 0.2
      value: {fileID: 21300000, guid: d7a58282adac2e94ab4f639baa0cb9ac, type: 3}
    - time: 0.26666668
      value: {fileID: 21300000, guid: 166ccd4bc9163484cbf34adf8cca3235, type: 3}
    - time: 0.33333334
      value: {fileID: 21300000, guid: 358f4cc909a6e384682fe389c4ed5ae9, type: 3}
    - time: 0.4
      value: {fileID: 21300000, guid: be78cb1b4f72c87468ed3d2aff30460a, type: 3}
    - time: 0.46666667
      value: {fileID: 21300000, guid: 16ff5fe0dea973441b0ed9f75dd1839c, type: 3}
    - time: 0.53333336
      value: {fileID: 21300000, guid: 9a7d96f1027403f42a0b9dc8c4829486, type: 3}
    - time: 0.6
      value: {fileID: 21300000, guid: 802d04ed3cd90224eac668c31088e7d5, type: 3}
    - time: 0.6666667
      value: {fileID: 21300000, guid: 9503945af3ac97742aab5a9ddf6199f2, type: 3}
    - time: 0.73333335
      value: {fileID: 21300000, guid: 8c6755d3b873bce47bf56e9cf0928b84, type: 3}
    - time: 0.8
      value: {fileID: 21300000, guid: 8c361e9c3893a0c43aada5f17ca0eef8, type: 3}
    - time: 0.8666667
      value: {fileID: 21300000, guid: ea5c822638c276244828ad679695f968, type: 3}
    - time: 0.93333334
      value: {fileID: 21300000, guid: a9fe5079f96c2f741a0839252f5598c8, type: 3}
    - time: 1
      value: {fileID: 21300000, guid: dcb8ac00298941845b8891a03113c3a3, type: 3}
    - time: 1.0666667
      value: {fileID: 21300000, guid: ca8cd6e9cc6b5dc498be661b099e6c5f, type: 3}
    - time: 1.1333333
      value: {fileID: 21300000, guid: 197a507b36b18e644862fd698a854ee9, type: 3}
    - time: 1.2
      value: {fileID: 21300000, guid: 3d49c50f6f757694dbef9bcc37a5e36a, type: 3}
    - time: 1.2666667
      value: {fileID: 21300000, guid: a338276bec0ce7a4492b37ebb7c9b227, type: 3}
    attribute: m_Sprite
    path: 
    classID: 212
    script: {fileID: 0}
  m_SampleRate: 15
  m_WrapMode: 0
  m_Bounds:
    m_Center: {x: 0, y: 0, z: 0}
    m_Extent: {x: 0, y: 0, z: 0}
  m_ClipBindingConstant:
    genericBindings:
    - serializedVersion: 2
      path: 0
      attribute: 0
      script: {fileID: 0}
      typeID: 212
      customType: 23
      isPPtrCurve: 1
    pptrCurveMapping:
    - {fileID: 21300000, guid: 44f1179cbea077f43a0f39998a30c51c, type: 3}
    - {fileID: 21300000, guid: d134e50e5005b454ea884394faf9d5a7, type: 3}
    - {fileID: 21300000, guid: 533e07c1c42a42341a60db66fac3a46d, type: 3}
    - {fileID: 21300000, guid: d7a58282adac2e94ab4f639baa0cb9ac, type: 3}
    - {fileID: 21300000, guid: 166ccd4bc9163484cbf34adf8cca3235, type: 3}
    - {fileID: 21300000, guid: 358f4cc909a6e384682fe389c4ed5ae9, type: 3}
    - {fileID: 21300000, guid: be78cb1b4f72c87468ed3d2aff30460a, type: 3}
    - {fileID: 21300000, guid: 16ff5fe0dea973441b0ed9f75dd1839c, type: 3}
    - {fileID: 21300000, guid: 9a7d96f1027403f42a0b9dc8c4829486, type: 3}
    - {fileID: 21300000, guid: 802d04ed3cd90224eac668c31088e7d5, type: 3}
    - {fileID: 21300000, guid: 9503945af3ac97742aab5a9ddf6199f2, type: 3}
    - {fileID: 21300000, guid: 8c6755d3b873bce47bf56e9cf0928b84, type: 3}
    - {fileID: 21300000, guid: 8c361e9c3893a0c43aada5f17ca0eef8, type: 3}
    - {fileID: 21300000, guid: ea5c822638c276244828ad679695f968, type: 3}
    - {fileID: 21300000, guid: a9fe5079f96c2f741a0839252f5598c8, type: 3}
    - {fileID: 21300000, guid: dcb8ac00298941845b8891a03113c3a3, type: 3}
    - {fileID: 21300000, guid: ca8cd6e9cc6b5dc498be661b099e6c5f, type: 3}
    - {fileID: 21300000, guid: 197a507b36b18e644862fd698a854ee9, type: 3}
    - {fileID: 21300000, guid: 3d49c50f6f757694dbef9bcc37a5e36a, type: 3}
    - {fileID: 21300000, guid: a338276bec0ce7a4492b37ebb7c9b227, type: 3}
  m_AnimationClipSettings:
    serializedVersion: 2
    m_AdditiveReferencePoseClip: {fileID: 0}
    m_AdditiveReferencePoseTime: 0
    m_StartTime: 0
    m_StopTime: 1.3333334
    m_OrientationOffsetY: 0
    m_Level: 0
    m_CycleOffset: 0
    m_HasAdditiveReferencePose: 0
    m_LoopTime: 1
    m_LoopBlend: 0
    m_LoopBlendOrientation: 0
    m_LoopBlendPositionY: 0
    m_LoopBlendPositionXZ: 0
    m_KeepOriginalOrientation: 0
    m_KeepOriginalPositionY: 1
    m_KeepOriginalPositionXZ: 0
    m_HeightFromFeet: 0
    m_Mirror: 0
  m_EditorCurves: []
  m_EulerEditorCurves: []
  m_HasGenericRootTransform: 0
  m_HasMotionFloatCurves: 0
  m_Events: []
