{
"skeleton": {
	"hash": "B+xNEtZj99hFI5daFtXR97cg1LE",
	"spine": "3.8.99",
	"x": -386.11,
	"y": -13.64,
	"width": 792.29,
	"height": 578.26,
	"images": "./Images/",
	"audio": ""
},
"bones": [
	{ "name": "root" },
	{ "name": "AllBone", "parent": "root", "x": -0.14, "y": 96.9 },
	{ "name": "Body", "parent": "AllBone", "length": 98.24, "rotation": 91.72, "x": -0.98, "y": -25.03 },
	{ "name": "Hand_B", "parent": "Body", "x": 64.15, "y": 88.42 },
	{ "name": "Hand_F", "parent": "Body", "x": 55.78, "y": -105.4 },
	{ "name": "Hat", "parent": "Body", "x": 159.96, "y": -11.68 },
	{ "name": "Leg_B", "parent": "AllBone", "x": -42.04, "y": -30.77 },
	{ "name": "Leg_F", "parent": "AllBone", "x": 56.61, "y": -26.85 },
	{ "name": "mouth", "parent": "Body", "x": 30.93, "y": 10.89 }
],
"slots": [
	{ "name": "Leg_B", "bone": "Leg_B", "attachment": "Leg_B" },
	{ "name": "Hat", "bone": "Hat", "attachment": "Hat" },
	{ "name": "Body", "bone": "Body", "attachment": "Body" },
	{ "name": "Leg_F", "bone": "Leg_F", "attachment": "Leg_F" },
	{ "name": "Hand_B", "bone": "Hand_B", "attachment": "Hand_B" },
	{ "name": "Hand_F", "bone": "Hand_F", "attachment": "Hand_F" },
	{ "name": "Mouth", "bone": "mouth", "attachment": "Mouth" },
	{ "name": "Box", "bone": "root", "color": "ffffff00", "attachment": "Box" }
],
"skins": [
	{
		"name": "default",
		"attachments": {
			"Body": {
				"Body": { "x": 68.51, "y": -11.18, "rotation": -91.72, "width": 175, "height": 148 }
			},
			"Box": {
				"Box": { "x": 10.04, "y": 275.49, "scaleX": 1.8775, "scaleY": 1.8775, "width": 422, "height": 308 }
			},
			"Hand_B": {
				"Hand_B": { "x": 5.74, "y": 8.86, "rotation": -91.72, "width": 75, "height": 55 }
			},
			"Hand_F": {
				"Hand_F": { "x": 5.58, "y": 7.66, "rotation": -91.72, "width": 90, "height": 55 }
			},
			"Hat": {
				"Hat": { "x": -9.19, "y": -7.47, "rotation": -91.72, "width": 205, "height": 105 }
			},
			"Leg_B": {
				"Leg_B": { "x": -2.64, "y": 3.01, "width": 62, "height": 38 }
			},
			"Leg_F": {
				"Leg_F": { "x": 0.48, "y": -0.93, "width": 62, "height": 38 }
			},
			"Mouth": {
				"Mouth": { "x": -1.6, "y": -1.91, "rotation": -91.72, "width": 56, "height": 36 }
			}
		}
	}
],
"animations": {
	"Attack": {
		"bones": {
			"root": {
				"rotate": [
					{ "curve": "stepped" },
					{ "time": 0.3333, "curve": "stepped" },
					{ "time": 0.6667, "curve": "stepped" },
					{ "time": 0.8333 }
				],
				"translate": [
					{ "curve": "stepped" },
					{ "time": 0.3333, "curve": "stepped" },
					{ "time": 0.6667, "curve": "stepped" },
					{ "time": 0.8333 }
				],
				"scale": [
					{ "curve": "stepped" },
					{ "time": 0.3333, "curve": "stepped" },
					{ "time": 0.6667, "curve": "stepped" },
					{ "time": 0.8333 }
				],
				"shear": [
					{ "curve": "stepped" },
					{ "time": 0.3333, "curve": "stepped" },
					{ "time": 0.6667, "curve": "stepped" },
					{ "time": 0.8333 }
				]
			},
			"AllBone": {
				"rotate": [
					{},
					{ "time": 0.3333, "angle": -17.32, "curve": "stepped" },
					{ "time": 0.6667, "angle": -17.32 },
					{ "time": 0.8333 }
				],
				"translate": [
					{},
					{ "time": 0.3333, "y": 77.75, "curve": "stepped" },
					{ "time": 0.6667, "y": 77.75 },
					{ "time": 0.8333 }
				],
				"scale": [
					{ "curve": "stepped" },
					{ "time": 0.3333, "curve": "stepped" },
					{ "time": 0.6667, "curve": "stepped" },
					{ "time": 0.8333 }
				],
				"shear": [
					{ "curve": "stepped" },
					{ "time": 0.3333, "curve": "stepped" },
					{ "time": 0.6667, "curve": "stepped" },
					{ "time": 0.8333 }
				]
			},
			"Body": {
				"rotate": [
					{ "curve": "stepped" },
					{ "time": 0.3333 },
					{ "time": 0.5, "angle": 27.89 },
					{ "time": 0.6667, "angle": 14.95 },
					{ "time": 0.8333 }
				],
				"translate": [
					{ "curve": "stepped" },
					{ "time": 0.3333, "curve": "stepped" },
					{ "time": 0.6667, "curve": "stepped" },
					{ "time": 0.8333 }
				],
				"scale": [
					{ "curve": "stepped" },
					{ "time": 0.3333, "curve": "stepped" },
					{ "time": 0.6667, "curve": "stepped" },
					{ "time": 0.8333 }
				],
				"shear": [
					{ "curve": "stepped" },
					{ "time": 0.3333, "curve": "stepped" },
					{ "time": 0.6667, "curve": "stepped" },
					{ "time": 0.8333 }
				]
			},
			"Hat": {
				"rotate": [
					{ "curve": "stepped" },
					{ "time": 0.3333 },
					{ "time": 0.6667, "angle": -3.81 },
					{ "time": 0.8333 }
				],
				"translate": [
					{},
					{ "time": 0.3333, "x": 14.54, "y": -1.94 },
					{ "time": 0.5, "x": -0.92, "y": -1.48 },
					{ "time": 0.6667, "x": 5.33, "y": -5.75 },
					{ "time": 0.8333 }
				],
				"scale": [
					{ "curve": "stepped" },
					{ "time": 0.3333, "curve": "stepped" },
					{ "time": 0.6667, "curve": "stepped" },
					{ "time": 0.8333 }
				],
				"shear": [
					{ "curve": "stepped" },
					{ "time": 0.3333, "curve": "stepped" },
					{ "time": 0.6667, "curve": "stepped" },
					{ "time": 0.8333 }
				]
			},
			"Hand_F": {
				"rotate": [
					{ "curve": "stepped" },
					{ "time": 0.3333, "curve": "stepped" },
					{ "time": 0.6667, "curve": "stepped" },
					{ "time": 0.8333 }
				],
				"translate": [
					{},
					{ "time": 0.3333, "x": 18.1, "y": -44.51, "curve": "stepped" },
					{ "time": 0.6667, "x": 18.1, "y": -44.51 },
					{ "time": 0.8333 }
				],
				"scale": [
					{ "curve": "stepped" },
					{ "time": 0.3333, "curve": "stepped" },
					{ "time": 0.6667, "curve": "stepped" },
					{ "time": 0.8333 }
				],
				"shear": [
					{ "curve": "stepped" },
					{ "time": 0.3333, "curve": "stepped" },
					{ "time": 0.6667, "curve": "stepped" },
					{ "time": 0.8333 }
				]
			},
			"Hand_B": {
				"rotate": [
					{},
					{ "time": 0.3333, "angle": -51.95 },
					{ "time": 0.5, "angle": 34.94 },
					{ "time": 0.6667, "angle": 65.65 },
					{ "time": 0.8333 }
				],
				"translate": [
					{},
					{ "time": 0.3333, "x": 166.33, "y": -7.36 },
					{ "time": 0.4333, "x": 11.12, "y": 80.33 },
					{ "time": 0.5, "x": -87.94, "y": 29.18 },
					{ "time": 0.6667, "x": -122.55, "y": 0.72 },
					{ "time": 0.8333 }
				],
				"scale": [
					{ "curve": "stepped" },
					{ "time": 0.3333, "curve": "stepped" },
					{ "time": 0.6667, "curve": "stepped" },
					{ "time": 0.8333 }
				],
				"shear": [
					{ "curve": "stepped" },
					{ "time": 0.3333, "curve": "stepped" },
					{ "time": 0.6667, "curve": "stepped" },
					{ "time": 0.8333 }
				]
			},
			"Leg_F": {
				"rotate": [
					{},
					{ "time": 0.3333, "angle": -65 },
					{ "time": 0.6667, "angle": -23.66 },
					{ "time": 0.8333 }
				],
				"translate": [
					{},
					{ "time": 0.3333, "x": -22.43, "y": 44.44, "curve": "stepped" },
					{ "time": 0.6667, "x": -22.43, "y": 44.44 },
					{ "time": 0.8333 }
				],
				"scale": [
					{ "curve": "stepped" },
					{ "time": 0.3333, "curve": "stepped" },
					{ "time": 0.6667, "curve": "stepped" },
					{ "time": 0.8333 }
				],
				"shear": [
					{ "curve": "stepped" },
					{ "time": 0.3333, "curve": "stepped" },
					{ "time": 0.6667, "curve": "stepped" },
					{ "time": 0.8333 }
				]
			},
			"Leg_B": {
				"rotate": [
					{},
					{ "time": 0.3333, "angle": 125.23, "curve": "stepped" },
					{ "time": 0.6667, "angle": 125.23 },
					{ "time": 0.8333 }
				],
				"translate": [
					{},
					{ "time": 0.3333, "x": 37.58, "y": -19.71, "curve": "stepped" },
					{ "time": 0.6667, "x": 37.58, "y": -19.71 },
					{ "time": 0.8333 }
				],
				"scale": [
					{ "curve": "stepped" },
					{ "time": 0.3333, "curve": "stepped" },
					{ "time": 0.6667, "curve": "stepped" },
					{ "time": 0.8333 }
				],
				"shear": [
					{ "curve": "stepped" },
					{ "time": 0.3333, "curve": "stepped" },
					{ "time": 0.6667, "curve": "stepped" },
					{ "time": 0.8333 }
				]
			},
			"mouth": {
				"rotate": [
					{}
				],
				"translate": [
					{}
				],
				"scale": [
					{},
					{ "time": 0.3333, "x": 0.789, "y": 0.789 },
					{ "time": 0.5, "x": 1.1, "y": 1.1 }
				],
				"shear": [
					{}
				]
			}
		}
	},
	"Idle": {
		"bones": {
			"root": {
				"rotate": [
					{ "curve": "stepped" },
					{ "time": 0.6667 }
				],
				"translate": [
					{ "curve": "stepped" },
					{ "time": 0.6667 }
				],
				"scale": [
					{ "curve": "stepped" },
					{ "time": 0.6667 }
				],
				"shear": [
					{ "curve": "stepped" },
					{ "time": 0.6667 }
				]
			},
			"AllBone": {
				"rotate": [
					{ "curve": "stepped" },
					{ "time": 0.6667 }
				],
				"translate": [
					{ "curve": "stepped" },
					{ "time": 0.6667 }
				],
				"scale": [
					{ "curve": "stepped" },
					{ "time": 0.6667 }
				],
				"shear": [
					{ "curve": "stepped" },
					{ "time": 0.6667 }
				]
			},
			"Body": {
				"rotate": [
					{ "curve": "stepped" },
					{ "time": 0.6667 }
				],
				"translate": [
					{},
					{ "time": 0.3333, "y": -6.42 },
					{ "time": 0.6667 }
				],
				"scale": [
					{ "curve": "stepped" },
					{ "time": 0.6667 }
				],
				"shear": [
					{ "curve": "stepped" },
					{ "time": 0.6667 }
				]
			},
			"Hat": {
				"rotate": [
					{ "curve": "stepped" },
					{ "time": 0.6667 }
				],
				"translate": [
					{},
					{ "time": 0.3333, "x": 24.22, "y": -0.73 },
					{ "time": 0.6667 }
				],
				"scale": [
					{ "curve": "stepped" },
					{ "time": 0.6667 }
				],
				"shear": [
					{ "curve": "stepped" },
					{ "time": 0.6667 }
				]
			},
			"Hand_F": {
				"rotate": [
					{ "curve": "stepped" },
					{ "time": 0.6667 }
				],
				"translate": [
					{},
					{ "time": 0.3333, "x": -0.61, "y": -20.32 },
					{ "time": 0.6667 }
				],
				"scale": [
					{ "curve": "stepped" },
					{ "time": 0.6667 }
				],
				"shear": [
					{ "curve": "stepped" },
					{ "time": 0.6667 }
				]
			},
			"Hand_B": {
				"rotate": [
					{ "curve": "stepped" },
					{ "time": 0.6667 }
				],
				"translate": [
					{},
					{ "time": 0.3333, "x": 0.39, "y": 12.83 },
					{ "time": 0.6667 }
				],
				"scale": [
					{ "curve": "stepped" },
					{ "time": 0.6667 }
				],
				"shear": [
					{ "curve": "stepped" },
					{ "time": 0.6667 }
				]
			},
			"Leg_F": {
				"rotate": [
					{ "curve": "stepped" },
					{ "time": 0.6667 }
				],
				"translate": [
					{ "curve": "stepped" },
					{ "time": 0.6667 }
				],
				"scale": [
					{ "curve": "stepped" },
					{ "time": 0.6667 }
				],
				"shear": [
					{ "curve": "stepped" },
					{ "time": 0.6667 }
				]
			},
			"Leg_B": {
				"rotate": [
					{ "curve": "stepped" },
					{ "time": 0.6667 }
				],
				"translate": [
					{ "curve": "stepped" },
					{ "time": 0.6667 }
				],
				"scale": [
					{ "curve": "stepped" },
					{ "time": 0.6667 }
				],
				"shear": [
					{ "curve": "stepped" },
					{ "time": 0.6667 }
				]
			},
			"mouth": {
				"rotate": [
					{ "curve": "stepped" },
					{ "time": 0.6667 }
				],
				"translate": [
					{ "curve": "stepped" },
					{ "time": 0.6667 }
				],
				"scale": [
					{},
					{ "time": 0.3333, "x": 0.751, "y": 0.751 },
					{ "time": 0.6667 }
				],
				"shear": [
					{ "curve": "stepped" },
					{ "time": 0.6667 }
				]
			}
		}
	},
	"Jump": {
		"bones": {
			"root": {
				"rotate": [
					{ "curve": "stepped" },
					{ "time": 0.3333, "curve": "stepped" },
					{ "time": 0.5 }
				],
				"translate": [
					{ "curve": "stepped" },
					{ "time": 0.3333, "curve": "stepped" },
					{ "time": 0.5 }
				],
				"scale": [
					{ "curve": "stepped" },
					{ "time": 0.3333, "curve": "stepped" },
					{ "time": 0.5 }
				],
				"shear": [
					{ "curve": "stepped" },
					{ "time": 0.3333, "curve": "stepped" },
					{ "time": 0.5 }
				]
			},
			"AllBone": {
				"rotate": [
					{},
					{ "time": 0.3333, "angle": -14.18, "curve": "stepped" },
					{ "time": 0.5, "angle": -14.18 }
				],
				"translate": [
					{},
					{ "time": 0.3333, "y": 157.08, "curve": "stepped" },
					{ "time": 0.5, "y": 157.08 }
				],
				"scale": [
					{ "curve": "stepped" },
					{ "time": 0.3333, "curve": "stepped" },
					{ "time": 0.5 }
				],
				"shear": [
					{ "curve": "stepped" },
					{ "time": 0.3333, "curve": "stepped" },
					{ "time": 0.5 }
				]
			},
			"Body": {
				"rotate": [
					{ "curve": "stepped" },
					{ "time": 0.3333, "curve": "stepped" },
					{ "time": 0.5 }
				],
				"translate": [
					{ "curve": "stepped" },
					{ "time": 0.3333, "curve": "stepped" },
					{ "time": 0.5 }
				],
				"scale": [
					{ "curve": "stepped" },
					{ "time": 0.3333, "curve": "stepped" },
					{ "time": 0.5 }
				],
				"shear": [
					{ "curve": "stepped" },
					{ "time": 0.3333, "curve": "stepped" },
					{ "time": 0.5 }
				]
			},
			"Hat": {
				"rotate": [
					{ "curve": "stepped" },
					{ "time": 0.3333, "curve": "stepped" },
					{ "time": 0.5 }
				],
				"translate": [
					{},
					{ "time": 0.3333, "x": 21.7, "y": -12.55, "curve": "stepped" },
					{ "time": 0.5, "x": 21.7, "y": -12.55 }
				],
				"scale": [
					{ "curve": "stepped" },
					{ "time": 0.3333, "curve": "stepped" },
					{ "time": 0.5 }
				],
				"shear": [
					{ "curve": "stepped" },
					{ "time": 0.3333, "curve": "stepped" },
					{ "time": 0.5 }
				]
			},
			"Hand_F": {
				"rotate": [
					{ "curve": "stepped" },
					{ "time": 0.3333, "curve": "stepped" },
					{ "time": 0.5 }
				],
				"translate": [
					{},
					{ "time": 0.3333, "x": 33.87, "y": -31.94, "curve": "stepped" },
					{ "time": 0.5, "x": 33.87, "y": -31.94 }
				],
				"scale": [
					{ "curve": "stepped" },
					{ "time": 0.3333, "curve": "stepped" },
					{ "time": 0.5 }
				],
				"shear": [
					{ "curve": "stepped" },
					{ "time": 0.3333, "curve": "stepped" },
					{ "time": 0.5 }
				]
			},
			"Hand_B": {
				"rotate": [
					{ "curve": "stepped" },
					{ "time": 0.3333, "curve": "stepped" },
					{ "time": 0.5 }
				],
				"translate": [
					{},
					{ "time": 0.3333, "x": 39.6, "y": 13.48, "curve": "stepped" },
					{ "time": 0.5, "x": 39.6, "y": 13.48 }
				],
				"scale": [
					{ "curve": "stepped" },
					{ "time": 0.3333, "curve": "stepped" },
					{ "time": 0.5 }
				],
				"shear": [
					{ "curve": "stepped" },
					{ "time": 0.3333, "curve": "stepped" },
					{ "time": 0.5 }
				]
			},
			"Leg_F": {
				"rotate": [
					{},
					{ "time": 0.3333, "angle": -48.75, "curve": "stepped" },
					{ "time": 0.5, "angle": -48.75 }
				],
				"translate": [
					{},
					{ "time": 0.3333, "x": -20.24, "y": 29.83, "curve": "stepped" },
					{ "time": 0.5, "x": -20.24, "y": 29.83 }
				],
				"scale": [
					{ "curve": "stepped" },
					{ "time": 0.3333, "curve": "stepped" },
					{ "time": 0.5 }
				],
				"shear": [
					{ "curve": "stepped" },
					{ "time": 0.3333, "curve": "stepped" },
					{ "time": 0.5 }
				]
			},
			"Leg_B": {
				"rotate": [
					{},
					{ "time": 0.3333, "angle": 134.21, "curve": "stepped" },
					{ "time": 0.5, "angle": 134.21 }
				],
				"translate": [
					{},
					{ "time": 0.3333, "x": 51.22, "y": -20.42, "curve": "stepped" },
					{ "time": 0.5, "x": 51.22, "y": -20.42 }
				],
				"scale": [
					{ "curve": "stepped" },
					{ "time": 0.3333, "curve": "stepped" },
					{ "time": 0.5 }
				],
				"shear": [
					{ "curve": "stepped" },
					{ "time": 0.3333, "curve": "stepped" },
					{ "time": 0.5 }
				]
			}
		}
	},
	"Walk": {
		"bones": {
			"AllBone": {
				"rotate": [
					{ "curve": "stepped" },
					{ "time": 0.3333, "curve": "stepped" },
					{ "time": 0.6667 }
				],
				"translate": [
					{ "curve": "stepped" },
					{ "time": 0.3333, "curve": "stepped" },
					{ "time": 0.6667 }
				],
				"scale": [
					{ "curve": "stepped" },
					{ "time": 0.3333, "curve": "stepped" },
					{ "time": 0.6667 }
				],
				"shear": [
					{ "curve": "stepped" },
					{ "time": 0.3333, "curve": "stepped" },
					{ "time": 0.6667 }
				]
			},
			"Hat": {
				"rotate": [
					{},
					{ "time": 0.3333, "angle": 2.5 },
					{ "time": 0.6667 }
				],
				"translate": [
					{},
					{ "time": 0.3333, "x": 15.15, "y": 5.03 },
					{ "time": 0.6667 }
				],
				"scale": [
					{ "curve": "stepped" },
					{ "time": 0.3333, "curve": "stepped" },
					{ "time": 0.6667 }
				],
				"shear": [
					{ "curve": "stepped" },
					{ "time": 0.3333, "curve": "stepped" },
					{ "time": 0.6667 }
				]
			},
			"Body": {
				"rotate": [
					{ "curve": "stepped" },
					{ "time": 0.3333, "curve": "stepped" },
					{ "time": 0.6667 }
				],
				"translate": [
					{},
					{ "time": 0.1667, "y": 15.64 },
					{ "time": 0.3333 },
					{ "time": 0.5, "y": 15.64 },
					{ "time": 0.6667 }
				],
				"scale": [
					{ "curve": "stepped" },
					{ "time": 0.3333, "curve": "stepped" },
					{ "time": 0.6667 }
				],
				"shear": [
					{ "curve": "stepped" },
					{ "time": 0.3333, "curve": "stepped" },
					{ "time": 0.6667 }
				]
			},
			"Hand_F": {
				"rotate": [
					{ "curve": "stepped" },
					{ "time": 0.3333, "curve": "stepped" },
					{ "time": 0.6667 }
				],
				"translate": [
					{},
					{ "time": 0.1667, "x": 21.65, "y": -0.65 },
					{ "time": 0.3333 },
					{ "time": 0.5, "x": -9.28, "y": 0.28 },
					{ "time": 0.6667 }
				],
				"scale": [
					{ "curve": "stepped" },
					{ "time": 0.3333, "curve": "stepped" },
					{ "time": 0.6667 }
				],
				"shear": [
					{ "curve": "stepped" },
					{ "time": 0.3333, "curve": "stepped" },
					{ "time": 0.6667 }
				]
			},
			"Hand_B": {
				"rotate": [
					{ "curve": "stepped" },
					{ "time": 0.3333, "curve": "stepped" },
					{ "time": 0.6667 }
				],
				"translate": [
					{},
					{ "time": 0.1667, "x": -24.74, "y": 0.74 },
					{ "time": 0.3333 },
					{ "time": 0.5, "x": 17.01, "y": -0.51 },
					{ "time": 0.6667 }
				],
				"scale": [
					{ "curve": "stepped" },
					{ "time": 0.3333, "curve": "stepped" },
					{ "time": 0.6667 }
				],
				"shear": [
					{ "curve": "stepped" },
					{ "time": 0.3333, "curve": "stepped" },
					{ "time": 0.6667 }
				]
			},
			"Leg_F": {
				"rotate": [
					{},
					{ "time": 0.1667, "angle": -31.73 },
					{ "time": 0.3333, "curve": "stepped" },
					{ "time": 0.6667 }
				],
				"translate": [
					{ "x": 10.42 },
					{ "time": 0.1667, "x": -22.15, "y": 28.67 },
					{ "time": 0.3333, "x": -29.97, "y": -1.05 },
					{ "time": 0.6667, "x": 10.42 }
				],
				"scale": [
					{ "curve": "stepped" },
					{ "time": 0.3333, "curve": "stepped" },
					{ "time": 0.6667 }
				],
				"shear": [
					{ "curve": "stepped" },
					{ "time": 0.3333, "curve": "stepped" },
					{ "time": 0.6667 }
				]
			},
			"Leg_B": {
				"rotate": [
					{ "curve": "stepped" },
					{ "time": 0.3333 },
					{ "time": 0.5, "angle": -22.18 },
					{ "time": 0.6667 }
				],
				"translate": [
					{},
					{ "time": 0.1667, "x": 26.06 },
					{ "time": 0.3333, "x": 37.79 },
					{ "time": 0.5, "x": 18.89, "y": 47.44 },
					{ "time": 0.6667 }
				],
				"scale": [
					{ "curve": "stepped" },
					{ "time": 0.3333, "curve": "stepped" },
					{ "time": 0.6667 }
				],
				"shear": [
					{ "curve": "stepped" },
					{ "time": 0.3333, "curve": "stepped" },
					{ "time": 0.6667 }
				]
			},
			"mouth": {
				"rotate": [
					{ "curve": "stepped" },
					{ "time": 0.6667 }
				],
				"translate": [
					{ "curve": "stepped" },
					{ "time": 0.6667 }
				],
				"scale": [
					{},
					{ "time": 0.3333, "x": 0.718, "y": 0.718 },
					{ "time": 0.6667 }
				],
				"shear": [
					{ "curve": "stepped" },
					{ "time": 0.6667 }
				]
			}
		}
	}
}
}