%YAML 1.1
%TAG !u! tag:unity3d.com,2011:
--- !u!74 &7400000
AnimationClip:
  m_ObjectHideFlags: 0
  m_CorrespondingSourceObject: {fileID: 0}
  m_PrefabInstance: {fileID: 0}
  m_PrefabAsset: {fileID: 0}
  m_Name: Walk
  serializedVersion: 6
  m_Legacy: 0
  m_Compressed: 0
  m_UseHighQualityCurve: 1
  m_RotationCurves: []
  m_CompressedRotationCurves: []
  m_EulerCurves: []
  m_PositionCurves: []
  m_ScaleCurves: []
  m_FloatCurves: []
  m_PPtrCurves:
  - curve:
    - time: 0
      value: {fileID: 21300000, guid: 737fe5d47dbbdfc42ad9790bca98bce2, type: 3}
    - time: 0.083333336
      value: {fileID: 21300000, guid: e26b8167865f2424c93c3c1962c4d39f, type: 3}
    - time: 0.16666667
      value: {fileID: 21300000, guid: 3eb6460181e99ea46992de3399c22f95, type: 3}
    - time: 0.25
      value: {fileID: 21300000, guid: addefed7ee84bbb45a0824280523c971, type: 3}
    - time: 0.33333334
      value: {fileID: 21300000, guid: 09670e8982db9d24cbf397f277af8b1f, type: 3}
    - time: 0.41666666
      value: {fileID: 21300000, guid: 9049a6a0c9669f34199390e25571596c, type: 3}
    - time: 0.5
      value: {fileID: 21300000, guid: d9a4f3e968ef1a24b871035545398f74, type: 3}
    - time: 0.5833333
      value: {fileID: 21300000, guid: 6dbca964c7aff774aa3b976c1ce764df, type: 3}
    - time: 0.6666667
      value: {fileID: 21300000, guid: 9b1794e22f39f41499d82913f2bb4938, type: 3}
    - time: 0.75
      value: {fileID: 21300000, guid: 1e906600ebd23da4e9733608eb859721, type: 3}
    attribute: m_Sprite
    path: 
    classID: 212
    script: {fileID: 0}
  m_SampleRate: 12
  m_WrapMode: 0
  m_Bounds:
    m_Center: {x: 0, y: 0, z: 0}
    m_Extent: {x: 0, y: 0, z: 0}
  m_ClipBindingConstant:
    genericBindings:
    - serializedVersion: 2
      path: 0
      attribute: 0
      script: {fileID: 0}
      typeID: 212
      customType: 23
      isPPtrCurve: 1
    pptrCurveMapping:
    - {fileID: 21300000, guid: 737fe5d47dbbdfc42ad9790bca98bce2, type: 3}
    - {fileID: 21300000, guid: e26b8167865f2424c93c3c1962c4d39f, type: 3}
    - {fileID: 21300000, guid: 3eb6460181e99ea46992de3399c22f95, type: 3}
    - {fileID: 21300000, guid: addefed7ee84bbb45a0824280523c971, type: 3}
    - {fileID: 21300000, guid: 09670e8982db9d24cbf397f277af8b1f, type: 3}
    - {fileID: 21300000, guid: 9049a6a0c9669f34199390e25571596c, type: 3}
    - {fileID: 21300000, guid: d9a4f3e968ef1a24b871035545398f74, type: 3}
    - {fileID: 21300000, guid: 6dbca964c7aff774aa3b976c1ce764df, type: 3}
    - {fileID: 21300000, guid: 9b1794e22f39f41499d82913f2bb4938, type: 3}
    - {fileID: 21300000, guid: 1e906600ebd23da4e9733608eb859721, type: 3}
  m_AnimationClipSettings:
    serializedVersion: 2
    m_AdditiveReferencePoseClip: {fileID: 0}
    m_AdditiveReferencePoseTime: 0
    m_StartTime: 0
    m_StopTime: 0.8333333
    m_OrientationOffsetY: 0
    m_Level: 0
    m_CycleOffset: 0
    m_HasAdditiveReferencePose: 0
    m_LoopTime: 1
    m_LoopBlend: 0
    m_LoopBlendOrientation: 0
    m_LoopBlendPositionY: 0
    m_LoopBlendPositionXZ: 0
    m_KeepOriginalOrientation: 0
    m_KeepOriginalPositionY: 1
    m_KeepOriginalPositionXZ: 0
    m_HeightFromFeet: 0
    m_Mirror: 0
  m_EditorCurves: []
  m_EulerEditorCurves: []
  m_HasGenericRootTransform: 0
  m_HasMotionFloatCurves: 0
  m_Events: []
