%YAML 1.1
%TAG !u! tag:unity3d.com,2011:
--- !u!114 &8600768127014070366
MonoBehaviour:
  m_ObjectHideFlags: 0
  m_CorrespondingSourceObject: {fileID: 0}
  m_PrefabInstance: {fileID: 0}
  m_PrefabAsset: {fileID: 0}
  m_GameObject: {fileID: 4918595638986196211}
  m_Enabled: 1
  m_EditorHideFlags: 0
  m_Script: {fileID: 11500000, guid: a40e789cbc87d514c827f2074b7d6b98, type: 3}
  m_Name: 
  m_EditorClassIdentifier: 
  renderer: {fileID: 8457641317366889096}
  effects: []
  bulletSpeed: 4
  minDistanceToHit: 0.1
  maxDistanceCalculateCurve:
    serializedVersion: 2
    m_Curve:
    - serializedVersion: 3
      time: 0
      value: 10
      inSlope: -8
      outSlope: -8
      tangentMode: 34
      weightedMode: 0
      inWeight: 0
      outWeight: 0.33333334
    - serializedVersion: 3
      time: 1
      value: 2
      inSlope: -8
      outSlope: -8
      tangentMode: 34
      weightedMode: 0
      inWeight: 0.33333334
      outWeight: 0
    m_PreInfinity: 2
    m_PostInfinity: 2
    m_RotationOrder: 4
  minMissDistance: 2
  maxAngleBlow: 20
  rotAproximater:
    periodTime: 1.5
    forceCurve:
      serializedVersion: 2
      m_Curve:
      - serializedVersion: 3
        time: 0
        value: 0
        inSlope: 0
        outSlope: 0
        tangentMode: 0
        weightedMode: 0
        inWeight: 0
        outWeight: 0
      - serializedVersion: 3
        time: 1
        value: 1
        inSlope: 2
        outSlope: 2
        tangentMode: 0
        weightedMode: 0
        inWeight: 0
        outWeight: 0
      m_PreInfinity: 2
      m_PostInfinity: 2
      m_RotationOrder: 4
--- !u!1001 &1272909049820681831
PrefabInstance:
  m_ObjectHideFlags: 0
  serializedVersion: 2
  m_Modification:
    m_TransformParent: {fileID: 0}
    m_Modifications:
    - target: {fileID: 6190220387234599572, guid: 8d84fc754ad5d484597a10b12f3022bf, type: 3}
      propertyPath: m_Name
      value: Arrow Variant
      objectReference: {fileID: 0}
    - target: {fileID: 6190220387234599572, guid: 8d84fc754ad5d484597a10b12f3022bf, type: 3}
      propertyPath: m_IsActive
      value: 1
      objectReference: {fileID: 0}
    - target: {fileID: 6700764740888491783, guid: 8d84fc754ad5d484597a10b12f3022bf, type: 3}
      propertyPath: m_RootOrder
      value: 0
      objectReference: {fileID: 0}
    - target: {fileID: 6700764740888491783, guid: 8d84fc754ad5d484597a10b12f3022bf, type: 3}
      propertyPath: m_LocalPosition.x
      value: 0
      objectReference: {fileID: 0}
    - target: {fileID: 6700764740888491783, guid: 8d84fc754ad5d484597a10b12f3022bf, type: 3}
      propertyPath: m_LocalPosition.y
      value: 0
      objectReference: {fileID: 0}
    - target: {fileID: 6700764740888491783, guid: 8d84fc754ad5d484597a10b12f3022bf, type: 3}
      propertyPath: m_LocalPosition.z
      value: 0
      objectReference: {fileID: 0}
    - target: {fileID: 6700764740888491783, guid: 8d84fc754ad5d484597a10b12f3022bf, type: 3}
      propertyPath: m_LocalRotation.w
      value: 1
      objectReference: {fileID: 0}
    - target: {fileID: 6700764740888491783, guid: 8d84fc754ad5d484597a10b12f3022bf, type: 3}
      propertyPath: m_LocalRotation.x
      value: -0
      objectReference: {fileID: 0}
    - target: {fileID: 6700764740888491783, guid: 8d84fc754ad5d484597a10b12f3022bf, type: 3}
      propertyPath: m_LocalRotation.y
      value: -0
      objectReference: {fileID: 0}
    - target: {fileID: 6700764740888491783, guid: 8d84fc754ad5d484597a10b12f3022bf, type: 3}
      propertyPath: m_LocalRotation.z
      value: -0
      objectReference: {fileID: 0}
    - target: {fileID: 6700764740888491783, guid: 8d84fc754ad5d484597a10b12f3022bf, type: 3}
      propertyPath: m_LocalEulerAnglesHint.x
      value: 0
      objectReference: {fileID: 0}
    - target: {fileID: 6700764740888491783, guid: 8d84fc754ad5d484597a10b12f3022bf, type: 3}
      propertyPath: m_LocalEulerAnglesHint.y
      value: 0
      objectReference: {fileID: 0}
    - target: {fileID: 6700764740888491783, guid: 8d84fc754ad5d484597a10b12f3022bf, type: 3}
      propertyPath: m_LocalEulerAnglesHint.z
      value: 0
      objectReference: {fileID: 0}
    m_RemovedComponents:
    - {fileID: 5305512314930501176, guid: 8d84fc754ad5d484597a10b12f3022bf, type: 3}
  m_SourcePrefab: {fileID: 100100000, guid: 8d84fc754ad5d484597a10b12f3022bf, type: 3}
--- !u!1 &4918595638986196211 stripped
GameObject:
  m_CorrespondingSourceObject: {fileID: 6190220387234599572, guid: 8d84fc754ad5d484597a10b12f3022bf, type: 3}
  m_PrefabInstance: {fileID: 1272909049820681831}
  m_PrefabAsset: {fileID: 0}
--- !u!212 &8457641317366889096 stripped
SpriteRenderer:
  m_CorrespondingSourceObject: {fileID: 7274962660655951087, guid: 8d84fc754ad5d484597a10b12f3022bf, type: 3}
  m_PrefabInstance: {fileID: 1272909049820681831}
  m_PrefabAsset: {fileID: 0}
