%YAML 1.1
%TAG !u! tag:unity3d.com,2011:
--- !u!74 &7400000
AnimationClip:
  m_ObjectHideFlags: 0
  m_CorrespondingSourceObject: {fileID: 0}
  m_PrefabInstance: {fileID: 0}
  m_PrefabAsset: {fileID: 0}
  m_Name: Lighting1
  serializedVersion: 6
  m_Legacy: 0
  m_Compressed: 0
  m_UseHighQualityCurve: 1
  m_RotationCurves: []
  m_CompressedRotationCurves: []
  m_EulerCurves: []
  m_PositionCurves: []
  m_ScaleCurves: []
  m_FloatCurves: []
  m_PPtrCurves:
  - curve:
    - time: 0
      value: {fileID: 21300000, guid: 637f1e05d9a519c4c9128b177e65f43b, type: 3}
    - time: 0.25
      value: {fileID: 21300000, guid: 4fda545ba3b7ce0408617e14ec713dbe, type: 3}
    - time: 0.5
      value: {fileID: 21300000, guid: 3b9de3e6f682f564ba979bf08ca656a8, type: 3}
    - time: 0.75
      value: {fileID: 21300000, guid: a549fcc217ca92043a606e471bd2872b, type: 3}
    - time: 1
      value: {fileID: 21300000, guid: 73f63750cd4a15244ab6e4fcf9a56df0, type: 3}
    - time: 1.25
      value: {fileID: 21300000, guid: 08bc061259f436940bc70e14fd49d1ff, type: 3}
    - time: 1.5
      value: {fileID: 21300000, guid: 20b72d13fc9d872448c5fd9201f8b3c9, type: 3}
    - time: 1.75
      value: {fileID: 21300000, guid: 43df12af13eeafa4d85a1c98ad7c05da, type: 3}
    - time: 2
      value: {fileID: 21300000, guid: 0a5c3368408f52845a6071d91d882754, type: 3}
    - time: 2.25
      value: {fileID: 21300000, guid: e4d57c5c0d5c31246a5aa97432b182ba, type: 3}
    - time: 2.5
      value: {fileID: 21300000, guid: e97727737a134094984fa02b0af4e427, type: 3}
    - time: 2.75
      value: {fileID: 21300000, guid: 74f734e4a2fad6944b988960c6d1ad08, type: 3}
    attribute: m_Sprite
    path: 
    classID: 212
    script: {fileID: 0}
  m_SampleRate: 4
  m_WrapMode: 0
  m_Bounds:
    m_Center: {x: 0, y: 0, z: 0}
    m_Extent: {x: 0, y: 0, z: 0}
  m_ClipBindingConstant:
    genericBindings:
    - serializedVersion: 2
      path: 0
      attribute: 0
      script: {fileID: 0}
      typeID: 212
      customType: 23
      isPPtrCurve: 1
    pptrCurveMapping:
    - {fileID: 21300000, guid: 637f1e05d9a519c4c9128b177e65f43b, type: 3}
    - {fileID: 21300000, guid: 4fda545ba3b7ce0408617e14ec713dbe, type: 3}
    - {fileID: 21300000, guid: 3b9de3e6f682f564ba979bf08ca656a8, type: 3}
    - {fileID: 21300000, guid: a549fcc217ca92043a606e471bd2872b, type: 3}
    - {fileID: 21300000, guid: 73f63750cd4a15244ab6e4fcf9a56df0, type: 3}
    - {fileID: 21300000, guid: 08bc061259f436940bc70e14fd49d1ff, type: 3}
    - {fileID: 21300000, guid: 20b72d13fc9d872448c5fd9201f8b3c9, type: 3}
    - {fileID: 21300000, guid: 43df12af13eeafa4d85a1c98ad7c05da, type: 3}
    - {fileID: 21300000, guid: 0a5c3368408f52845a6071d91d882754, type: 3}
    - {fileID: 21300000, guid: e4d57c5c0d5c31246a5aa97432b182ba, type: 3}
    - {fileID: 21300000, guid: e97727737a134094984fa02b0af4e427, type: 3}
    - {fileID: 21300000, guid: 74f734e4a2fad6944b988960c6d1ad08, type: 3}
  m_AnimationClipSettings:
    serializedVersion: 2
    m_AdditiveReferencePoseClip: {fileID: 0}
    m_AdditiveReferencePoseTime: 0
    m_StartTime: 0
    m_StopTime: 3
    m_OrientationOffsetY: 0
    m_Level: 0
    m_CycleOffset: 0
    m_HasAdditiveReferencePose: 0
    m_LoopTime: 1
    m_LoopBlend: 0
    m_LoopBlendOrientation: 0
    m_LoopBlendPositionY: 0
    m_LoopBlendPositionXZ: 0
    m_KeepOriginalOrientation: 0
    m_KeepOriginalPositionY: 1
    m_KeepOriginalPositionXZ: 0
    m_HeightFromFeet: 0
    m_Mirror: 0
  m_EditorCurves: []
  m_EulerEditorCurves: []
  m_HasGenericRootTransform: 0
  m_HasMotionFloatCurves: 0
  m_Events:
  - time: 3
    functionName: AnimationFinished
    data: 
    objectReferenceParameter: {fileID: 0}
    floatParameter: 0
    intParameter: 0
    messageOptions: 0
