%YAML 1.1
%TAG !u! tag:unity3d.com,2011:
--- !u!74 &7400000
AnimationClip:
  m_ObjectHideFlags: 0
  m_CorrespondingSourceObject: {fileID: 0}
  m_PrefabInstance: {fileID: 0}
  m_PrefabAsset: {fileID: 0}
  m_Name: WalkOrgZMaczuga
  serializedVersion: 6
  m_Legacy: 0
  m_Compressed: 0
  m_UseHighQualityCurve: 1
  m_RotationCurves: []
  m_CompressedRotationCurves: []
  m_EulerCurves: []
  m_PositionCurves: []
  m_ScaleCurves: []
  m_FloatCurves: []
  m_PPtrCurves:
  - curve:
    - time: 0
      value: {fileID: 21300000, guid: c54d3d03f938c0e45aef9954455c8da3, type: 3}
    - time: 0.033333335
      value: {fileID: 21300000, guid: ba535c89c03007a45ba5108fda06eae5, type: 3}
    - time: 0.06666667
      value: {fileID: 21300000, guid: 1143dea9061a4094fb2c769192433288, type: 3}
    - time: 0.1
      value: {fileID: 21300000, guid: e00243a9f6192d048812092aaceca41c, type: 3}
    - time: 0.13333334
      value: {fileID: 21300000, guid: 773c49a77032bec428dacbcdbfb24292, type: 3}
    - time: 0.16666667
      value: {fileID: 21300000, guid: 44d8513ff3b36b14992b0a87574be462, type: 3}
    - time: 0.2
      value: {fileID: 21300000, guid: 05476762879432a4ba23b92c6c6e9044, type: 3}
    - time: 0.23333333
      value: {fileID: 21300000, guid: 6def9f9729f704c4fbe8ddc517a83688, type: 3}
    - time: 0.26666668
      value: {fileID: 21300000, guid: 793645d1c91567f49861613ec9be0cfc, type: 3}
    - time: 0.3
      value: {fileID: 21300000, guid: d3a46c201159e894cad61550b1405346, type: 3}
    - time: 0.33333334
      value: {fileID: 21300000, guid: 1b6ed5a0565f9b04da844d57a0f74cd1, type: 3}
    - time: 0.36666667
      value: {fileID: 21300000, guid: 49b2bb480a7d62d469ac1a0d452361a2, type: 3}
    - time: 0.4
      value: {fileID: 21300000, guid: 40d0d0bf71445704fab47459e886600d, type: 3}
    - time: 0.43333334
      value: {fileID: 21300000, guid: 3a02b68ba8828e14193cd1c9fc8609b8, type: 3}
    - time: 0.46666667
      value: {fileID: 21300000, guid: 6513ad849f6fa2a4fa437fc04e9d7f71, type: 3}
    - time: 0.5
      value: {fileID: 21300000, guid: 2de5ed560bc1ddd45ad4087a63b407de, type: 3}
    - time: 0.53333336
      value: {fileID: 21300000, guid: cf364f654ffab9a4883a662d19dd5712, type: 3}
    - time: 0.56666666
      value: {fileID: 21300000, guid: a83e85ad5791f154eb6cba0e7307594e, type: 3}
    - time: 0.6
      value: {fileID: 21300000, guid: b1e7ef5f8e5d89946bcc5f58113e5f55, type: 3}
    - time: 0.6333333
      value: {fileID: 21300000, guid: 8e4ee3ad63b5958448dc307498f5c537, type: 3}
    attribute: m_Sprite
    path: 
    classID: 212
    script: {fileID: 0}
  m_SampleRate: 30
  m_WrapMode: 0
  m_Bounds:
    m_Center: {x: 0, y: 0, z: 0}
    m_Extent: {x: 0, y: 0, z: 0}
  m_ClipBindingConstant:
    genericBindings:
    - serializedVersion: 2
      path: 0
      attribute: 0
      script: {fileID: 0}
      typeID: 212
      customType: 23
      isPPtrCurve: 1
    pptrCurveMapping:
    - {fileID: 21300000, guid: c54d3d03f938c0e45aef9954455c8da3, type: 3}
    - {fileID: 21300000, guid: ba535c89c03007a45ba5108fda06eae5, type: 3}
    - {fileID: 21300000, guid: 1143dea9061a4094fb2c769192433288, type: 3}
    - {fileID: 21300000, guid: e00243a9f6192d048812092aaceca41c, type: 3}
    - {fileID: 21300000, guid: 773c49a77032bec428dacbcdbfb24292, type: 3}
    - {fileID: 21300000, guid: 44d8513ff3b36b14992b0a87574be462, type: 3}
    - {fileID: 21300000, guid: 05476762879432a4ba23b92c6c6e9044, type: 3}
    - {fileID: 21300000, guid: 6def9f9729f704c4fbe8ddc517a83688, type: 3}
    - {fileID: 21300000, guid: 793645d1c91567f49861613ec9be0cfc, type: 3}
    - {fileID: 21300000, guid: d3a46c201159e894cad61550b1405346, type: 3}
    - {fileID: 21300000, guid: 1b6ed5a0565f9b04da844d57a0f74cd1, type: 3}
    - {fileID: 21300000, guid: 49b2bb480a7d62d469ac1a0d452361a2, type: 3}
    - {fileID: 21300000, guid: 40d0d0bf71445704fab47459e886600d, type: 3}
    - {fileID: 21300000, guid: 3a02b68ba8828e14193cd1c9fc8609b8, type: 3}
    - {fileID: 21300000, guid: 6513ad849f6fa2a4fa437fc04e9d7f71, type: 3}
    - {fileID: 21300000, guid: 2de5ed560bc1ddd45ad4087a63b407de, type: 3}
    - {fileID: 21300000, guid: cf364f654ffab9a4883a662d19dd5712, type: 3}
    - {fileID: 21300000, guid: a83e85ad5791f154eb6cba0e7307594e, type: 3}
    - {fileID: 21300000, guid: b1e7ef5f8e5d89946bcc5f58113e5f55, type: 3}
    - {fileID: 21300000, guid: 8e4ee3ad63b5958448dc307498f5c537, type: 3}
  m_AnimationClipSettings:
    serializedVersion: 2
    m_AdditiveReferencePoseClip: {fileID: 0}
    m_AdditiveReferencePoseTime: 0
    m_StartTime: 0
    m_StopTime: 0.6666667
    m_OrientationOffsetY: 0
    m_Level: 0
    m_CycleOffset: 0
    m_HasAdditiveReferencePose: 0
    m_LoopTime: 1
    m_LoopBlend: 0
    m_LoopBlendOrientation: 0
    m_LoopBlendPositionY: 0
    m_LoopBlendPositionXZ: 0
    m_KeepOriginalOrientation: 0
    m_KeepOriginalPositionY: 1
    m_KeepOriginalPositionXZ: 0
    m_HeightFromFeet: 0
    m_Mirror: 0
  m_EditorCurves: []
  m_EulerEditorCurves: []
  m_HasGenericRootTransform: 0
  m_HasMotionFloatCurves: 0
  m_Events: []
