%YAML 1.1
%TAG !u! tag:unity3d.com,2011:
--- !u!114 &11400000
MonoBehaviour:
  m_ObjectHideFlags: 0
  m_CorrespondingSourceObject: {fileID: 0}
  m_PrefabInstance: {fileID: 0}
  m_PrefabAsset: {fileID: 0}
  m_GameObject: {fileID: 0}
  m_Enabled: 1
  m_EditorHideFlags: 0
  m_Script: {fileID: 11500000, guid: 31e068f558765e74fa6e9cd891113c4d, type: 3}
  m_Name: Assasin
  m_EditorClassIdentifier: 
  spellSetIndex: 3
  manaHandlerId: 2
  avatar: {fileID: 21300000, guid: 88644d79aa683de4b96be62321bf132e, type: 3}
