%YAML 1.1
%TAG !u! tag:unity3d.com,2011:
--- !u!221 &22100000
AnimatorOverrideController:
  m_ObjectHideFlags: 0
  m_CorrespondingSourceObject: {fileID: 0}
  m_PrefabInstance: {fileID: 0}
  m_PrefabAsset: {fileID: 0}
  m_Name: YetiIceMorphAnimController
  m_Controller: {fileID: 9100000, guid: 2b124088f39dd6e4ab1815ff52d4da3a, type: 2}
  m_Clips:
  - m_OriginalClip: {fileID: 7400000, guid: d3c7bce742986be44963a8c8456af886, type: 2}
    m_OverrideClip: {fileID: 7400000, guid: 614279167202e14499722f0c5218d634, type: 2}
  - m_OriginalClip: {fileID: 7400000, guid: 614279167202e14499722f0c5218d634, type: 2}
    m_OverrideClip: {fileID: 7400000, guid: 614279167202e14499722f0c5218d634, type: 2}
  - m_OriginalClip: {fileID: 7400000, guid: 9ab5a00c736903c48bb9dc742434e6b8, type: 2}
    m_OverrideClip: {fileID: 7400000, guid: 2c1f0bbd62c0fcc41b3040436b631c5c, type: 2}
