%YAML 1.1
%TAG !u! tag:unity3d.com,2011:
--- !u!74 &7400000
AnimationClip:
  m_ObjectHideFlags: 0
  m_CorrespondingSourceObject: {fileID: 0}
  m_PrefabInstance: {fileID: 0}
  m_PrefabAsset: {fileID: 0}
  m_Name: RunZielonyGlut
  serializedVersion: 6
  m_Legacy: 0
  m_Compressed: 0
  m_UseHighQualityCurve: 1
  m_RotationCurves: []
  m_CompressedRotationCurves: []
  m_EulerCurves: []
  m_PositionCurves: []
  m_ScaleCurves: []
  m_FloatCurves: []
  m_PPtrCurves:
  - curve:
    - time: 0
      value: {fileID: 21300000, guid: 55f6dfff8f69681479637d34950308cd, type: 3}
    - time: 0.041666668
      value: {fileID: 21300000, guid: 6ce501d89b8b22c4c9611b71046cc9ad, type: 3}
    - time: 0.083333336
      value: {fileID: 21300000, guid: 6800683b406119842ae68ae6d887e598, type: 3}
    - time: 0.125
      value: {fileID: 21300000, guid: 113ddbba61fe1e54680a838b9e0c091f, type: 3}
    - time: 0.16666667
      value: {fileID: 21300000, guid: 97eba79de9acdac4f8322cedb2183255, type: 3}
    - time: 0.20833333
      value: {fileID: 21300000, guid: 3ea838361ba64f34da1569dcdbc86c60, type: 3}
    - time: 0.25
      value: {fileID: 21300000, guid: 4095a3dece6eaf044901b3cc8080f700, type: 3}
    - time: 0.29166666
      value: {fileID: 21300000, guid: dd4eb8a11b4bf824094e123ca83fab8a, type: 3}
    - time: 0.33333334
      value: {fileID: 21300000, guid: bc81184f1ab13f4408b0d1db5d30c608, type: 3}
    - time: 0.375
      value: {fileID: 21300000, guid: 6ea6b8f8c4407d849a168119b38f3361, type: 3}
    - time: 0.41666666
      value: {fileID: 21300000, guid: 4e58ebbef32a9d14fb532c269c4a9bd3, type: 3}
    - time: 0.45833334
      value: {fileID: 21300000, guid: 725eec333b651f84c8b94103bc2c6ae5, type: 3}
    - time: 0.5
      value: {fileID: 21300000, guid: 0781bde61c3fd644baeaa2def2cadefd, type: 3}
    - time: 0.5416667
      value: {fileID: 21300000, guid: 041a58b9730195241a011ecec22ffa77, type: 3}
    - time: 0.5833333
      value: {fileID: 21300000, guid: e5abc3057bc581a43893d6c85a21f522, type: 3}
    - time: 0.625
      value: {fileID: 21300000, guid: 01b09f722df78e04ba4eec7827024e2d, type: 3}
    - time: 0.6666667
      value: {fileID: 21300000, guid: 52fc66738930f2645a92ff1fbda29fe3, type: 3}
    - time: 0.7083333
      value: {fileID: 21300000, guid: 5409478c2727ce9498ba80ea6bd871d6, type: 3}
    attribute: m_Sprite
    path: 
    classID: 212
    script: {fileID: 0}
  m_SampleRate: 24
  m_WrapMode: 0
  m_Bounds:
    m_Center: {x: 0, y: 0, z: 0}
    m_Extent: {x: 0, y: 0, z: 0}
  m_ClipBindingConstant:
    genericBindings:
    - serializedVersion: 2
      path: 0
      attribute: 0
      script: {fileID: 0}
      typeID: 212
      customType: 23
      isPPtrCurve: 1
    pptrCurveMapping:
    - {fileID: 21300000, guid: 55f6dfff8f69681479637d34950308cd, type: 3}
    - {fileID: 21300000, guid: 6ce501d89b8b22c4c9611b71046cc9ad, type: 3}
    - {fileID: 21300000, guid: 6800683b406119842ae68ae6d887e598, type: 3}
    - {fileID: 21300000, guid: 113ddbba61fe1e54680a838b9e0c091f, type: 3}
    - {fileID: 21300000, guid: 97eba79de9acdac4f8322cedb2183255, type: 3}
    - {fileID: 21300000, guid: 3ea838361ba64f34da1569dcdbc86c60, type: 3}
    - {fileID: 21300000, guid: 4095a3dece6eaf044901b3cc8080f700, type: 3}
    - {fileID: 21300000, guid: dd4eb8a11b4bf824094e123ca83fab8a, type: 3}
    - {fileID: 21300000, guid: bc81184f1ab13f4408b0d1db5d30c608, type: 3}
    - {fileID: 21300000, guid: 6ea6b8f8c4407d849a168119b38f3361, type: 3}
    - {fileID: 21300000, guid: 4e58ebbef32a9d14fb532c269c4a9bd3, type: 3}
    - {fileID: 21300000, guid: 725eec333b651f84c8b94103bc2c6ae5, type: 3}
    - {fileID: 21300000, guid: 0781bde61c3fd644baeaa2def2cadefd, type: 3}
    - {fileID: 21300000, guid: 041a58b9730195241a011ecec22ffa77, type: 3}
    - {fileID: 21300000, guid: e5abc3057bc581a43893d6c85a21f522, type: 3}
    - {fileID: 21300000, guid: 01b09f722df78e04ba4eec7827024e2d, type: 3}
    - {fileID: 21300000, guid: 52fc66738930f2645a92ff1fbda29fe3, type: 3}
    - {fileID: 21300000, guid: 5409478c2727ce9498ba80ea6bd871d6, type: 3}
  m_AnimationClipSettings:
    serializedVersion: 2
    m_AdditiveReferencePoseClip: {fileID: 0}
    m_AdditiveReferencePoseTime: 0
    m_StartTime: 0
    m_StopTime: 0.75
    m_OrientationOffsetY: 0
    m_Level: 0
    m_CycleOffset: 0
    m_HasAdditiveReferencePose: 0
    m_LoopTime: 1
    m_LoopBlend: 0
    m_LoopBlendOrientation: 0
    m_LoopBlendPositionY: 0
    m_LoopBlendPositionXZ: 0
    m_KeepOriginalOrientation: 0
    m_KeepOriginalPositionY: 1
    m_KeepOriginalPositionXZ: 0
    m_HeightFromFeet: 0
    m_Mirror: 0
  m_EditorCurves: []
  m_EulerEditorCurves: []
  m_HasGenericRootTransform: 0
  m_HasMotionFloatCurves: 0
  m_Events: []
