%YAML 1.1
%TAG !u! tag:unity3d.com,2011:
--- !u!74 &7400000
AnimationClip:
  m_ObjectHideFlags: 0
  m_CorrespondingSourceObject: {fileID: 0}
  m_PrefabInstance: {fileID: 0}
  m_PrefabAsset: {fileID: 0}
  m_Name: PoisonRainPart2_Loop
  serializedVersion: 6
  m_Legacy: 0
  m_Compressed: 0
  m_UseHighQualityCurve: 1
  m_RotationCurves: []
  m_CompressedRotationCurves: []
  m_EulerCurves: []
  m_PositionCurves: []
  m_ScaleCurves: []
  m_FloatCurves: []
  m_PPtrCurves:
  - curve:
    - time: 0
      value: {fileID: 21300000, guid: 924e92103c08f7d449069c80346022a2, type: 3}
    - time: 0.2
      value: {fileID: 21300000, guid: 1100f7773eb33d241a9012c1969cd567, type: 3}
    - time: 0.4
      value: {fileID: 21300000, guid: 5a7c04b3390c1db4b83922273632dd6c, type: 3}
    - time: 0.6
      value: {fileID: 21300000, guid: 3b7467586601d25459226353e48fd737, type: 3}
    - time: 0.8
      value: {fileID: 21300000, guid: cd0498bc104d8fe45b3b43a2d988d342, type: 3}
    - time: 1
      value: {fileID: 21300000, guid: 948607a5c9a64da44a6b9bc6d31c5942, type: 3}
    - time: 1.2
      value: {fileID: 21300000, guid: efa366cd541d3e240a5527fcb36e38e8, type: 3}
    - time: 1.4
      value: {fileID: 21300000, guid: 5c46a66656e8dfc49834064d043bcac0, type: 3}
    attribute: m_Sprite
    path: 
    classID: 212
    script: {fileID: 0}
  m_SampleRate: 5
  m_WrapMode: 0
  m_Bounds:
    m_Center: {x: 0, y: 0, z: 0}
    m_Extent: {x: 0, y: 0, z: 0}
  m_ClipBindingConstant:
    genericBindings:
    - serializedVersion: 2
      path: 0
      attribute: 0
      script: {fileID: 0}
      typeID: 212
      customType: 23
      isPPtrCurve: 1
    pptrCurveMapping:
    - {fileID: 21300000, guid: 924e92103c08f7d449069c80346022a2, type: 3}
    - {fileID: 21300000, guid: 1100f7773eb33d241a9012c1969cd567, type: 3}
    - {fileID: 21300000, guid: 5a7c04b3390c1db4b83922273632dd6c, type: 3}
    - {fileID: 21300000, guid: 3b7467586601d25459226353e48fd737, type: 3}
    - {fileID: 21300000, guid: cd0498bc104d8fe45b3b43a2d988d342, type: 3}
    - {fileID: 21300000, guid: 948607a5c9a64da44a6b9bc6d31c5942, type: 3}
    - {fileID: 21300000, guid: efa366cd541d3e240a5527fcb36e38e8, type: 3}
    - {fileID: 21300000, guid: 5c46a66656e8dfc49834064d043bcac0, type: 3}
  m_AnimationClipSettings:
    serializedVersion: 2
    m_AdditiveReferencePoseClip: {fileID: 0}
    m_AdditiveReferencePoseTime: 0
    m_StartTime: 0
    m_StopTime: 1.6
    m_OrientationOffsetY: 0
    m_Level: 0
    m_CycleOffset: 0
    m_HasAdditiveReferencePose: 0
    m_LoopTime: 1
    m_LoopBlend: 0
    m_LoopBlendOrientation: 0
    m_LoopBlendPositionY: 0
    m_LoopBlendPositionXZ: 0
    m_KeepOriginalOrientation: 0
    m_KeepOriginalPositionY: 1
    m_KeepOriginalPositionXZ: 0
    m_HeightFromFeet: 0
    m_Mirror: 0
  m_EditorCurves: []
  m_EulerEditorCurves: []
  m_HasGenericRootTransform: 0
  m_HasMotionFloatCurves: 0
  m_Events: []
