%YAML 1.1
%TAG !u! tag:unity3d.com,2011:
--- !u!60 &447169012295958259
PolygonCollider2D:
  m_ObjectHideFlags: 0
  m_CorrespondingSourceObject: {fileID: 0}
  m_PrefabInstance: {fileID: 0}
  m_PrefabAsset: {fileID: 0}
  m_GameObject: {fileID: 4089243723279997373}
  m_Enabled: 1
  m_Density: 1
  m_Material: {fileID: 0}
  m_IsTrigger: 0
  m_UsedByEffector: 0
  m_UsedByComposite: 0
  m_Offset: {x: 0, y: 0}
  m_SpriteTilingProperty:
    border: {x: 0, y: 0, z: 0, w: 0}
    pivot: {x: 0.5, y: 0.5}
    oldSize: {x: 5.96, y: 2.55}
    newSize: {x: 5.96, y: 2.55}
    adaptiveTilingThreshold: 0.5
    drawMode: 0
    adaptiveTiling: 0
  m_AutoTiling: 0
  m_Points:
    m_Paths:
    - - {x: -2.23, y: -1.265}
      - {x: -1.68, y: -1.265}
      - {x: -1.5699999, y: -1.245}
      - {x: -1.36, y: -1.255}
      - {x: -1.18, y: -1.235}
      - {x: -1.05, y: -1.1949999}
      - {x: -0.88, y: -1.165}
      - {x: -0.65, y: -1.0749999}
      - {x: -0.59, y: -0.995}
      - {x: -0.47, y: -0.97499996}
      - {x: -0.35, y: -0.865}
      - {x: -0.29999998, y: -0.73499995}
      - {x: -0.22999999, y: -0.715}
      - {x: -0.03, y: -0.555}
      - {x: 0.13, y: -0.475}
      - {x: 0.35, y: -0.465}
      - {x: 0.45999998, y: -0.45499998}
      - {x: 0.59999996, y: -0.39499998}
      - {x: 0.75, y: -0.415}
      - {x: 1, y: -0.385}
      - {x: 1.17, y: -0.445}
      - {x: 1.7199999, y: -0.42499998}
      - {x: 1.8299999, y: -0.405}
      - {x: 2.04, y: -0.415}
      - {x: 2.22, y: -0.39499998}
      - {x: 2.3, y: -0.435}
      - {x: 2.49, y: -0.435}
      - {x: 2.74, y: -0.42499998}
      - {x: 2.9199998, y: -0.465}
      - {x: 2.98, y: -0.45499998}
      - {x: 2.98, y: 1.275}
      - {x: 2.81, y: 1.275}
      - {x: 2.76, y: 1.265}
      - {x: 2.62, y: 1.275}
      - {x: 2.21, y: 1.255}
      - {x: 2.1399999, y: 1.225}
      - {x: 1.9799999, y: 1.265}
      - {x: 1.74, y: 1.255}
      - {x: 1.62, y: 1.275}
      - {x: 1.15, y: 1.275}
      - {x: 0.96999997, y: 1.245}
      - {x: 0.91999996, y: 1.275}
      - {x: 0.02, y: 1.275}
      - {x: -0.03, y: 1.255}
      - {x: -0.24, y: 1.255}
      - {x: -0.41, y: 1.185}
      - {x: -0.53999996, y: 1.155}
      - {x: -0.7, y: 1.0849999}
      - {x: -0.9, y: 0.945}
      - {x: -1.27, y: 0.715}
      - {x: -1.4499999, y: 0.525}
      - {x: -1.5699999, y: 0.45499998}
      - {x: -1.75, y: 0.39499998}
      - {x: -1.8, y: 0.435}
      - {x: -2.1699998, y: 0.445}
      - {x: -2.4299998, y: 0.405}
      - {x: -2.49, y: 0.435}
      - {x: -2.79, y: 0.435}
      - {x: -2.9299998, y: 0.445}
      - {x: -2.98, y: 0.445}
      - {x: -2.98, y: -1.275}
      - {x: -2.8899999, y: -1.275}
      - {x: -2.78, y: -1.225}
      - {x: -2.6399999, y: -1.245}
      - {x: -2.47, y: -1.235}
--- !u!114 &7180627770353076376
MonoBehaviour:
  m_ObjectHideFlags: 0
  m_CorrespondingSourceObject: {fileID: 0}
  m_PrefabInstance: {fileID: 0}
  m_PrefabAsset: {fileID: 0}
  m_GameObject: {fileID: 4089243723279997373}
  m_Enabled: 1
  m_EditorHideFlags: 0
  m_Script: {fileID: 11500000, guid: d01209f656fc58442bbd136033e5e291, type: 3}
  m_Name: 
  m_EditorClassIdentifier: 
  paths: []
--- !u!1001 &6516534915363481677
PrefabInstance:
  m_ObjectHideFlags: 0
  serializedVersion: 2
  m_Modification:
    m_TransformParent: {fileID: 0}
    m_Modifications:
    - target: {fileID: 323020458100840888, guid: fbea019b175319044a868080402ed884, type: 3}
      propertyPath: m_Sprite
      value: 
      objectReference: {fileID: 21300000, guid: e3a3cab9c0abff14dac2149732d331e1, type: 3}
    - target: {fileID: 2512943408057240749, guid: fbea019b175319044a868080402ed884, type: 3}
      propertyPath: m_Sprite
      value: 
      objectReference: {fileID: 21300000, guid: e3a3cab9c0abff14dac2149732d331e1, type: 3}
    - target: {fileID: 2512943408057240749, guid: fbea019b175319044a868080402ed884, type: 3}
      propertyPath: m_Color.b
      value: 1
      objectReference: {fileID: 0}
    - target: {fileID: 2512943408057240749, guid: fbea019b175319044a868080402ed884, type: 3}
      propertyPath: m_Color.g
      value: 1
      objectReference: {fileID: 0}
    - target: {fileID: 2512943408057240749, guid: fbea019b175319044a868080402ed884, type: 3}
      propertyPath: m_Color.r
      value: 1
      objectReference: {fileID: 0}
    - target: {fileID: 2512943408057240749, guid: fbea019b175319044a868080402ed884, type: 3}
      propertyPath: m_SortingOrder
      value: -9
      objectReference: {fileID: 0}
    - target: {fileID: 2512943408057240749, guid: fbea019b175319044a868080402ed884, type: 3}
      propertyPath: m_MaskInteraction
      value: 0
      objectReference: {fileID: 0}
    - target: {fileID: 6229716836261959424, guid: fbea019b175319044a868080402ed884, type: 3}
      propertyPath: m_RootOrder
      value: 0
      objectReference: {fileID: 0}
    - target: {fileID: 6229716836261959424, guid: fbea019b175319044a868080402ed884, type: 3}
      propertyPath: m_LocalPosition.x
      value: 9.882
      objectReference: {fileID: 0}
    - target: {fileID: 6229716836261959424, guid: fbea019b175319044a868080402ed884, type: 3}
      propertyPath: m_LocalPosition.y
      value: 3.652
      objectReference: {fileID: 0}
    - target: {fileID: 6229716836261959424, guid: fbea019b175319044a868080402ed884, type: 3}
      propertyPath: m_LocalPosition.z
      value: 0
      objectReference: {fileID: 0}
    - target: {fileID: 6229716836261959424, guid: fbea019b175319044a868080402ed884, type: 3}
      propertyPath: m_LocalRotation.w
      value: 0.9999652
      objectReference: {fileID: 0}
    - target: {fileID: 6229716836261959424, guid: fbea019b175319044a868080402ed884, type: 3}
      propertyPath: m_LocalRotation.x
      value: -0
      objectReference: {fileID: 0}
    - target: {fileID: 6229716836261959424, guid: fbea019b175319044a868080402ed884, type: 3}
      propertyPath: m_LocalRotation.y
      value: -0
      objectReference: {fileID: 0}
    - target: {fileID: 6229716836261959424, guid: fbea019b175319044a868080402ed884, type: 3}
      propertyPath: m_LocalRotation.z
      value: -0.008348607
      objectReference: {fileID: 0}
    - target: {fileID: 6229716836261959424, guid: fbea019b175319044a868080402ed884, type: 3}
      propertyPath: m_LocalEulerAnglesHint.x
      value: 0
      objectReference: {fileID: 0}
    - target: {fileID: 6229716836261959424, guid: fbea019b175319044a868080402ed884, type: 3}
      propertyPath: m_LocalEulerAnglesHint.y
      value: 0
      objectReference: {fileID: 0}
    - target: {fileID: 6229716836261959424, guid: fbea019b175319044a868080402ed884, type: 3}
      propertyPath: m_LocalEulerAnglesHint.z
      value: -0.957
      objectReference: {fileID: 0}
    - target: {fileID: 7120341071035511280, guid: fbea019b175319044a868080402ed884, type: 3}
      propertyPath: m_Name
      value: Road Variant (1) Variant
      objectReference: {fileID: 0}
    m_RemovedComponents:
    - {fileID: 6655132923946981054, guid: fbea019b175319044a868080402ed884, type: 3}
  m_SourcePrefab: {fileID: 100100000, guid: fbea019b175319044a868080402ed884, type: 3}
--- !u!1 &4089243723279997373 stripped
GameObject:
  m_CorrespondingSourceObject: {fileID: 7120341071035511280, guid: fbea019b175319044a868080402ed884, type: 3}
  m_PrefabInstance: {fileID: 6516534915363481677}
  m_PrefabAsset: {fileID: 0}
