%YAML 1.1
%TAG !u! tag:unity3d.com,2011:
--- !u!114 &-3271962805754868782
MonoBehaviour:
  m_ObjectHideFlags: 0
  m_CorrespondingSourceObject: {fileID: 0}
  m_PrefabInstance: {fileID: 0}
  m_PrefabAsset: {fileID: 0}
  m_GameObject: {fileID: 3776823771348614675}
  m_Enabled: 1
  m_EditorHideFlags: 0
  m_Script: {fileID: 11500000, guid: d01209f656fc58442bbd136033e5e291, type: 3}
  m_Name: 
  m_EditorClassIdentifier: 
  paths: []
--- !u!1001 &3020364376514081009
PrefabInstance:
  m_ObjectHideFlags: 0
  serializedVersion: 2
  m_Modification:
    m_TransformParent: {fileID: 0}
    m_Modifications:
    - target: {fileID: 2126688930263830242, guid: 0d48c41776334934fac09adb5cd226b9, type: 3}
      propertyPath: m_Name
      value: RoadStraightr Variant
      objectReference: {fileID: 0}
    - target: {fileID: 4629173255605383415, guid: 0d48c41776334934fac09adb5cd226b9, type: 3}
      propertyPath: m_Sprite
      value: 
      objectReference: {fileID: 21300000, guid: 81ee48f672493804bb7141bed436fadf, type: 3}
    - target: {fileID: 4629173255605383415, guid: 0d48c41776334934fac09adb5cd226b9, type: 3}
      propertyPath: m_Color.b
      value: 1
      objectReference: {fileID: 0}
    - target: {fileID: 4629173255605383415, guid: 0d48c41776334934fac09adb5cd226b9, type: 3}
      propertyPath: m_Color.g
      value: 1
      objectReference: {fileID: 0}
    - target: {fileID: 4629173255605383415, guid: 0d48c41776334934fac09adb5cd226b9, type: 3}
      propertyPath: m_Color.r
      value: 1
      objectReference: {fileID: 0}
    - target: {fileID: 4629173255605383415, guid: 0d48c41776334934fac09adb5cd226b9, type: 3}
      propertyPath: m_SortingOrder
      value: -9
      objectReference: {fileID: 0}
    - target: {fileID: 4629173255605383415, guid: 0d48c41776334934fac09adb5cd226b9, type: 3}
      propertyPath: m_MaskInteraction
      value: 0
      objectReference: {fileID: 0}
    - target: {fileID: 6085200992110812651, guid: 0d48c41776334934fac09adb5cd226b9, type: 3}
      propertyPath: m_RootOrder
      value: 0
      objectReference: {fileID: 0}
    - target: {fileID: 6085200992110812651, guid: 0d48c41776334934fac09adb5cd226b9, type: 3}
      propertyPath: m_LocalPosition.x
      value: -20.310978
      objectReference: {fileID: 0}
    - target: {fileID: 6085200992110812651, guid: 0d48c41776334934fac09adb5cd226b9, type: 3}
      propertyPath: m_LocalPosition.y
      value: -12.473147
      objectReference: {fileID: 0}
    - target: {fileID: 6085200992110812651, guid: 0d48c41776334934fac09adb5cd226b9, type: 3}
      propertyPath: m_LocalPosition.z
      value: 0
      objectReference: {fileID: 0}
    - target: {fileID: 6085200992110812651, guid: 0d48c41776334934fac09adb5cd226b9, type: 3}
      propertyPath: m_LocalRotation.w
      value: 0.96280515
      objectReference: {fileID: 0}
    - target: {fileID: 6085200992110812651, guid: 0d48c41776334934fac09adb5cd226b9, type: 3}
      propertyPath: m_LocalRotation.x
      value: -0
      objectReference: {fileID: 0}
    - target: {fileID: 6085200992110812651, guid: 0d48c41776334934fac09adb5cd226b9, type: 3}
      propertyPath: m_LocalRotation.y
      value: -0
      objectReference: {fileID: 0}
    - target: {fileID: 6085200992110812651, guid: 0d48c41776334934fac09adb5cd226b9, type: 3}
      propertyPath: m_LocalRotation.z
      value: -0.2701966
      objectReference: {fileID: 0}
    - target: {fileID: 6085200992110812651, guid: 0d48c41776334934fac09adb5cd226b9, type: 3}
      propertyPath: m_LocalEulerAnglesHint.x
      value: 0
      objectReference: {fileID: 0}
    - target: {fileID: 6085200992110812651, guid: 0d48c41776334934fac09adb5cd226b9, type: 3}
      propertyPath: m_LocalEulerAnglesHint.y
      value: 0
      objectReference: {fileID: 0}
    - target: {fileID: 6085200992110812651, guid: 0d48c41776334934fac09adb5cd226b9, type: 3}
      propertyPath: m_LocalEulerAnglesHint.z
      value: -31.352
      objectReference: {fileID: 0}
    - target: {fileID: 8356928809890311208, guid: 0d48c41776334934fac09adb5cd226b9, type: 3}
      propertyPath: m_Size.x
      value: 1.6506846
      objectReference: {fileID: 0}
    - target: {fileID: 8356928809890311208, guid: 0d48c41776334934fac09adb5cd226b9, type: 3}
      propertyPath: m_Offset.x
      value: -0.007899165
      objectReference: {fileID: 0}
    m_RemovedComponents: []
  m_SourcePrefab: {fileID: 100100000, guid: 0d48c41776334934fac09adb5cd226b9, type: 3}
--- !u!1 &3776823771348614675 stripped
GameObject:
  m_CorrespondingSourceObject: {fileID: 2126688930263830242, guid: 0d48c41776334934fac09adb5cd226b9, type: 3}
  m_PrefabInstance: {fileID: 3020364376514081009}
  m_PrefabAsset: {fileID: 0}
