%YAML 1.1
%TAG !u! tag:unity3d.com,2011:
--- !u!114 &-4232115436585909502
MonoBehaviour:
  m_ObjectHideFlags: 0
  m_CorrespondingSourceObject: {fileID: 0}
  m_PrefabInstance: {fileID: 0}
  m_PrefabAsset: {fileID: 0}
  m_GameObject: {fileID: 957550146196664390}
  m_Enabled: 1
  m_EditorHideFlags: 0
  m_Script: {fileID: 11500000, guid: d01209f656fc58442bbd136033e5e291, type: 3}
  m_Name: 
  m_EditorClassIdentifier: 
  paths: []
--- !u!1001 &7308693804163862670
PrefabInstance:
  m_ObjectHideFlags: 0
  serializedVersion: 2
  m_Modification:
    m_TransformParent: {fileID: 0}
    m_Modifications:
    - target: {fileID: 1955756254007331085, guid: 565920a7c4af0eb4e9fb0368b4b1add2, type: 3}
      propertyPath: m_Points.m_Paths.Array.data[0].Array.size
      value: 13
      objectReference: {fileID: 0}
    - target: {fileID: 1955756254007331085, guid: 565920a7c4af0eb4e9fb0368b4b1add2, type: 3}
      propertyPath: m_Points.m_Paths.Array.data[0].Array.data[0].x
      value: 1.9264088
      objectReference: {fileID: 0}
    - target: {fileID: 1955756254007331085, guid: 565920a7c4af0eb4e9fb0368b4b1add2, type: 3}
      propertyPath: m_Points.m_Paths.Array.data[0].Array.data[0].y
      value: 0.77885675
      objectReference: {fileID: 0}
    - target: {fileID: 1955756254007331085, guid: 565920a7c4af0eb4e9fb0368b4b1add2, type: 3}
      propertyPath: m_Points.m_Paths.Array.data[0].Array.data[1].x
      value: 0.49470234
      objectReference: {fileID: 0}
    - target: {fileID: 1955756254007331085, guid: 565920a7c4af0eb4e9fb0368b4b1add2, type: 3}
      propertyPath: m_Points.m_Paths.Array.data[0].Array.data[1].y
      value: -0.5690117
      objectReference: {fileID: 0}
    - target: {fileID: 1955756254007331085, guid: 565920a7c4af0eb4e9fb0368b4b1add2, type: 3}
      propertyPath: m_Points.m_Paths.Array.data[0].Array.data[2].x
      value: 0.39849663
      objectReference: {fileID: 0}
    - target: {fileID: 1955756254007331085, guid: 565920a7c4af0eb4e9fb0368b4b1add2, type: 3}
      propertyPath: m_Points.m_Paths.Array.data[0].Array.data[2].y
      value: -0.862453
      objectReference: {fileID: 0}
    - target: {fileID: 1955756254007331085, guid: 565920a7c4af0eb4e9fb0368b4b1add2, type: 3}
      propertyPath: m_Points.m_Paths.Array.data[0].Array.data[3].x
      value: 0.4868555
      objectReference: {fileID: 0}
    - target: {fileID: 1955756254007331085, guid: 565920a7c4af0eb4e9fb0368b4b1add2, type: 3}
      propertyPath: m_Points.m_Paths.Array.data[0].Array.data[3].y
      value: -1.3662863
      objectReference: {fileID: 0}
    - target: {fileID: 1955756254007331085, guid: 565920a7c4af0eb4e9fb0368b4b1add2, type: 3}
      propertyPath: m_Points.m_Paths.Array.data[0].Array.data[4].x
      value: 0.5684595
      objectReference: {fileID: 0}
    - target: {fileID: 1955756254007331085, guid: 565920a7c4af0eb4e9fb0368b4b1add2, type: 3}
      propertyPath: m_Points.m_Paths.Array.data[0].Array.data[4].y
      value: -1.9537723
      objectReference: {fileID: 0}
    - target: {fileID: 1955756254007331085, guid: 565920a7c4af0eb4e9fb0368b4b1add2, type: 3}
      propertyPath: m_Points.m_Paths.Array.data[0].Array.data[5].x
      value: -1.0907452
      objectReference: {fileID: 0}
    - target: {fileID: 1955756254007331085, guid: 565920a7c4af0eb4e9fb0368b4b1add2, type: 3}
      propertyPath: m_Points.m_Paths.Array.data[0].Array.data[5].y
      value: -1.9613199
      objectReference: {fileID: 0}
    - target: {fileID: 1955756254007331085, guid: 565920a7c4af0eb4e9fb0368b4b1add2, type: 3}
      propertyPath: m_Points.m_Paths.Array.data[0].Array.data[6].x
      value: -1.1440842
      objectReference: {fileID: 0}
    - target: {fileID: 1955756254007331085, guid: 565920a7c4af0eb4e9fb0368b4b1add2, type: 3}
      propertyPath: m_Points.m_Paths.Array.data[0].Array.data[6].y
      value: -1.5467314
      objectReference: {fileID: 0}
    - target: {fileID: 1955756254007331085, guid: 565920a7c4af0eb4e9fb0368b4b1add2, type: 3}
      propertyPath: m_Points.m_Paths.Array.data[0].Array.data[7].x
      value: -1.4675479
      objectReference: {fileID: 0}
    - target: {fileID: 1955756254007331085, guid: 565920a7c4af0eb4e9fb0368b4b1add2, type: 3}
      propertyPath: m_Points.m_Paths.Array.data[0].Array.data[7].y
      value: -1.1800176
      objectReference: {fileID: 0}
    - target: {fileID: 1955756254007331085, guid: 565920a7c4af0eb4e9fb0368b4b1add2, type: 3}
      propertyPath: m_Points.m_Paths.Array.data[0].Array.data[8].x
      value: -1.9632959
      objectReference: {fileID: 0}
    - target: {fileID: 1955756254007331085, guid: 565920a7c4af0eb4e9fb0368b4b1add2, type: 3}
      propertyPath: m_Points.m_Paths.Array.data[0].Array.data[8].y
      value: -1.0856245
      objectReference: {fileID: 0}
    - target: {fileID: 1955756254007331085, guid: 565920a7c4af0eb4e9fb0368b4b1add2, type: 3}
      propertyPath: m_Points.m_Paths.Array.data[0].Array.data[9].x
      value: -1.9677429
      objectReference: {fileID: 0}
    - target: {fileID: 1955756254007331085, guid: 565920a7c4af0eb4e9fb0368b4b1add2, type: 3}
      propertyPath: m_Points.m_Paths.Array.data[0].Array.data[9].y
      value: 0.57724625
      objectReference: {fileID: 0}
    - target: {fileID: 1955756254007331085, guid: 565920a7c4af0eb4e9fb0368b4b1add2, type: 3}
      propertyPath: m_Points.m_Paths.Array.data[0].Array.data[10].x
      value: -1.0510559
      objectReference: {fileID: 0}
    - target: {fileID: 1955756254007331085, guid: 565920a7c4af0eb4e9fb0368b4b1add2, type: 3}
      propertyPath: m_Points.m_Paths.Array.data[0].Array.data[10].y
      value: 0.45249367
      objectReference: {fileID: 0}
    - target: {fileID: 1955756254007331085, guid: 565920a7c4af0eb4e9fb0368b4b1add2, type: 3}
      propertyPath: m_Points.m_Paths.Array.data[0].Array.data[11].x
      value: -0.6199312
      objectReference: {fileID: 0}
    - target: {fileID: 1955756254007331085, guid: 565920a7c4af0eb4e9fb0368b4b1add2, type: 3}
      propertyPath: m_Points.m_Paths.Array.data[0].Array.data[11].y
      value: 0.47215033
      objectReference: {fileID: 0}
    - target: {fileID: 1955756254007331085, guid: 565920a7c4af0eb4e9fb0368b4b1add2, type: 3}
      propertyPath: m_Points.m_Paths.Array.data[0].Array.data[12].x
      value: 0.7735219
      objectReference: {fileID: 0}
    - target: {fileID: 1955756254007331085, guid: 565920a7c4af0eb4e9fb0368b4b1add2, type: 3}
      propertyPath: m_Points.m_Paths.Array.data[0].Array.data[12].y
      value: 1.9360446
      objectReference: {fileID: 0}
    - target: {fileID: 3843870174972968525, guid: 565920a7c4af0eb4e9fb0368b4b1add2, type: 3}
      propertyPath: m_Sprite
      value: 
      objectReference: {fileID: 21300000, guid: a5a2caa599cb03546baa3f0f45badb96, type: 3}
    - target: {fileID: 7504215798305906888, guid: 565920a7c4af0eb4e9fb0368b4b1add2, type: 3}
      propertyPath: m_Name
      value: RoadY Variant
      objectReference: {fileID: 0}
    - target: {fileID: 9084328268845478074, guid: 565920a7c4af0eb4e9fb0368b4b1add2, type: 3}
      propertyPath: m_RootOrder
      value: 0
      objectReference: {fileID: 0}
    - target: {fileID: 9084328268845478074, guid: 565920a7c4af0eb4e9fb0368b4b1add2, type: 3}
      propertyPath: m_LocalPosition.x
      value: 10.780977
      objectReference: {fileID: 0}
    - target: {fileID: 9084328268845478074, guid: 565920a7c4af0eb4e9fb0368b4b1add2, type: 3}
      propertyPath: m_LocalPosition.y
      value: 5.653146
      objectReference: {fileID: 0}
    - target: {fileID: 9084328268845478074, guid: 565920a7c4af0eb4e9fb0368b4b1add2, type: 3}
      propertyPath: m_LocalPosition.z
      value: 12.749154
      objectReference: {fileID: 0}
    - target: {fileID: 9084328268845478074, guid: 565920a7c4af0eb4e9fb0368b4b1add2, type: 3}
      propertyPath: m_LocalRotation.w
      value: 1
      objectReference: {fileID: 0}
    - target: {fileID: 9084328268845478074, guid: 565920a7c4af0eb4e9fb0368b4b1add2, type: 3}
      propertyPath: m_LocalRotation.x
      value: -0
      objectReference: {fileID: 0}
    - target: {fileID: 9084328268845478074, guid: 565920a7c4af0eb4e9fb0368b4b1add2, type: 3}
      propertyPath: m_LocalRotation.y
      value: -0
      objectReference: {fileID: 0}
    - target: {fileID: 9084328268845478074, guid: 565920a7c4af0eb4e9fb0368b4b1add2, type: 3}
      propertyPath: m_LocalRotation.z
      value: -0
      objectReference: {fileID: 0}
    - target: {fileID: 9084328268845478074, guid: 565920a7c4af0eb4e9fb0368b4b1add2, type: 3}
      propertyPath: m_LocalEulerAnglesHint.x
      value: 0
      objectReference: {fileID: 0}
    - target: {fileID: 9084328268845478074, guid: 565920a7c4af0eb4e9fb0368b4b1add2, type: 3}
      propertyPath: m_LocalEulerAnglesHint.y
      value: 0
      objectReference: {fileID: 0}
    - target: {fileID: 9084328268845478074, guid: 565920a7c4af0eb4e9fb0368b4b1add2, type: 3}
      propertyPath: m_LocalEulerAnglesHint.z
      value: 0
      objectReference: {fileID: 0}
    m_RemovedComponents: []
  m_SourcePrefab: {fileID: 100100000, guid: 565920a7c4af0eb4e9fb0368b4b1add2, type: 3}
--- !u!1 &957550146196664390 stripped
GameObject:
  m_CorrespondingSourceObject: {fileID: 7504215798305906888, guid: 565920a7c4af0eb4e9fb0368b4b1add2, type: 3}
  m_PrefabInstance: {fileID: 7308693804163862670}
  m_PrefabAsset: {fileID: 0}
