%YAML 1.1
%TAG !u! tag:unity3d.com,2011:
--- !u!114 &2444618635641390409
MonoBehaviour:
  m_ObjectHideFlags: 0
  m_CorrespondingSourceObject: {fileID: 0}
  m_PrefabInstance: {fileID: 0}
  m_PrefabAsset: {fileID: 0}
  m_GameObject: {fileID: 1055186501749304834}
  m_Enabled: 1
  m_EditorHideFlags: 0
  m_Script: {fileID: 11500000, guid: d01209f656fc58442bbd136033e5e291, type: 3}
  m_Name: 
  m_EditorClassIdentifier: 
  paths: []
--- !u!1001 &7188298059517973598
PrefabInstance:
  m_ObjectHideFlags: 0
  serializedVersion: 2
  m_Modification:
    m_TransformParent: {fileID: 0}
    m_Modifications:
    - target: {fileID: 2682887823219521666, guid: c19a7d35101e5ac43973b17029396953, type: 3}
      propertyPath: m_Points.m_Paths.Array.data[0].Array.size
      value: 11
      objectReference: {fileID: 0}
    - target: {fileID: 2682887823219521666, guid: c19a7d35101e5ac43973b17029396953, type: 3}
      propertyPath: m_Points.m_Paths.Array.data[0].Array.data[0].x
      value: -0.40375713
      objectReference: {fileID: 0}
    - target: {fileID: 2682887823219521666, guid: c19a7d35101e5ac43973b17029396953, type: 3}
      propertyPath: m_Points.m_Paths.Array.data[0].Array.data[0].y
      value: 0.8897871
      objectReference: {fileID: 0}
    - target: {fileID: 2682887823219521666, guid: c19a7d35101e5ac43973b17029396953, type: 3}
      propertyPath: m_Points.m_Paths.Array.data[0].Array.data[1].x
      value: -0.6240405
      objectReference: {fileID: 0}
    - target: {fileID: 2682887823219521666, guid: c19a7d35101e5ac43973b17029396953, type: 3}
      propertyPath: m_Points.m_Paths.Array.data[0].Array.data[1].y
      value: 0.55585176
      objectReference: {fileID: 0}
    - target: {fileID: 2682887823219521666, guid: c19a7d35101e5ac43973b17029396953, type: 3}
      propertyPath: m_Points.m_Paths.Array.data[0].Array.data[2].x
      value: -1.0216286
      objectReference: {fileID: 0}
    - target: {fileID: 2682887823219521666, guid: c19a7d35101e5ac43973b17029396953, type: 3}
      propertyPath: m_Points.m_Paths.Array.data[0].Array.data[2].y
      value: 0.35470226
      objectReference: {fileID: 0}
    - target: {fileID: 2682887823219521666, guid: c19a7d35101e5ac43973b17029396953, type: 3}
      propertyPath: m_Points.m_Paths.Array.data[0].Array.data[3].x
      value: -1.3000233
      objectReference: {fileID: 0}
    - target: {fileID: 2682887823219521666, guid: c19a7d35101e5ac43973b17029396953, type: 3}
      propertyPath: m_Points.m_Paths.Array.data[0].Array.data[3].y
      value: 0.39590222
      objectReference: {fileID: 0}
    - target: {fileID: 2682887823219521666, guid: c19a7d35101e5ac43973b17029396953, type: 3}
      propertyPath: m_Points.m_Paths.Array.data[0].Array.data[4].x
      value: -1.2883432
      objectReference: {fileID: 0}
    - target: {fileID: 2682887823219521666, guid: c19a7d35101e5ac43973b17029396953, type: 3}
      propertyPath: m_Points.m_Paths.Array.data[0].Array.data[4].y
      value: -1.2668254
      objectReference: {fileID: 0}
    - target: {fileID: 2682887823219521666, guid: c19a7d35101e5ac43973b17029396953, type: 3}
      propertyPath: m_Points.m_Paths.Array.data[0].Array.data[5].x
      value: -0.7307646
      objectReference: {fileID: 0}
    - target: {fileID: 2682887823219521666, guid: c19a7d35101e5ac43973b17029396953, type: 3}
      propertyPath: m_Points.m_Paths.Array.data[0].Array.data[5].y
      value: -1.1900425
      objectReference: {fileID: 0}
    - target: {fileID: 2682887823219521666, guid: c19a7d35101e5ac43973b17029396953, type: 3}
      propertyPath: m_Points.m_Paths.Array.data[0].Array.data[6].x
      value: 0.14057565
      objectReference: {fileID: 0}
    - target: {fileID: 2682887823219521666, guid: c19a7d35101e5ac43973b17029396953, type: 3}
      propertyPath: m_Points.m_Paths.Array.data[0].Array.data[6].y
      value: -0.91363484
      objectReference: {fileID: 0}
    - target: {fileID: 2682887823219521666, guid: c19a7d35101e5ac43973b17029396953, type: 3}
      propertyPath: m_Points.m_Paths.Array.data[0].Array.data[7].x
      value: 0.6339094
      objectReference: {fileID: 0}
    - target: {fileID: 2682887823219521666, guid: c19a7d35101e5ac43973b17029396953, type: 3}
      propertyPath: m_Points.m_Paths.Array.data[0].Array.data[7].y
      value: -0.42574885
      objectReference: {fileID: 0}
    - target: {fileID: 2682887823219521666, guid: c19a7d35101e5ac43973b17029396953, type: 3}
      propertyPath: m_Points.m_Paths.Array.data[0].Array.data[8].x
      value: 1.1228766
      objectReference: {fileID: 0}
    - target: {fileID: 2682887823219521666, guid: c19a7d35101e5ac43973b17029396953, type: 3}
      propertyPath: m_Points.m_Paths.Array.data[0].Array.data[8].y
      value: 0.415467
      objectReference: {fileID: 0}
    - target: {fileID: 2682887823219521666, guid: c19a7d35101e5ac43973b17029396953, type: 3}
      propertyPath: m_Points.m_Paths.Array.data[0].Array.data[9].x
      value: 1.2656779
      objectReference: {fileID: 0}
    - target: {fileID: 2682887823219521666, guid: c19a7d35101e5ac43973b17029396953, type: 3}
      propertyPath: m_Points.m_Paths.Array.data[0].Array.data[9].y
      value: 1.2819027
      objectReference: {fileID: 0}
    - target: {fileID: 2682887823219521666, guid: c19a7d35101e5ac43973b17029396953, type: 3}
      propertyPath: m_Points.m_Paths.Array.data[0].Array.data[10].x
      value: -0.39981514
      objectReference: {fileID: 0}
    - target: {fileID: 2682887823219521666, guid: c19a7d35101e5ac43973b17029396953, type: 3}
      propertyPath: m_Points.m_Paths.Array.data[0].Array.data[10].y
      value: 1.289881
      objectReference: {fileID: 0}
    - target: {fileID: 2967940014843024537, guid: c19a7d35101e5ac43973b17029396953, type: 3}
      propertyPath: m_RootOrder
      value: 0
      objectReference: {fileID: 0}
    - target: {fileID: 2967940014843024537, guid: c19a7d35101e5ac43973b17029396953, type: 3}
      propertyPath: m_LocalPosition.x
      value: -17.31
      objectReference: {fileID: 0}
    - target: {fileID: 2967940014843024537, guid: c19a7d35101e5ac43973b17029396953, type: 3}
      propertyPath: m_LocalPosition.y
      value: -8.360001
      objectReference: {fileID: 0}
    - target: {fileID: 2967940014843024537, guid: c19a7d35101e5ac43973b17029396953, type: 3}
      propertyPath: m_LocalPosition.z
      value: 0
      objectReference: {fileID: 0}
    - target: {fileID: 2967940014843024537, guid: c19a7d35101e5ac43973b17029396953, type: 3}
      propertyPath: m_LocalRotation.w
      value: -0.27139592
      objectReference: {fileID: 0}
    - target: {fileID: 2967940014843024537, guid: c19a7d35101e5ac43973b17029396953, type: 3}
      propertyPath: m_LocalRotation.x
      value: -0
      objectReference: {fileID: 0}
    - target: {fileID: 2967940014843024537, guid: c19a7d35101e5ac43973b17029396953, type: 3}
      propertyPath: m_LocalRotation.y
      value: -0
      objectReference: {fileID: 0}
    - target: {fileID: 2967940014843024537, guid: c19a7d35101e5ac43973b17029396953, type: 3}
      propertyPath: m_LocalRotation.z
      value: -0.9624678
      objectReference: {fileID: 0}
    - target: {fileID: 2967940014843024537, guid: c19a7d35101e5ac43973b17029396953, type: 3}
      propertyPath: m_LocalEulerAnglesHint.x
      value: 0
      objectReference: {fileID: 0}
    - target: {fileID: 2967940014843024537, guid: c19a7d35101e5ac43973b17029396953, type: 3}
      propertyPath: m_LocalEulerAnglesHint.y
      value: 0
      objectReference: {fileID: 0}
    - target: {fileID: 2967940014843024537, guid: c19a7d35101e5ac43973b17029396953, type: 3}
      propertyPath: m_LocalEulerAnglesHint.z
      value: -211.495
      objectReference: {fileID: 0}
    - target: {fileID: 4557824286866085220, guid: c19a7d35101e5ac43973b17029396953, type: 3}
      propertyPath: m_Sprite
      value: 
      objectReference: {fileID: 21300000, guid: ee76b62e23a71db418c07cd2249c645b, type: 3}
    - target: {fileID: 4557824286866085220, guid: c19a7d35101e5ac43973b17029396953, type: 3}
      propertyPath: m_Color.b
      value: 1
      objectReference: {fileID: 0}
    - target: {fileID: 4557824286866085220, guid: c19a7d35101e5ac43973b17029396953, type: 3}
      propertyPath: m_Color.g
      value: 1
      objectReference: {fileID: 0}
    - target: {fileID: 4557824286866085220, guid: c19a7d35101e5ac43973b17029396953, type: 3}
      propertyPath: m_Color.r
      value: 1
      objectReference: {fileID: 0}
    - target: {fileID: 4557824286866085220, guid: c19a7d35101e5ac43973b17029396953, type: 3}
      propertyPath: m_SortingOrder
      value: -9
      objectReference: {fileID: 0}
    - target: {fileID: 4557824286866085220, guid: c19a7d35101e5ac43973b17029396953, type: 3}
      propertyPath: m_MaskInteraction
      value: 0
      objectReference: {fileID: 0}
    - target: {fileID: 7882760013020609116, guid: c19a7d35101e5ac43973b17029396953, type: 3}
      propertyPath: m_Name
      value: road_4 Variant
      objectReference: {fileID: 0}
    m_RemovedComponents: []
  m_SourcePrefab: {fileID: 100100000, guid: c19a7d35101e5ac43973b17029396953, type: 3}
--- !u!1 &1055186501749304834 stripped
GameObject:
  m_CorrespondingSourceObject: {fileID: 7882760013020609116, guid: c19a7d35101e5ac43973b17029396953, type: 3}
  m_PrefabInstance: {fileID: 7188298059517973598}
  m_PrefabAsset: {fileID: 0}
