%YAML 1.1
%TAG !u! tag:unity3d.com,2011:
--- !u!74 &7400000
AnimationClip:
  m_ObjectHideFlags: 0
  m_CorrespondingSourceObject: {fileID: 0}
  m_PrefabInstance: {fileID: 0}
  m_PrefabAsset: {fileID: 0}
  m_Name: Die
  serializedVersion: 6
  m_Legacy: 0
  m_Compressed: 0
  m_UseHighQualityCurve: 1
  m_RotationCurves: []
  m_CompressedRotationCurves: []
  m_EulerCurves: []
  m_PositionCurves: []
  m_ScaleCurves: []
  m_FloatCurves: []
  m_PPtrCurves:
  - curve:
    - time: 0
      value: {fileID: 21300000, guid: 0e0605ba68f43bd4abb4a6089d0898cc, type: 3}
    - time: 0.083333336
      value: {fileID: 21300000, guid: f1441a45d91349a45b26d7c2bffff51b, type: 3}
    - time: 0.16666667
      value: {fileID: 21300000, guid: b0144c9c30ce20d4287460c5572c3dc6, type: 3}
    - time: 0.25
      value: {fileID: 21300000, guid: b762dec5cb113ca4da0965cdb35c737b, type: 3}
    - time: 0.33333334
      value: {fileID: 21300000, guid: 36cc1c1cabe86bc4f859c17db6d9c3ca, type: 3}
    - time: 0.41666666
      value: {fileID: 21300000, guid: 62d587c3a0392fd408b41ee164108e4d, type: 3}
    - time: 0.5
      value: {fileID: 21300000, guid: 399054c96482c454f87ee220241b1378, type: 3}
    - time: 0.5833333
      value: {fileID: 21300000, guid: b4bf78a1aad376d4b934b9931e498e1d, type: 3}
    - time: 0.6666667
      value: {fileID: 21300000, guid: 47578c6a75ac0934b95dff182c1c8cfe, type: 3}
    - time: 0.75
      value: {fileID: 21300000, guid: 6a8c1d1d0fbc89746bca737433034b99, type: 3}
    - time: 0.8333333
      value: {fileID: 21300000, guid: f710eaeee9a462846b482915745e8a49, type: 3}
    - time: 0.9166667
      value: {fileID: 21300000, guid: c352fcf19adbf7444a5150e6afc60f28, type: 3}
    - time: 1
      value: {fileID: 21300000, guid: 2b6ca7bec7c45fa4a9af93a6210c5100, type: 3}
    - time: 1.0833334
      value: {fileID: 21300000, guid: eb5bfe821bd442d47b3b50e3e47fd06f, type: 3}
    - time: 1.1666666
      value: {fileID: 21300000, guid: fb2493e12d979c1439d9574085ea4d4f, type: 3}
    - time: 1.25
      value: {fileID: 21300000, guid: 8d94357f9382acd4496ba9fb51500111, type: 3}
    - time: 1.3333334
      value: {fileID: 21300000, guid: 46288f43c565f624aaa6a109a1804dbf, type: 3}
    - time: 1.4166666
      value: {fileID: 21300000, guid: f41058859a0a0be4ca6441af5105f828, type: 3}
    - time: 1.5
      value: {fileID: 21300000, guid: d22d783b44250114abc05763a08f6774, type: 3}
    - time: 1.5833334
      value: {fileID: 21300000, guid: 69f9cfb7057885d46be792da5d2aa873, type: 3}
    attribute: m_Sprite
    path: 
    classID: 212
    script: {fileID: 0}
  m_SampleRate: 12
  m_WrapMode: 0
  m_Bounds:
    m_Center: {x: 0, y: 0, z: 0}
    m_Extent: {x: 0, y: 0, z: 0}
  m_ClipBindingConstant:
    genericBindings:
    - serializedVersion: 2
      path: 0
      attribute: 0
      script: {fileID: 0}
      typeID: 212
      customType: 23
      isPPtrCurve: 1
    pptrCurveMapping:
    - {fileID: 21300000, guid: 0e0605ba68f43bd4abb4a6089d0898cc, type: 3}
    - {fileID: 21300000, guid: f1441a45d91349a45b26d7c2bffff51b, type: 3}
    - {fileID: 21300000, guid: b0144c9c30ce20d4287460c5572c3dc6, type: 3}
    - {fileID: 21300000, guid: b762dec5cb113ca4da0965cdb35c737b, type: 3}
    - {fileID: 21300000, guid: 36cc1c1cabe86bc4f859c17db6d9c3ca, type: 3}
    - {fileID: 21300000, guid: 62d587c3a0392fd408b41ee164108e4d, type: 3}
    - {fileID: 21300000, guid: 399054c96482c454f87ee220241b1378, type: 3}
    - {fileID: 21300000, guid: b4bf78a1aad376d4b934b9931e498e1d, type: 3}
    - {fileID: 21300000, guid: 47578c6a75ac0934b95dff182c1c8cfe, type: 3}
    - {fileID: 21300000, guid: 6a8c1d1d0fbc89746bca737433034b99, type: 3}
    - {fileID: 21300000, guid: f710eaeee9a462846b482915745e8a49, type: 3}
    - {fileID: 21300000, guid: c352fcf19adbf7444a5150e6afc60f28, type: 3}
    - {fileID: 21300000, guid: 2b6ca7bec7c45fa4a9af93a6210c5100, type: 3}
    - {fileID: 21300000, guid: eb5bfe821bd442d47b3b50e3e47fd06f, type: 3}
    - {fileID: 21300000, guid: fb2493e12d979c1439d9574085ea4d4f, type: 3}
    - {fileID: 21300000, guid: 8d94357f9382acd4496ba9fb51500111, type: 3}
    - {fileID: 21300000, guid: 46288f43c565f624aaa6a109a1804dbf, type: 3}
    - {fileID: 21300000, guid: f41058859a0a0be4ca6441af5105f828, type: 3}
    - {fileID: 21300000, guid: d22d783b44250114abc05763a08f6774, type: 3}
    - {fileID: 21300000, guid: 69f9cfb7057885d46be792da5d2aa873, type: 3}
  m_AnimationClipSettings:
    serializedVersion: 2
    m_AdditiveReferencePoseClip: {fileID: 0}
    m_AdditiveReferencePoseTime: 0
    m_StartTime: 0
    m_StopTime: 1.6666667
    m_OrientationOffsetY: 0
    m_Level: 0
    m_CycleOffset: 0
    m_HasAdditiveReferencePose: 0
    m_LoopTime: 1
    m_LoopBlend: 0
    m_LoopBlendOrientation: 0
    m_LoopBlendPositionY: 0
    m_LoopBlendPositionXZ: 0
    m_KeepOriginalOrientation: 0
    m_KeepOriginalPositionY: 1
    m_KeepOriginalPositionXZ: 0
    m_HeightFromFeet: 0
    m_Mirror: 0
  m_EditorCurves: []
  m_EulerEditorCurves: []
  m_HasGenericRootTransform: 0
  m_HasMotionFloatCurves: 0
  m_Events: []
