%YAML 1.1
%TAG !u! tag:unity3d.com,2011:
--- !u!74 &7400000
AnimationClip:
  m_ObjectHideFlags: 0
  m_CorrespondingSourceObject: {fileID: 0}
  m_PrefabInstance: {fileID: 0}
  m_PrefabAsset: {fileID: 0}
  m_Name: Walk
  serializedVersion: 6
  m_Legacy: 0
  m_Compressed: 0
  m_UseHighQualityCurve: 1
  m_RotationCurves: []
  m_CompressedRotationCurves: []
  m_EulerCurves: []
  m_PositionCurves: []
  m_ScaleCurves: []
  m_FloatCurves: []
  m_PPtrCurves:
  - curve:
    - time: 0
      value: {fileID: 21300000, guid: 5aeccc7eaea2bb14285b0539c2f71790, type: 3}
    - time: 0.033333335
      value: {fileID: 21300000, guid: 380afbb18d6e7ca43a36cabeef8afe1d, type: 3}
    - time: 0.06666667
      value: {fileID: 21300000, guid: 73d907f56c1cded4b96137777d38b224, type: 3}
    - time: 0.1
      value: {fileID: 21300000, guid: 43a197aa55fdcec40b79f4df0d3b1d8a, type: 3}
    - time: 0.13333334
      value: {fileID: 21300000, guid: dd7741341fe5e8d46b2a74e25752ff6b, type: 3}
    - time: 0.16666667
      value: {fileID: 21300000, guid: 1530b683277dc6742b0775c3dacea6ac, type: 3}
    - time: 0.2
      value: {fileID: 21300000, guid: 77988bb8ef381844bbe5b16cceb77210, type: 3}
    - time: 0.23333333
      value: {fileID: 21300000, guid: bd134bc1006f83e49a91948535f37dc2, type: 3}
    - time: 0.26666668
      value: {fileID: 21300000, guid: 49ff030e6fe2f37468c15015596f217f, type: 3}
    - time: 0.3
      value: {fileID: 21300000, guid: ee15a7b43fb37d04a8de252731a77cad, type: 3}
    - time: 0.33333334
      value: {fileID: 21300000, guid: 820a96503e8dc1b4bac3c9d028df7967, type: 3}
    - time: 0.36666667
      value: {fileID: 21300000, guid: 990664a130c237c4e8a1444e6f2bfd4d, type: 3}
    - time: 0.4
      value: {fileID: 21300000, guid: a5ac3382a9ed42a46b818c2011376f2f, type: 3}
    - time: 0.43333334
      value: {fileID: 21300000, guid: 6d37b8ea1b066314bb7ba3a369314024, type: 3}
    - time: 0.46666667
      value: {fileID: 21300000, guid: 9d0b8cf96f96e05438546e35ab6f9a0a, type: 3}
    - time: 0.5
      value: {fileID: 21300000, guid: ebd14060e0d8fe341a52674ae3d7d598, type: 3}
    - time: 0.53333336
      value: {fileID: 21300000, guid: e183b3dc44192db47859d35244f11fb1, type: 3}
    - time: 0.56666666
      value: {fileID: 21300000, guid: fa9a12068ecadf047a1a4923acaa25bb, type: 3}
    - time: 0.6
      value: {fileID: 21300000, guid: d58184e9ddfe2124d979c63cce68708f, type: 3}
    - time: 0.6333333
      value: {fileID: 21300000, guid: 32a94c5da3cc0d842b2445dea6c1e00c, type: 3}
    attribute: m_Sprite
    path: 
    classID: 212
    script: {fileID: 0}
  m_SampleRate: 30
  m_WrapMode: 0
  m_Bounds:
    m_Center: {x: 0, y: 0, z: 0}
    m_Extent: {x: 0, y: 0, z: 0}
  m_ClipBindingConstant:
    genericBindings:
    - serializedVersion: 2
      path: 0
      attribute: 0
      script: {fileID: 0}
      typeID: 212
      customType: 23
      isPPtrCurve: 1
    pptrCurveMapping:
    - {fileID: 21300000, guid: 5aeccc7eaea2bb14285b0539c2f71790, type: 3}
    - {fileID: 21300000, guid: 380afbb18d6e7ca43a36cabeef8afe1d, type: 3}
    - {fileID: 21300000, guid: 73d907f56c1cded4b96137777d38b224, type: 3}
    - {fileID: 21300000, guid: 43a197aa55fdcec40b79f4df0d3b1d8a, type: 3}
    - {fileID: 21300000, guid: dd7741341fe5e8d46b2a74e25752ff6b, type: 3}
    - {fileID: 21300000, guid: 1530b683277dc6742b0775c3dacea6ac, type: 3}
    - {fileID: 21300000, guid: 77988bb8ef381844bbe5b16cceb77210, type: 3}
    - {fileID: 21300000, guid: bd134bc1006f83e49a91948535f37dc2, type: 3}
    - {fileID: 21300000, guid: 49ff030e6fe2f37468c15015596f217f, type: 3}
    - {fileID: 21300000, guid: ee15a7b43fb37d04a8de252731a77cad, type: 3}
    - {fileID: 21300000, guid: 820a96503e8dc1b4bac3c9d028df7967, type: 3}
    - {fileID: 21300000, guid: 990664a130c237c4e8a1444e6f2bfd4d, type: 3}
    - {fileID: 21300000, guid: a5ac3382a9ed42a46b818c2011376f2f, type: 3}
    - {fileID: 21300000, guid: 6d37b8ea1b066314bb7ba3a369314024, type: 3}
    - {fileID: 21300000, guid: 9d0b8cf96f96e05438546e35ab6f9a0a, type: 3}
    - {fileID: 21300000, guid: ebd14060e0d8fe341a52674ae3d7d598, type: 3}
    - {fileID: 21300000, guid: e183b3dc44192db47859d35244f11fb1, type: 3}
    - {fileID: 21300000, guid: fa9a12068ecadf047a1a4923acaa25bb, type: 3}
    - {fileID: 21300000, guid: d58184e9ddfe2124d979c63cce68708f, type: 3}
    - {fileID: 21300000, guid: 32a94c5da3cc0d842b2445dea6c1e00c, type: 3}
  m_AnimationClipSettings:
    serializedVersion: 2
    m_AdditiveReferencePoseClip: {fileID: 0}
    m_AdditiveReferencePoseTime: 0
    m_StartTime: 0
    m_StopTime: 0.6666667
    m_OrientationOffsetY: 0
    m_Level: 0
    m_CycleOffset: 0
    m_HasAdditiveReferencePose: 0
    m_LoopTime: 1
    m_LoopBlend: 0
    m_LoopBlendOrientation: 0
    m_LoopBlendPositionY: 0
    m_LoopBlendPositionXZ: 0
    m_KeepOriginalOrientation: 0
    m_KeepOriginalPositionY: 1
    m_KeepOriginalPositionXZ: 0
    m_HeightFromFeet: 0
    m_Mirror: 0
  m_EditorCurves: []
  m_EulerEditorCurves: []
  m_HasGenericRootTransform: 0
  m_HasMotionFloatCurves: 0
  m_Events: []
