%YAML 1.1
%TAG !u! tag:unity3d.com,2011:
--- !u!74 &7400000
AnimationClip:
  m_ObjectHideFlags: 0
  m_CorrespondingSourceObject: {fileID: 0}
  m_PrefabInstance: {fileID: 0}
  m_PrefabAsset: {fileID: 0}
  m_Name: Die
  serializedVersion: 6
  m_Legacy: 0
  m_Compressed: 0
  m_UseHighQualityCurve: 1
  m_RotationCurves: []
  m_CompressedRotationCurves: []
  m_EulerCurves: []
  m_PositionCurves: []
  m_ScaleCurves: []
  m_FloatCurves: []
  m_PPtrCurves:
  - curve:
    - time: 0
      value: {fileID: 21300000, guid: 5023f152ec389ae4fa7257f88904f154, type: 3}
    - time: 0.083333336
      value: {fileID: 21300000, guid: 63123b600be69eb4793e2c05a6bf9079, type: 3}
    - time: 0.16666667
      value: {fileID: 21300000, guid: b0a975e76fcf8824aab66355bea664d2, type: 3}
    - time: 0.25
      value: {fileID: 21300000, guid: b6f77677986475d488649a73cba74426, type: 3}
    - time: 0.33333334
      value: {fileID: 21300000, guid: 5616641acb6ff64429d82c190ece0216, type: 3}
    - time: 0.41666666
      value: {fileID: 21300000, guid: afb408ca0c5835149a5db502778dc1aa, type: 3}
    - time: 0.5
      value: {fileID: 21300000, guid: ecf6fcb1cbfc8d14d96d6b2137687762, type: 3}
    - time: 0.5833333
      value: {fileID: 21300000, guid: 2538ccf6ba02c0845a15acc4db865228, type: 3}
    - time: 0.6666667
      value: {fileID: 21300000, guid: 83181f1f03efd2747abc39f03e831184, type: 3}
    - time: 0.75
      value: {fileID: 21300000, guid: 03fa3f7a14c0d94478a98d91700c7694, type: 3}
    attribute: m_Sprite
    path: 
    classID: 212
    script: {fileID: 0}
  m_SampleRate: 12
  m_WrapMode: 0
  m_Bounds:
    m_Center: {x: 0, y: 0, z: 0}
    m_Extent: {x: 0, y: 0, z: 0}
  m_ClipBindingConstant:
    genericBindings:
    - serializedVersion: 2
      path: 0
      attribute: 0
      script: {fileID: 0}
      typeID: 212
      customType: 23
      isPPtrCurve: 1
    pptrCurveMapping:
    - {fileID: 21300000, guid: 5023f152ec389ae4fa7257f88904f154, type: 3}
    - {fileID: 21300000, guid: 63123b600be69eb4793e2c05a6bf9079, type: 3}
    - {fileID: 21300000, guid: b0a975e76fcf8824aab66355bea664d2, type: 3}
    - {fileID: 21300000, guid: b6f77677986475d488649a73cba74426, type: 3}
    - {fileID: 21300000, guid: 5616641acb6ff64429d82c190ece0216, type: 3}
    - {fileID: 21300000, guid: afb408ca0c5835149a5db502778dc1aa, type: 3}
    - {fileID: 21300000, guid: ecf6fcb1cbfc8d14d96d6b2137687762, type: 3}
    - {fileID: 21300000, guid: 2538ccf6ba02c0845a15acc4db865228, type: 3}
    - {fileID: 21300000, guid: 83181f1f03efd2747abc39f03e831184, type: 3}
    - {fileID: 21300000, guid: 03fa3f7a14c0d94478a98d91700c7694, type: 3}
  m_AnimationClipSettings:
    serializedVersion: 2
    m_AdditiveReferencePoseClip: {fileID: 0}
    m_AdditiveReferencePoseTime: 0
    m_StartTime: 0
    m_StopTime: 0.8333333
    m_OrientationOffsetY: 0
    m_Level: 0
    m_CycleOffset: 0
    m_HasAdditiveReferencePose: 0
    m_LoopTime: 1
    m_LoopBlend: 0
    m_LoopBlendOrientation: 0
    m_LoopBlendPositionY: 0
    m_LoopBlendPositionXZ: 0
    m_KeepOriginalOrientation: 0
    m_KeepOriginalPositionY: 1
    m_KeepOriginalPositionXZ: 0
    m_HeightFromFeet: 0
    m_Mirror: 0
  m_EditorCurves: []
  m_EulerEditorCurves: []
  m_HasGenericRootTransform: 0
  m_HasMotionFloatCurves: 0
  m_Events: []
