%YAML 1.1
%TAG !u! tag:unity3d.com,2011:
--- !u!1 &6036306509079739587
GameObject:
  m_ObjectHideFlags: 0
  m_CorrespondingSourceObject: {fileID: 0}
  m_PrefabInstance: {fileID: 0}
  m_PrefabAsset: {fileID: 0}
  serializedVersion: 6
  m_Component:
  - component: {fileID: 6036306509079739586}
  - component: {fileID: 6036306509079739585}
  m_Layer: 0
  m_Name: WindController
  m_TagString: Untagged
  m_Icon: {fileID: 0}
  m_NavMeshLayer: 0
  m_StaticEditorFlags: 0
  m_IsActive: 1
--- !u!4 &6036306509079739586
Transform:
  m_ObjectHideFlags: 0
  m_CorrespondingSourceObject: {fileID: 0}
  m_PrefabInstance: {fileID: 0}
  m_PrefabAsset: {fileID: 0}
  m_GameObject: {fileID: 6036306509079739587}
  m_LocalRotation: {x: 0, y: 0, z: 0, w: 1}
  m_LocalPosition: {x: 0, y: 0, z: 0}
  m_LocalScale: {x: 1, y: 1, z: 1}
  m_Children: []
  m_Father: {fileID: 0}
  m_RootOrder: 0
  m_LocalEulerAnglesHint: {x: 0, y: 0, z: 0}
--- !u!114 &6036306509079739585
MonoBehaviour:
  m_ObjectHideFlags: 0
  m_CorrespondingSourceObject: {fileID: 0}
  m_PrefabInstance: {fileID: 0}
  m_PrefabAsset: {fileID: 0}
  m_GameObject: {fileID: 6036306509079739587}
  m_Enabled: 1
  m_EditorHideFlags: 0
  m_Script: {fileID: 11500000, guid: 778899d8e6eb266439aa8f1c69dbb5e6, type: 3}
  m_Name: 
  m_EditorClassIdentifier: 
  windForceData:
    strength: 0
  windEntitiesManager:
    strengthWindEntitiesCountCurve:
      serializedVersion: 2
      m_Curve:
      - serializedVersion: 3
        time: 0
        value: 0
        inSlope: 2.2899451
        outSlope: 2.2899451
        tangentMode: 34
        weightedMode: 0
        inWeight: 0
        outWeight: 0.33333334
      - serializedVersion: 3
        time: 0.25624847
        value: 0.586795
        inSlope: 0.95555526
        outSlope: 0.95555526
        tangentMode: 0
        weightedMode: 0
        inWeight: 1
        outWeight: 0.33333334
      - serializedVersion: 3
        time: 1
        value: 1.0062485
        inSlope: -0.0000038743024
        outSlope: -0.0000038743024
        tangentMode: 0
        weightedMode: 0
        inWeight: 0.51199996
        outWeight: 0
      m_PreInfinity: 2
      m_PostInfinity: 2
      m_RotationOrder: 4
    areaForOneEntity: 100
    maxEntitiesCount: 0
    thresholdToReverseDirection: 0.25
    randomMaxDelay: 2
    minScale: 0.2
    maxScale: 0.4
    noiseStrengthFactor: 0.2
    pool:
      poolTransform: {fileID: 6036306509079739586}
      elements: []
      poolPrefab: {fileID: 627815948470951516, guid: 59124cfb6e08bc447ae3931dd689bb91, type: 3}
    currentWinds: []
  additionalTestValue: 0.1
