%YAML 1.1
%TAG !u! tag:unity3d.com,2011:
--- !u!221 &22100000
AnimatorOverrideController:
  m_ObjectHideFlags: 0
  m_CorrespondingSourceObject: {fileID: 0}
  m_PrefabInstance: {fileID: 0}
  m_PrefabAsset: {fileID: 0}
  m_Name: Elf2
  m_Controller: {fileID: 9100000, guid: 8fa87530d69ec2a4f90ba9128f1d1df3, type: 2}
  m_Clips:
  - m_OriginalClip: {fileID: 7400000, guid: 7ae0daf3944d4154f99c3321728d5dac, type: 2}
    m_OverrideClip: {fileID: 7400000, guid: b89353731f29f5a449c031763ee18dd2, type: 2}
