%YAML 1.1
%TAG !u! tag:unity3d.com,2011:
--- !u!74 &7400000
AnimationClip:
  m_ObjectHideFlags: 0
  m_CorrespondingSourceObject: {fileID: 0}
  m_PrefabInstance: {fileID: 0}
  m_PrefabAsset: {fileID: 0}
  m_Name: NinjaThrow
  serializedVersion: 6
  m_Legacy: 0
  m_Compressed: 0
  m_UseHighQualityCurve: 1
  m_RotationCurves: []
  m_CompressedRotationCurves: []
  m_EulerCurves: []
  m_PositionCurves: []
  m_ScaleCurves: []
  m_FloatCurves: []
  m_PPtrCurves:
  - curve:
    - time: 0
      value: {fileID: 21300000, guid: 74793acf2284f984ca6076da238b1479, type: 3}
    - time: 0.016666668
      value: {fileID: 21300000, guid: 4c34bc3e9674054449672cce2f0d27a8, type: 3}
    - time: 0.033333335
      value: {fileID: 21300000, guid: bd7a1db79e6ba1c4e9b2d9def5ea056c, type: 3}
    - time: 0.05
      value: {fileID: 21300000, guid: 8f3e381db2eba95489b22804ae0d6b29, type: 3}
    - time: 0.06666667
      value: {fileID: 21300000, guid: ebdae611a3e94324284a4e18c61399d3, type: 3}
    - time: 0.083333336
      value: {fileID: 21300000, guid: b722d834cad74f34a822be5e55986325, type: 3}
    - time: 0.1
      value: {fileID: 21300000, guid: 5bddccf4373d9fb4ca3db74b4cf01a7e, type: 3}
    - time: 0.11666667
      value: {fileID: 21300000, guid: a3b8f8ca20fca7345af6a0d42bc69ba8, type: 3}
    - time: 0.13333334
      value: {fileID: 21300000, guid: 70e9528245423424da4516a45bdd6f4d, type: 3}
    - time: 0.15
      value: {fileID: 21300000, guid: f33c660f40f16954a8be623747c9c690, type: 3}
    - time: 0.16666667
      value: {fileID: 21300000, guid: b93789629d2c7ba4c92026938d161575, type: 3}
    - time: 0.18333334
      value: {fileID: 21300000, guid: ab0428be8276cbd40949f1f5c4536141, type: 3}
    attribute: m_Sprite
    path: 
    classID: 212
    script: {fileID: 0}
  m_SampleRate: 60
  m_WrapMode: 0
  m_Bounds:
    m_Center: {x: 0, y: 0, z: 0}
    m_Extent: {x: 0, y: 0, z: 0}
  m_ClipBindingConstant:
    genericBindings:
    - serializedVersion: 2
      path: 0
      attribute: 0
      script: {fileID: 0}
      typeID: 212
      customType: 23
      isPPtrCurve: 1
    pptrCurveMapping:
    - {fileID: 21300000, guid: 74793acf2284f984ca6076da238b1479, type: 3}
    - {fileID: 21300000, guid: 4c34bc3e9674054449672cce2f0d27a8, type: 3}
    - {fileID: 21300000, guid: bd7a1db79e6ba1c4e9b2d9def5ea056c, type: 3}
    - {fileID: 21300000, guid: 8f3e381db2eba95489b22804ae0d6b29, type: 3}
    - {fileID: 21300000, guid: ebdae611a3e94324284a4e18c61399d3, type: 3}
    - {fileID: 21300000, guid: b722d834cad74f34a822be5e55986325, type: 3}
    - {fileID: 21300000, guid: 5bddccf4373d9fb4ca3db74b4cf01a7e, type: 3}
    - {fileID: 21300000, guid: a3b8f8ca20fca7345af6a0d42bc69ba8, type: 3}
    - {fileID: 21300000, guid: 70e9528245423424da4516a45bdd6f4d, type: 3}
    - {fileID: 21300000, guid: f33c660f40f16954a8be623747c9c690, type: 3}
    - {fileID: 21300000, guid: b93789629d2c7ba4c92026938d161575, type: 3}
    - {fileID: 21300000, guid: ab0428be8276cbd40949f1f5c4536141, type: 3}
  m_AnimationClipSettings:
    serializedVersion: 2
    m_AdditiveReferencePoseClip: {fileID: 0}
    m_AdditiveReferencePoseTime: 0
    m_StartTime: 0
    m_StopTime: 0.2
    m_OrientationOffsetY: 0
    m_Level: 0
    m_CycleOffset: 0
    m_HasAdditiveReferencePose: 0
    m_LoopTime: 0
    m_LoopBlend: 0
    m_LoopBlendOrientation: 0
    m_LoopBlendPositionY: 0
    m_LoopBlendPositionXZ: 0
    m_KeepOriginalOrientation: 0
    m_KeepOriginalPositionY: 1
    m_KeepOriginalPositionXZ: 0
    m_HeightFromFeet: 0
    m_Mirror: 0
  m_EditorCurves: []
  m_EulerEditorCurves: []
  m_HasGenericRootTransform: 0
  m_HasMotionFloatCurves: 0
  m_Events: []
