%YAML 1.1
%TAG !u! tag:unity3d.com,2011:
--- !u!74 &7400000
AnimationClip:
  m_ObjectHideFlags: 0
  m_CorrespondingSourceObject: {fileID: 0}
  m_PrefabInstance: {fileID: 0}
  m_PrefabAsset: {fileID: 0}
  m_Name: ZombioduszekWalk
  serializedVersion: 6
  m_Legacy: 0
  m_Compressed: 0
  m_UseHighQualityCurve: 1
  m_RotationCurves: []
  m_CompressedRotationCurves: []
  m_EulerCurves: []
  m_PositionCurves: []
  m_ScaleCurves: []
  m_FloatCurves: []
  m_PPtrCurves:
  - curve:
    - time: 0
      value: {fileID: 21300000, guid: 2c63e4f176456ad48b676933a5a459b8, type: 3}
    - time: 0.033333335
      value: {fileID: 21300000, guid: 4d9a127e63c3faf469b45637b46470f7, type: 3}
    - time: 0.06666667
      value: {fileID: 21300000, guid: 2c41baeb1ce931a44b12c1d5b37e2e4a, type: 3}
    - time: 0.1
      value: {fileID: 21300000, guid: 3b71cbf884b74f04885acc63b29e3fe2, type: 3}
    - time: 0.13333334
      value: {fileID: 21300000, guid: b6c91cd4dc27b5d4fab7f8895bb3b968, type: 3}
    - time: 0.16666667
      value: {fileID: 21300000, guid: 60b2180af41ac3949b69123c952d2a8c, type: 3}
    - time: 0.2
      value: {fileID: 21300000, guid: e2589907b5b9bb74f800e005c4eef0a0, type: 3}
    - time: 0.23333333
      value: {fileID: 21300000, guid: ea1519b041f42f5419e47f497220cd8d, type: 3}
    - time: 0.26666668
      value: {fileID: 21300000, guid: a43e4dddeab089c4c824b7a26769a2a7, type: 3}
    - time: 0.3
      value: {fileID: 21300000, guid: 7a58b9a39df54c241a9145c76414155d, type: 3}
    - time: 0.33333334
      value: {fileID: 21300000, guid: 033749917cfc19b469b1a1bc8b46ae00, type: 3}
    - time: 0.36666667
      value: {fileID: 21300000, guid: 294fc7b520e70ae4ab0cb8d98bec88ec, type: 3}
    - time: 0.4
      value: {fileID: 21300000, guid: 23126dd3154d58d479367eea21e3a4c6, type: 3}
    - time: 0.43333334
      value: {fileID: 21300000, guid: 82122d1d6c8b46f4db35fa2a1ef5eaa2, type: 3}
    - time: 0.46666667
      value: {fileID: 21300000, guid: 85c51a7ef883646478e6a7d76ed75a3c, type: 3}
    - time: 0.5
      value: {fileID: 21300000, guid: 0cf9efb32eddcc7489e7c3956cce1d0f, type: 3}
    - time: 0.53333336
      value: {fileID: 21300000, guid: 1adac9f4ce6c69946ab901ecd194502a, type: 3}
    - time: 0.56666666
      value: {fileID: 21300000, guid: d7e23fe5982e9dd409cd1c3eb07282e6, type: 3}
    - time: 0.6
      value: {fileID: 21300000, guid: 48cb8e0df6746d54c8eaddcec8434e2f, type: 3}
    - time: 0.6333333
      value: {fileID: 21300000, guid: 7e0e6760b13e9224381e21c1ffa47853, type: 3}
    attribute: m_Sprite
    path: 
    classID: 212
    script: {fileID: 0}
  m_SampleRate: 30
  m_WrapMode: 0
  m_Bounds:
    m_Center: {x: 0, y: 0, z: 0}
    m_Extent: {x: 0, y: 0, z: 0}
  m_ClipBindingConstant:
    genericBindings:
    - serializedVersion: 2
      path: 0
      attribute: 0
      script: {fileID: 0}
      typeID: 212
      customType: 23
      isPPtrCurve: 1
    pptrCurveMapping:
    - {fileID: 21300000, guid: 2c63e4f176456ad48b676933a5a459b8, type: 3}
    - {fileID: 21300000, guid: 4d9a127e63c3faf469b45637b46470f7, type: 3}
    - {fileID: 21300000, guid: 2c41baeb1ce931a44b12c1d5b37e2e4a, type: 3}
    - {fileID: 21300000, guid: 3b71cbf884b74f04885acc63b29e3fe2, type: 3}
    - {fileID: 21300000, guid: b6c91cd4dc27b5d4fab7f8895bb3b968, type: 3}
    - {fileID: 21300000, guid: 60b2180af41ac3949b69123c952d2a8c, type: 3}
    - {fileID: 21300000, guid: e2589907b5b9bb74f800e005c4eef0a0, type: 3}
    - {fileID: 21300000, guid: ea1519b041f42f5419e47f497220cd8d, type: 3}
    - {fileID: 21300000, guid: a43e4dddeab089c4c824b7a26769a2a7, type: 3}
    - {fileID: 21300000, guid: 7a58b9a39df54c241a9145c76414155d, type: 3}
    - {fileID: 21300000, guid: 033749917cfc19b469b1a1bc8b46ae00, type: 3}
    - {fileID: 21300000, guid: 294fc7b520e70ae4ab0cb8d98bec88ec, type: 3}
    - {fileID: 21300000, guid: 23126dd3154d58d479367eea21e3a4c6, type: 3}
    - {fileID: 21300000, guid: 82122d1d6c8b46f4db35fa2a1ef5eaa2, type: 3}
    - {fileID: 21300000, guid: 85c51a7ef883646478e6a7d76ed75a3c, type: 3}
    - {fileID: 21300000, guid: 0cf9efb32eddcc7489e7c3956cce1d0f, type: 3}
    - {fileID: 21300000, guid: 1adac9f4ce6c69946ab901ecd194502a, type: 3}
    - {fileID: 21300000, guid: d7e23fe5982e9dd409cd1c3eb07282e6, type: 3}
    - {fileID: 21300000, guid: 48cb8e0df6746d54c8eaddcec8434e2f, type: 3}
    - {fileID: 21300000, guid: 7e0e6760b13e9224381e21c1ffa47853, type: 3}
  m_AnimationClipSettings:
    serializedVersion: 2
    m_AdditiveReferencePoseClip: {fileID: 0}
    m_AdditiveReferencePoseTime: 0
    m_StartTime: 0
    m_StopTime: 0.6666667
    m_OrientationOffsetY: 0
    m_Level: 0
    m_CycleOffset: 0
    m_HasAdditiveReferencePose: 0
    m_LoopTime: 1
    m_LoopBlend: 0
    m_LoopBlendOrientation: 0
    m_LoopBlendPositionY: 0
    m_LoopBlendPositionXZ: 0
    m_KeepOriginalOrientation: 0
    m_KeepOriginalPositionY: 1
    m_KeepOriginalPositionXZ: 0
    m_HeightFromFeet: 0
    m_Mirror: 0
  m_EditorCurves: []
  m_EulerEditorCurves: []
  m_HasGenericRootTransform: 0
  m_HasMotionFloatCurves: 0
  m_Events: []
