%YAML 1.1
%TAG !u! tag:unity3d.com,2011:
--- !u!221 &22100000
AnimatorOverrideController:
  m_ObjectHideFlags: 0
  m_CorrespondingSourceObject: {fileID: 0}
  m_PrefabInstance: {fileID: 0}
  m_PrefabAsset: {fileID: 0}
  m_Name: FireElementalAnimator
  m_Controller: {fileID: 9100000, guid: dce6775ea7d594c47945e28f0bb0d558, type: 2}
  m_Clips:
  - m_OriginalClip: {fileID: 7400000, guid: a67e80232a071cc4ab6d66d9537ff220, type: 2}
    m_OverrideClip: {fileID: 7400000, guid: c5d229ddefd60384485040ae14ab3f7e, type: 2}
  - m_OriginalClip: {fileID: 7400000, guid: b360901cf938d8b4caaa5f326f2df053, type: 2}
    m_OverrideClip: {fileID: 7400000, guid: abd14acb98b51fd45a8a7c2b1e944a74, type: 2}
