%YAML 1.1
%TAG !u! tag:unity3d.com,2011:
--- !u!74 &7400000
AnimationClip:
  m_ObjectHideFlags: 0
  m_CorrespondingSourceObject: {fileID: 0}
  m_PrefabInstance: {fileID: 0}
  m_PrefabAsset: {fileID: 0}
  m_Name: DieNajemnik
  serializedVersion: 6
  m_Legacy: 0
  m_Compressed: 0
  m_UseHighQualityCurve: 1
  m_RotationCurves: []
  m_CompressedRotationCurves: []
  m_EulerCurves: []
  m_PositionCurves: []
  m_ScaleCurves: []
  m_FloatCurves: []
  m_PPtrCurves:
  - curve:
    - time: 0
      value: {fileID: 21300000, guid: 76c353317172a2d448cefdbde77d12a0, type: 3}
    - time: 0.033333335
      value: {fileID: 21300000, guid: a78c7696874dcc646929c67d638a4167, type: 3}
    - time: 0.06666667
      value: {fileID: 21300000, guid: 0b85141e91f0aff4f835c978b5d3f5c0, type: 3}
    - time: 0.1
      value: {fileID: 21300000, guid: 48c022c85599d3848a0830f615644c49, type: 3}
    - time: 0.13333334
      value: {fileID: 21300000, guid: 00a96d07198932344bfc18d3bd910a1a, type: 3}
    - time: 0.16666667
      value: {fileID: 21300000, guid: 868712a2c55d84b418b78b1bc118b91c, type: 3}
    - time: 0.2
      value: {fileID: 21300000, guid: ac40eb63d1d247f4a980b25196d80cbc, type: 3}
    - time: 0.23333333
      value: {fileID: 21300000, guid: 36f3045d8f540394384e3a64eaf5345d, type: 3}
    - time: 0.26666668
      value: {fileID: 21300000, guid: 3fd3ffc7e66023f4c9354b5c9a0d99ed, type: 3}
    - time: 0.3
      value: {fileID: 21300000, guid: 647c279cbaf407e46b45ed6d38b11269, type: 3}
    - time: 0.33333334
      value: {fileID: 21300000, guid: 21753cb67ded0034a9cccf6eaeeb0564, type: 3}
    - time: 0.36666667
      value: {fileID: 21300000, guid: d80b2f39f2183ba49919bd3b74a30822, type: 3}
    - time: 0.4
      value: {fileID: 21300000, guid: db1ca3be2bb384c42a9bf8b9e51e9bae, type: 3}
    - time: 0.43333334
      value: {fileID: 21300000, guid: 6b88359eb5301944e8202f6f31cbae97, type: 3}
    - time: 0.46666667
      value: {fileID: 21300000, guid: cdf0867ca78844848a60215dd6f0d33d, type: 3}
    - time: 0.5
      value: {fileID: 21300000, guid: 942a4bb6b2989ab4c86b7ca637bed693, type: 3}
    - time: 0.53333336
      value: {fileID: 21300000, guid: ec11b7255d3b00c45918251d63d9a9e4, type: 3}
    - time: 0.56666666
      value: {fileID: 21300000, guid: 67fd7a93ec84d3744983a12a03af0707, type: 3}
    - time: 0.6
      value: {fileID: 21300000, guid: 5d3e2c90efe27df4a9b1919e50556c0c, type: 3}
    - time: 0.6333333
      value: {fileID: 21300000, guid: 2380db720c3d0b84390e929748313278, type: 3}
    attribute: m_Sprite
    path: 
    classID: 212
    script: {fileID: 0}
  m_SampleRate: 30
  m_WrapMode: 0
  m_Bounds:
    m_Center: {x: 0, y: 0, z: 0}
    m_Extent: {x: 0, y: 0, z: 0}
  m_ClipBindingConstant:
    genericBindings:
    - serializedVersion: 2
      path: 0
      attribute: 0
      script: {fileID: 0}
      typeID: 212
      customType: 23
      isPPtrCurve: 1
    pptrCurveMapping:
    - {fileID: 21300000, guid: 76c353317172a2d448cefdbde77d12a0, type: 3}
    - {fileID: 21300000, guid: a78c7696874dcc646929c67d638a4167, type: 3}
    - {fileID: 21300000, guid: 0b85141e91f0aff4f835c978b5d3f5c0, type: 3}
    - {fileID: 21300000, guid: 48c022c85599d3848a0830f615644c49, type: 3}
    - {fileID: 21300000, guid: 00a96d07198932344bfc18d3bd910a1a, type: 3}
    - {fileID: 21300000, guid: 868712a2c55d84b418b78b1bc118b91c, type: 3}
    - {fileID: 21300000, guid: ac40eb63d1d247f4a980b25196d80cbc, type: 3}
    - {fileID: 21300000, guid: 36f3045d8f540394384e3a64eaf5345d, type: 3}
    - {fileID: 21300000, guid: 3fd3ffc7e66023f4c9354b5c9a0d99ed, type: 3}
    - {fileID: 21300000, guid: 647c279cbaf407e46b45ed6d38b11269, type: 3}
    - {fileID: 21300000, guid: 21753cb67ded0034a9cccf6eaeeb0564, type: 3}
    - {fileID: 21300000, guid: d80b2f39f2183ba49919bd3b74a30822, type: 3}
    - {fileID: 21300000, guid: db1ca3be2bb384c42a9bf8b9e51e9bae, type: 3}
    - {fileID: 21300000, guid: 6b88359eb5301944e8202f6f31cbae97, type: 3}
    - {fileID: 21300000, guid: cdf0867ca78844848a60215dd6f0d33d, type: 3}
    - {fileID: 21300000, guid: 942a4bb6b2989ab4c86b7ca637bed693, type: 3}
    - {fileID: 21300000, guid: ec11b7255d3b00c45918251d63d9a9e4, type: 3}
    - {fileID: 21300000, guid: 67fd7a93ec84d3744983a12a03af0707, type: 3}
    - {fileID: 21300000, guid: 5d3e2c90efe27df4a9b1919e50556c0c, type: 3}
    - {fileID: 21300000, guid: 2380db720c3d0b84390e929748313278, type: 3}
  m_AnimationClipSettings:
    serializedVersion: 2
    m_AdditiveReferencePoseClip: {fileID: 0}
    m_AdditiveReferencePoseTime: 0
    m_StartTime: 0
    m_StopTime: 0.6666667
    m_OrientationOffsetY: 0
    m_Level: 0
    m_CycleOffset: 0
    m_HasAdditiveReferencePose: 0
    m_LoopTime: 1
    m_LoopBlend: 0
    m_LoopBlendOrientation: 0
    m_LoopBlendPositionY: 0
    m_LoopBlendPositionXZ: 0
    m_KeepOriginalOrientation: 0
    m_KeepOriginalPositionY: 1
    m_KeepOriginalPositionXZ: 0
    m_HeightFromFeet: 0
    m_Mirror: 0
  m_EditorCurves: []
  m_EulerEditorCurves: []
  m_HasGenericRootTransform: 0
  m_HasMotionFloatCurves: 0
  m_Events: []
