%YAML 1.1
%TAG !u! tag:unity3d.com,2011:
--- !u!74 &7400000
AnimationClip:
  m_ObjectHideFlags: 0
  m_CorrespondingSourceObject: {fileID: 0}
  m_PrefabInstance: {fileID: 0}
  m_PrefabAsset: {fileID: 0}
  m_Name: GreenSmorcWalk
  serializedVersion: 6
  m_Legacy: 0
  m_Compressed: 0
  m_UseHighQualityCurve: 1
  m_RotationCurves: []
  m_CompressedRotationCurves: []
  m_EulerCurves: []
  m_PositionCurves: []
  m_ScaleCurves: []
  m_FloatCurves: []
  m_PPtrCurves:
  - curve:
    - time: 0
      value: {fileID: 21300000, guid: e726589027d16d94ea4ccb13edd80b83, type: 3}
    - time: 0.083333336
      value: {fileID: 21300000, guid: c792678929494c94aad69aac4732c0ce, type: 3}
    - time: 0.16666667
      value: {fileID: 21300000, guid: 3a44483c931312545a53db593eb2503a, type: 3}
    - time: 0.25
      value: {fileID: 21300000, guid: dd9f5478703ca5f4e9fc42337444afbd, type: 3}
    - time: 0.33333334
      value: {fileID: 21300000, guid: 0f50deab1d37d4c41bc82ca5840665ab, type: 3}
    - time: 0.41666666
      value: {fileID: 21300000, guid: de858bd881169ed4f9e3c2320bb777be, type: 3}
    - time: 0.5
      value: {fileID: 21300000, guid: b1c477768e0a3d04a9825bf3c5f7c7f6, type: 3}
    - time: 0.5833333
      value: {fileID: 21300000, guid: 125acbb80190a6841b73fe74b87596a9, type: 3}
    - time: 0.6666667
      value: {fileID: 21300000, guid: e096fff96654838458ca593559d330d7, type: 3}
    - time: 0.75
      value: {fileID: 21300000, guid: f0c2975f41c671945a3c55bd9cd4d125, type: 3}
    attribute: m_Sprite
    path: 
    classID: 212
    script: {fileID: 0}
  m_SampleRate: 12
  m_WrapMode: 0
  m_Bounds:
    m_Center: {x: 0, y: 0, z: 0}
    m_Extent: {x: 0, y: 0, z: 0}
  m_ClipBindingConstant:
    genericBindings:
    - serializedVersion: 2
      path: 0
      attribute: 0
      script: {fileID: 0}
      typeID: 212
      customType: 23
      isPPtrCurve: 1
    pptrCurveMapping:
    - {fileID: 21300000, guid: e726589027d16d94ea4ccb13edd80b83, type: 3}
    - {fileID: 21300000, guid: c792678929494c94aad69aac4732c0ce, type: 3}
    - {fileID: 21300000, guid: 3a44483c931312545a53db593eb2503a, type: 3}
    - {fileID: 21300000, guid: dd9f5478703ca5f4e9fc42337444afbd, type: 3}
    - {fileID: 21300000, guid: 0f50deab1d37d4c41bc82ca5840665ab, type: 3}
    - {fileID: 21300000, guid: de858bd881169ed4f9e3c2320bb777be, type: 3}
    - {fileID: 21300000, guid: b1c477768e0a3d04a9825bf3c5f7c7f6, type: 3}
    - {fileID: 21300000, guid: 125acbb80190a6841b73fe74b87596a9, type: 3}
    - {fileID: 21300000, guid: e096fff96654838458ca593559d330d7, type: 3}
    - {fileID: 21300000, guid: f0c2975f41c671945a3c55bd9cd4d125, type: 3}
  m_AnimationClipSettings:
    serializedVersion: 2
    m_AdditiveReferencePoseClip: {fileID: 0}
    m_AdditiveReferencePoseTime: 0
    m_StartTime: 0
    m_StopTime: 0.8333333
    m_OrientationOffsetY: 0
    m_Level: 0
    m_CycleOffset: 0
    m_HasAdditiveReferencePose: 0
    m_LoopTime: 1
    m_LoopBlend: 0
    m_LoopBlendOrientation: 0
    m_LoopBlendPositionY: 0
    m_LoopBlendPositionXZ: 0
    m_KeepOriginalOrientation: 0
    m_KeepOriginalPositionY: 1
    m_KeepOriginalPositionXZ: 0
    m_HeightFromFeet: 0
    m_Mirror: 0
  m_EditorCurves: []
  m_EulerEditorCurves: []
  m_HasGenericRootTransform: 0
  m_HasMotionFloatCurves: 0
  m_Events: []
