%YAML 1.1
%TAG !u! tag:unity3d.com,2011:
--- !u!74 &7400000
AnimationClip:
  m_ObjectHideFlags: 0
  m_CorrespondingSourceObject: {fileID: 0}
  m_PrefabInstance: {fileID: 0}
  m_PrefabAsset: {fileID: 0}
  m_Name: RunZombie
  serializedVersion: 6
  m_Legacy: 0
  m_Compressed: 0
  m_UseHighQualityCurve: 1
  m_RotationCurves: []
  m_CompressedRotationCurves: []
  m_EulerCurves: []
  m_PositionCurves: []
  m_ScaleCurves: []
  m_FloatCurves: []
  m_PPtrCurves:
  - curve:
    - time: 0
      value: {fileID: 21300000, guid: f05b217e5d1558841bbbcbeb9720425b, type: 3}
    - time: 0.083333336
      value: {fileID: 21300000, guid: 588099bdcf1e7604793cd3e207db7e09, type: 3}
    - time: 0.16666667
      value: {fileID: 21300000, guid: 2fa6c2ec39d115041ac2b5c1f1bfd7c6, type: 3}
    - time: 0.25
      value: {fileID: 21300000, guid: b4009db8ec786934399746452fbd978a, type: 3}
    - time: 0.33333334
      value: {fileID: 21300000, guid: 15b709907f7941545a2ae99162fff729, type: 3}
    - time: 0.41666666
      value: {fileID: 21300000, guid: 408bc77eee7407341b97ff7cfe852881, type: 3}
    - time: 0.5
      value: {fileID: 21300000, guid: 244c6ea5a8dc11d45bd9cb47c7ac9fad, type: 3}
    - time: 0.5833333
      value: {fileID: 21300000, guid: bdaf22b13844867498e77057c631b6de, type: 3}
    - time: 0.6666667
      value: {fileID: 21300000, guid: 216726be5dd9ada4a9777edde4cc80f1, type: 3}
    - time: 0.75
      value: {fileID: 21300000, guid: a7c30f47acc3a224a876db87c6088e5c, type: 3}
    - time: 0.8333333
      value: {fileID: 21300000, guid: cdf5b5b4fad875b46a992c580f0de19e, type: 3}
    - time: 0.9166667
      value: {fileID: 21300000, guid: 04af88af8d6798f488137b9d0f0b4579, type: 3}
    - time: 1
      value: {fileID: 21300000, guid: 51bf4ad9eac868c49b06e91d6b78011b, type: 3}
    - time: 1.0833334
      value: {fileID: 21300000, guid: 6490bb8b7f9ca934c96cfc9943e7cdc9, type: 3}
    - time: 1.1666666
      value: {fileID: 21300000, guid: c72ead022d5496b49916099a6e450c50, type: 3}
    - time: 1.25
      value: {fileID: 21300000, guid: 6bd8059a560e1654ba9f74f0639d328a, type: 3}
    - time: 1.3333334
      value: {fileID: 21300000, guid: 8de0c385c611d1e41bd8f946bfc2e9ec, type: 3}
    - time: 1.4166666
      value: {fileID: 21300000, guid: 79ef6db6910e0994d831acf21508ecb2, type: 3}
    - time: 1.5
      value: {fileID: 21300000, guid: 54b1e2577d968ae4187d18ff46ec7a5f, type: 3}
    - time: 1.5833334
      value: {fileID: 21300000, guid: 9e4796ff86529274399740a0fd66ef29, type: 3}
    attribute: m_Sprite
    path: 
    classID: 212
    script: {fileID: 0}
  m_SampleRate: 12
  m_WrapMode: 0
  m_Bounds:
    m_Center: {x: 0, y: 0, z: 0}
    m_Extent: {x: 0, y: 0, z: 0}
  m_ClipBindingConstant:
    genericBindings:
    - serializedVersion: 2
      path: 0
      attribute: 0
      script: {fileID: 0}
      typeID: 212
      customType: 23
      isPPtrCurve: 1
    pptrCurveMapping:
    - {fileID: 21300000, guid: f05b217e5d1558841bbbcbeb9720425b, type: 3}
    - {fileID: 21300000, guid: 588099bdcf1e7604793cd3e207db7e09, type: 3}
    - {fileID: 21300000, guid: 2fa6c2ec39d115041ac2b5c1f1bfd7c6, type: 3}
    - {fileID: 21300000, guid: b4009db8ec786934399746452fbd978a, type: 3}
    - {fileID: 21300000, guid: 15b709907f7941545a2ae99162fff729, type: 3}
    - {fileID: 21300000, guid: 408bc77eee7407341b97ff7cfe852881, type: 3}
    - {fileID: 21300000, guid: 244c6ea5a8dc11d45bd9cb47c7ac9fad, type: 3}
    - {fileID: 21300000, guid: bdaf22b13844867498e77057c631b6de, type: 3}
    - {fileID: 21300000, guid: 216726be5dd9ada4a9777edde4cc80f1, type: 3}
    - {fileID: 21300000, guid: a7c30f47acc3a224a876db87c6088e5c, type: 3}
    - {fileID: 21300000, guid: cdf5b5b4fad875b46a992c580f0de19e, type: 3}
    - {fileID: 21300000, guid: 04af88af8d6798f488137b9d0f0b4579, type: 3}
    - {fileID: 21300000, guid: 51bf4ad9eac868c49b06e91d6b78011b, type: 3}
    - {fileID: 21300000, guid: 6490bb8b7f9ca934c96cfc9943e7cdc9, type: 3}
    - {fileID: 21300000, guid: c72ead022d5496b49916099a6e450c50, type: 3}
    - {fileID: 21300000, guid: 6bd8059a560e1654ba9f74f0639d328a, type: 3}
    - {fileID: 21300000, guid: 8de0c385c611d1e41bd8f946bfc2e9ec, type: 3}
    - {fileID: 21300000, guid: 79ef6db6910e0994d831acf21508ecb2, type: 3}
    - {fileID: 21300000, guid: 54b1e2577d968ae4187d18ff46ec7a5f, type: 3}
    - {fileID: 21300000, guid: 9e4796ff86529274399740a0fd66ef29, type: 3}
  m_AnimationClipSettings:
    serializedVersion: 2
    m_AdditiveReferencePoseClip: {fileID: 0}
    m_AdditiveReferencePoseTime: 0
    m_StartTime: 0
    m_StopTime: 1.6666667
    m_OrientationOffsetY: 0
    m_Level: 0
    m_CycleOffset: 0
    m_HasAdditiveReferencePose: 0
    m_LoopTime: 1
    m_LoopBlend: 0
    m_LoopBlendOrientation: 0
    m_LoopBlendPositionY: 0
    m_LoopBlendPositionXZ: 0
    m_KeepOriginalOrientation: 0
    m_KeepOriginalPositionY: 1
    m_KeepOriginalPositionXZ: 0
    m_HeightFromFeet: 0
    m_Mirror: 0
  m_EditorCurves: []
  m_EulerEditorCurves: []
  m_HasGenericRootTransform: 0
  m_HasMotionFloatCurves: 0
  m_Events: []
