%YAML 1.1
%TAG !u! tag:unity3d.com,2011:
--- !u!221 &22100000
AnimatorOverrideController:
  m_ObjectHideFlags: 0
  m_CorrespondingSourceObject: {fileID: 0}
  m_PrefabInstance: {fileID: 0}
  m_PrefabAsset: {fileID: 0}
  m_Name: ZombieZMieczemOverrider
  m_Controller: {fileID: 9100000, guid: dce6775ea7d594c47945e28f0bb0d558, type: 2}
  m_Clips:
  - m_OriginalClip: {fileID: 7400000, guid: 2c8ce72facb0b23459df74c1cb356d7d, type: 2}
    m_OverrideClip: {fileID: 7400000, guid: 70e4bcbe329d21e4c81aaf1b010cc1cb, type: 2}
  - m_OriginalClip: {fileID: 7400000, guid: a67e80232a071cc4ab6d66d9537ff220, type: 2}
    m_OverrideClip: {fileID: 7400000, guid: bd0279c861f62704db76a40f37392132, type: 2}
  - m_OriginalClip: {fileID: 7400000, guid: b360901cf938d8b4caaa5f326f2df053, type: 2}
    m_OverrideClip: {fileID: 7400000, guid: 13b1fce6727dae643a9faf06e9815b77, type: 2}
